clion/cpucr.vcd
$date
     Nov 15, 2015       19:09:50
$end

$version
 SystemC 2.3.1-Accellera --- Aug 26 2015 20:42:51
$end

$timescale
     1 ns
$end

$scope module SystemC $end
$var wire   12  aaaaa  address [11:0]  $end
$var wire    6  aaaab  data [5:0]  $end
$var wire    1  aaaac  enable       $end
$var wire    1  aaaad  rw       $end
$var wire    1  aaaae  clk       $end
$var wire    6  aaaaf  acum [5:0]  $end
$var wire    6  aaaag  s [5:0]  $end
$var wire    6  aaaah  ports_i [5:0]  $end
$var wire    6  aaaai  ports_o [5:0]  $end
$var wire    1  aaaaj  rps       $end
$var wire   12  aaaak  pc [11:0]  $end
$var wire    1  aaaal  CB       $end
$var wire    1  aaaam  CM       $end
$var wire    1  aaaan  LE       $end
$var wire    1  aaaao  rps_stim_o       $end
$var wire    1  aaaap  s_LE       $end
$var wire    1  aaaaq  s_CM       $end
$var wire    1  aaaar  s_CB       $end
$var wire   32  aaaas  s_est_prox [31:0]  $end
$var wire   32  aaaat  s_est_pres [31:0]  $end
$var wire    1  aaaau  init_t_o       $end
$var wire    6  aaaav  ports_t_o [5:0]  $end
$var wire    6  aaaaw  ports_t_i [5:0]  $end
$var wire    6  aaaax  s_t_o [5:0]  $end
$var wire    6  aaaay  acum_t_o [5:0]  $end
$var wire    1  aaaaz  en_t_i       $end
$var wire    1  aaaba  rw_t_i       $end
$var wire   12  aaabb  addr_t_o [11:0]  $end
$var wire    6  aaabc  dat_t_o [5:0]  $end
$var wire    6  aaabd  dat_t_i [5:0]  $end
$var wire    1  aaabe  rps_t_i       $end
$var wire    1  aaabf  en_m_i       $end
$var wire    1  aaabg  rw_m_i       $end
$var wire   12  aaabh  addr_m_i [11:0]  $end
$var wire    6  aaabi  dat_m_o [5:0]  $end
$var wire    6  aaabj  dat_m_i [5:0]  $end
$var wire    1  aaabk  init_c_o       $end
$var wire   12  aaabl  pc_c_o [11:0]  $end
$var wire    1  aaabm  rps_c_i       $end
$var wire    6  aaabn  RI [5:0]  $end
$var wire    6  aaabo  s_c_o [5:0]  $end
$var wire    1  aaabp  en_c_o       $end
$var wire    1  aaabq  rw_c_o       $end
$var wire   12  aaabr  addr_c_o [11:0]  $end
$var wire    6  aaabs  dat_c_o [5:0]  $end
$upscope $end
$enddefinitions  $end

$comment
All initial values are dumped below at time 0 sec = 0 timescale units.
$end

$dumpvars
bXXXXXXXXXXXX aaaaa
bXXXXXX aaaab
0aaaac
1aaaad
0aaaae
b111111 aaaaf
bXXXXXX aaaag
bXXXXXX aaaah
bXXXXXX aaaai
0aaaaj
bXXXXXXXXXXXX aaaak
0aaaal
0aaaam
1aaaan
0aaaao
1aaaap
0aaaaq
0aaaar
b1 aaaas
b0 aaaat
0aaaau
bXXXXXX aaaav
bXXXXXX aaaaw
bXXXXXX aaaax
b111111 aaaay
0aaaaz
1aaaba
bXXXXXXXXXXXX aaabb
bXXXXXX aaabc
bZZZZZZ aaabd
0aaabe
0aaabf
1aaabg
bXXXXXXXXXXXX aaabh
bZZZZZZ aaabi
bXXXXXX aaabj
0aaabk
bXXXXXXXXXXXX aaabl
0aaabm
b0 aaabn
bXXXXXX aaabo
0aaabp
1aaabq
bXXXXXXXXXXXX aaabr
bXXXXXX aaabs
$end

#250
1aaaae

#500
b0 aaaaa
1aaaac
0aaaae
1aaaaj
b0 aaaak
1aaaal
1aaaam
1aaaao
1aaaaq
1aaaar
b10 aaaas
b1 aaaat
1aaaaz
b0 aaabb
b0 aaabd
1aaabe
1aaabf
b0 aaabh
b0 aaabi
b0 aaabl
1aaabm
1aaabp
b0 aaabr

#750
1aaaae

#1000
0aaaae
0aaaal
0aaaam
0aaaaq
0aaaar
b11 aaaas
b10 aaaat

#1250
1aaaae

#1500
b1 aaaaa
0aaaae
b1 aaaak
1aaaam
1aaaaq
b100 aaaas
b11 aaaat
b1 aaabb
b1 aaabd
b1 aaabh
b1 aaabi
b1 aaabl
b1 aaabr

#1750
1aaaae

#2000
0aaaae
b1 aaaaf
b10000 aaaag
0aaaam
0aaaaq
b1 aaaas
b100 aaaat
b10000 aaaax
b1 aaaay
b10000 aaabo

#2250
1aaaae

#2500
b10 aaaaa
0aaaae
b10 aaaak
1aaaal
1aaaam
1aaaaq
1aaaar
b10 aaaas
b1 aaaat
b10 aaabb
b1011 aaabd
b10 aaabh
b1011 aaabi
b10 aaabl
b10 aaabr

#2750
1aaaae

#3000
0aaaae
0aaaal
0aaaam
0aaaaq
0aaaar
b11 aaaas
b10 aaaat
b1011 aaabn

#3250
1aaaae

#3500
b11 aaaaa
0aaaae
b11 aaaak
1aaaam
1aaaaq
b100 aaaas
b11 aaaat
b11 aaabb
b0 aaabd
b11 aaabh
b0 aaabi
b11 aaabl
b11 aaabr

#3750
1aaaae

#4000
0aaaae
0aaaam
0aaaaq
b101 aaaas
b100 aaaat

#4250
1aaaae

#4500
b100 aaaaa
0aaaae
b100 aaaak
1aaaam
1aaaaq
b110 aaaas
b101 aaaat
b100 aaabb
b11 aaabd
b100 aaabh
b11 aaabi
b100 aaabl
b100 aaabr

#4750
1aaaae

#5000
0aaaae
0aaaam
0aaaaq
b111 aaaas
b110 aaaat

#5250
1aaaae

#5500
b11000000 aaaaa
0aaaae
b101 aaaak
1aaaam
1aaaaq
b1000 aaaas
b111 aaaat
b11000000 aaabb
b0 aaabd
b11000000 aaabh
b0 aaabi
b101 aaabl
b11000000 aaabr

#5750
1aaaae

#6000
0aaaae
0aaaam
0aaaaq
b1001 aaaas
b1000 aaaat

#6250
1aaaae

#6500
b11000001 aaaaa
0aaaae
1aaaam
1aaaaq
b1010 aaaas
b1001 aaaat
b11000001 aaabb
b11000001 aaabh
b11000001 aaabr

#6750
1aaaae

#7000
0aaaae
0aaaam
0aaaaq
b1011 aaaas
b1010 aaaat

#7250
1aaaae

#7500
b0 aaaaa
0aaaae
1aaaam
1aaaaq
b1100 aaaas
b1011 aaaat
b0 aaabb
b0 aaabh
b0 aaabr

#7750
1aaaae

#8000
b1 aaaab
0aaaad
0aaaae
0aaaam
0aaaan
0aaaap
0aaaaq
b1 aaaas
b1100 aaaat
0aaaba
b1 aaabc
0aaabg
b1 aaabj
0aaabq
b1 aaabs

#8250
1aaaae

#8500
b101 aaaaa
1aaaad
0aaaae
1aaaal
1aaaam
1aaaan
1aaaap
1aaaaq
1aaaar
b10 aaaas
b1 aaaat
1aaaba
b101 aaabb
b10101 aaabd
1aaabg
b101 aaabh
b10101 aaabi
1aaabq
b101 aaabr

#8750
1aaaae

#9000
0aaaae
b10 aaaaf
0aaaal
0aaaam
0aaaaq
0aaaar
b1 aaaas
b10 aaaat
b10 aaaay
b10101 aaabn

#9250
1aaaae

#9500
b1 aaaaa
0aaaae
b110 aaaak
1aaaal
1aaaam
1aaaaq
1aaaar
b10 aaaas
b1 aaaat
b1 aaabb
b1 aaabd
b1 aaabh
b1 aaabi
b110 aaabl
b1 aaabr

#9750
1aaaae

#10000
0aaaae
0aaaal
0aaaam
0aaaaq
0aaaar
b11 aaaas
b10 aaaat
b1 aaabn

#10250
1aaaae

#10500
b10 aaaaa
0aaaae
b111 aaaak
1aaaam
1aaaaq
b100 aaaas
b11 aaaat
b10 aaabb
b1011 aaabd
b10 aaabh
b1011 aaabi
b111 aaabl
b10 aaabr

#10750
1aaaae

#11000
0aaaae
0aaaam
0aaaaq
b101 aaaas
b100 aaaat

#11250
1aaaae

#11500
b11 aaaaa
0aaaae
b1000 aaaak
1aaaam
1aaaaq
b110 aaaas
b101 aaaat
b11 aaabb
b0 aaabd
b11 aaabh
b0 aaabi
b1000 aaabl
b11 aaabr

#11750
1aaaae

#12000
0aaaae
0aaaam
0aaaaq
b111 aaaas
b110 aaaat

#12250
1aaaae

#12500
b1011 aaaaa
0aaaae
b1001 aaaak
1aaaam
1aaaaq
b1000 aaaas
b111 aaaat
b1011 aaabb
b1011 aaabh
b1001 aaabl
b1011 aaabr

#12750
1aaaae

#13000
0aaaae
b0 aaaaf
b10010 aaaag
0aaaam
0aaaaq
b1 aaaas
b1000 aaaat
b10010 aaaax
b0 aaaay
b10010 aaabo

#13250
1aaaae

#13500
b1001 aaaaa
0aaaae
1aaaal
1aaaam
1aaaaq
1aaaar
b10 aaaas
b1 aaaat
b1001 aaabb
b1001 aaabh
b1001 aaabr

#13750
1aaaae

#14000
0aaaae
0aaaal
0aaaam
0aaaaq
0aaaar
b11 aaaas
b10 aaaat
b0 aaabn

#14250
1aaaae

#14500
b1010 aaaaa
0aaaae
b1010 aaaak
1aaaam
1aaaaq
b100 aaaas
b11 aaaat
b1010 aaabb
b1010 aaabh
b1010 aaabl
b1010 aaabr

#14750
1aaaae

#15000
0aaaae
0aaaam
0aaaaq
b1 aaaas
b100 aaaat

#15250
1aaaae

#15500
b1011 aaaaa
0aaaae
b1011 aaaak
1aaaal
1aaaam
1aaaaq
1aaaar
b10 aaaas
b1 aaaat
b1011 aaabb
b1011 aaabh
b1011 aaabl
b1011 aaabr

#15750
1aaaae

#16000
0aaaae
0aaaal
0aaaam
0aaaaq
0aaaar
b11 aaaas
b10 aaaat

#16250
1aaaae

#16500
b1100 aaaaa
0aaaae
b1100 aaaak
1aaaam
1aaaaq
b100 aaaas
b11 aaaat
b1100 aaabb
b1100 aaabh
b1100 aaabl
b1100 aaabr

#16750
1aaaae

#17000
0aaaae
0aaaam
0aaaaq
b1 aaaas
b100 aaaat

#17250
1aaaae

#17500
b1101 aaaaa
0aaaae
b1101 aaaak
1aaaal
1aaaam
1aaaaq
1aaaar
b10 aaaas
b1 aaaat
b1101 aaabb
b1101 aaabh
b1101 aaabl
b1101 aaabr

#17750
1aaaae

#18000
0aaaae
0aaaal
0aaaam
0aaaaq
0aaaar
b11 aaaas
b10 aaaat

#18250
1aaaae

#18500
b1110 aaaaa
0aaaae
b1110 aaaak
1aaaam
1aaaaq
b100 aaaas
b11 aaaat
b1110 aaabb
b1110 aaabh
b1110 aaabl
b1110 aaabr

#18750
1aaaae

#19000
0aaaae
0aaaam
0aaaaq
b1 aaaas
b100 aaaat

#19250
1aaaae

#19500
b1111 aaaaa
0aaaae
b1111 aaaak
1aaaal
1aaaam
1aaaaq
1aaaar
b10 aaaas
b1 aaaat
b1111 aaabb
b1111 aaabh
b1111 aaabl
b1111 aaabr

#19750
1aaaae

#20000
0aaaae
0aaaal
0aaaam
0aaaaq
0aaaar
b11 aaaas
b10 aaaat

#20250
1aaaae

#20500
b10000 aaaaa
0aaaae
b10000 aaaak
1aaaam
1aaaaq
b100 aaaas
b11 aaaat
b10000 aaabb
b10000 aaabh
b10000 aaabl
b10000 aaabr

#20750
1aaaae

#21000
0aaaae
0aaaam
0aaaaq
b1 aaaas
b100 aaaat

#21250
1aaaae

#21500
b10001 aaaaa
0aaaae
b10001 aaaak
1aaaal
1aaaam
1aaaaq
1aaaar
b10 aaaas
b1 aaaat
b10001 aaabb
b10001 aaabh
b10001 aaabl
b10001 aaabr

#21750
1aaaae

#22000
0aaaae
0aaaal
0aaaam
0aaaaq
0aaaar
b11 aaaas
b10 aaaat

#22250
1aaaae

#22500
b10010 aaaaa
0aaaae
b10010 aaaak
1aaaam
1aaaaq
b100 aaaas
b11 aaaat
b10010 aaabb
b10010 aaabh
b10010 aaabl
b10010 aaabr

#22750
1aaaae

#23000
0aaaae
0aaaam
0aaaaq
b1 aaaas
b100 aaaat

#23250
1aaaae

#23500
b10011 aaaaa
0aaaae
b10011 aaaak
1aaaal
1aaaam
1aaaaq
1aaaar
b10 aaaas
b1 aaaat
b10011 aaabb
b10011 aaabh
b10011 aaabl
b10011 aaabr

#23750
1aaaae

#24000
0aaaae
0aaaal
0aaaam
0aaaaq
0aaaar
b11 aaaas
b10 aaaat

#24250
1aaaae

#24500
b10100 aaaaa
0aaaae
b10100 aaaak
1aaaam
1aaaaq
b100 aaaas
b11 aaaat
b10100 aaabb
b10100 aaabh
b10100 aaabl
b10100 aaabr

#24750
1aaaae

#25000
0aaaae
0aaaam
0aaaaq
b1 aaaas
b100 aaaat

#25250
1aaaae

#25500
b10101 aaaaa
0aaaae
b10101 aaaak
1aaaal
1aaaam
1aaaaq
1aaaar
b10 aaaas
b1 aaaat
b10101 aaabb
b10101 aaabh
b10101 aaabl
b10101 aaabr

#25750
1aaaae

#26000
0aaaae
0aaaal
0aaaam
0aaaaq
0aaaar
b11 aaaas
b10 aaaat

#26250
1aaaae

#26500
b10110 aaaaa
0aaaae
b10110 aaaak
1aaaam
1aaaaq
b100 aaaas
b11 aaaat
b10110 aaabb
b10110 aaabh
b10110 aaabl
b10110 aaabr

#26750
1aaaae

#27000
0aaaae
0aaaam
0aaaaq
b1 aaaas
b100 aaaat

#27250
1aaaae

#27500
b10111 aaaaa
0aaaae
b10111 aaaak
1aaaal
1aaaam
1aaaaq
1aaaar
b10 aaaas
b1 aaaat
b10111 aaabb
b10111 aaabh
b10111 aaabl
b10111 aaabr

#27750
1aaaae

#28000
0aaaae
0aaaal
0aaaam
0aaaaq
0aaaar
b11 aaaas
b10 aaaat

#28250
1aaaae

#28500
b11000 aaaaa
0aaaae
b11000 aaaak
1aaaam
1aaaaq
b100 aaaas
b11 aaaat
b11000 aaabb
b11000 aaabh
b11000 aaabl
b11000 aaabr

#28750
1aaaae

#29000
0aaaae
0aaaam
0aaaaq
b1 aaaas
b100 aaaat

#29250
1aaaae

#29500
b11001 aaaaa
0aaaae
b11001 aaaak
1aaaal
1aaaam
1aaaaq
1aaaar
b10 aaaas
b1 aaaat
b11001 aaabb
b11001 aaabh
b11001 aaabl
b11001 aaabr

#29750
1aaaae

#30000
0aaaae
0aaaal
0aaaam
0aaaaq
0aaaar
b11 aaaas
b10 aaaat

#30250
1aaaae

#30500
b11010 aaaaa
0aaaae
b11010 aaaak
1aaaam
1aaaaq
b100 aaaas
b11 aaaat
b11010 aaabb
b11010 aaabh
b11010 aaabl
b11010 aaabr

#30750
1aaaae

#31000
0aaaae
0aaaam
0aaaaq
b1 aaaas
b100 aaaat

#31250
1aaaae

#31500
b11011 aaaaa
0aaaae
b11011 aaaak
1aaaal
1aaaam
1aaaaq
1aaaar
b10 aaaas
b1 aaaat
b11011 aaabb
b11011 aaabh
b11011 aaabl
b11011 aaabr

#31750
1aaaae

#32000
0aaaae
0aaaal
0aaaam
0aaaaq
0aaaar
b11 aaaas
b10 aaaat

#32250
1aaaae

#32500
b11100 aaaaa
0aaaae
b11100 aaaak
1aaaam
1aaaaq
b100 aaaas
b11 aaaat
b11100 aaabb
b11100 aaabh
b11100 aaabl
b11100 aaabr

#32750
1aaaae

#33000
0aaaae
0aaaam
0aaaaq
b1 aaaas
b100 aaaat

#33250
1aaaae

#33500
b11101 aaaaa
0aaaae
b11101 aaaak
1aaaal
1aaaam
1aaaaq
1aaaar
b10 aaaas
b1 aaaat
b11101 aaabb
b11101 aaabh
b11101 aaabl
b11101 aaabr

#33750
1aaaae

#34000
0aaaae
0aaaal
0aaaam
0aaaaq
0aaaar
b11 aaaas
b10 aaaat

#34250
1aaaae

#34500
b11110 aaaaa
0aaaae
b11110 aaaak
1aaaam
1aaaaq
b100 aaaas
b11 aaaat
b11110 aaabb
b11110 aaabh
b11110 aaabl
b11110 aaabr

#34750
1aaaae

#35000
0aaaae
0aaaam
0aaaaq
b1 aaaas
b100 aaaat

#35250
1aaaae

#35500
b11111 aaaaa
0aaaae
b11111 aaaak
1aaaal
1aaaam
1aaaaq
1aaaar
b10 aaaas
b1 aaaat
b11111 aaabb
b11111 aaabh
b11111 aaabl
b11111 aaabr

#35750
1aaaae

#36000
0aaaae
0aaaal
0aaaam
0aaaaq
0aaaar
b11 aaaas
b10 aaaat

#36250
1aaaae

#36500
b100000 aaaaa
0aaaae
b100000 aaaak
1aaaam
1aaaaq
b100 aaaas
b11 aaaat
b100000 aaabb
b100000 aaabh
b100000 aaabl
b100000 aaabr

#36750
1aaaae

#37000
0aaaae
0aaaam
0aaaaq
b1 aaaas
b100 aaaat

#37250
1aaaae

#37500
b100001 aaaaa
0aaaae
b100001 aaaak
1aaaal
1aaaam
1aaaaq
1aaaar
b10 aaaas
b1 aaaat
b100001 aaabb
b100001 aaabh
b100001 aaabl
b100001 aaabr

#37750
1aaaae

#38000
0aaaae
0aaaal
0aaaam
0aaaaq
0aaaar
b11 aaaas
b10 aaaat

#38250
1aaaae

#38500
b100010 aaaaa
0aaaae
b100010 aaaak
1aaaam
1aaaaq
b100 aaaas
b11 aaaat
b100010 aaabb
b100010 aaabh
b100010 aaabl
b100010 aaabr

#38750
1aaaae

#39000
0aaaae
0aaaam
0aaaaq
b1 aaaas
b100 aaaat

#39250
1aaaae

#39500
b100011 aaaaa
0aaaae
b100011 aaaak
1aaaal
1aaaam
1aaaaq
1aaaar
b10 aaaas
b1 aaaat
b100011 aaabb
b100011 aaabh
b100011 aaabl
b100011 aaabr

#39750
1aaaae

#40000
0aaaae
0aaaal
0aaaam
0aaaaq
0aaaar
b11 aaaas
b10 aaaat

#40250
1aaaae

#40500
b100100 aaaaa
0aaaae
b100100 aaaak
1aaaam
1aaaaq
b100 aaaas
b11 aaaat
b100100 aaabb
b100100 aaabh
b100100 aaabl
b100100 aaabr

#40750
1aaaae

#41000
0aaaae
0aaaam
0aaaaq
b1 aaaas
b100 aaaat

#41250
1aaaae

#41500
b100101 aaaaa
0aaaae
b100101 aaaak
1aaaal
1aaaam
1aaaaq
1aaaar
b10 aaaas
b1 aaaat
b100101 aaabb
b100101 aaabh
b100101 aaabl
b100101 aaabr

#41750
1aaaae

#42000
0aaaae
0aaaal
0aaaam
0aaaaq
0aaaar
b11 aaaas
b10 aaaat

#42250
1aaaae

#42500
b100110 aaaaa
0aaaae
b100110 aaaak
1aaaam
1aaaaq
b100 aaaas
b11 aaaat
b100110 aaabb
b100110 aaabh
b100110 aaabl
b100110 aaabr

#42750
1aaaae

#43000
0aaaae
0aaaam
0aaaaq
b1 aaaas
b100 aaaat

#43250
1aaaae

#43500
b100111 aaaaa
0aaaae
b100111 aaaak
1aaaal
1aaaam
1aaaaq
1aaaar
b10 aaaas
b1 aaaat
b100111 aaabb
b100111 aaabh
b100111 aaabl
b100111 aaabr

#43750
1aaaae

#44000
0aaaae
0aaaal
0aaaam
0aaaaq
0aaaar
b11 aaaas
b10 aaaat

#44250
1aaaae

#44500
b101000 aaaaa
0aaaae
b101000 aaaak
1aaaam
1aaaaq
b100 aaaas
b11 aaaat
b101000 aaabb
b101000 aaabh
b101000 aaabl
b101000 aaabr

#44750
1aaaae

#45000
0aaaae
0aaaam
0aaaaq
b1 aaaas
b100 aaaat

#45250
1aaaae

#45500
b101001 aaaaa
0aaaae
b101001 aaaak
1aaaal
1aaaam
1aaaaq
1aaaar
b10 aaaas
b1 aaaat
b101001 aaabb
b101001 aaabh
b101001 aaabl
b101001 aaabr

#45750
1aaaae

#46000
0aaaae
0aaaal
0aaaam
0aaaaq
0aaaar
b11 aaaas
b10 aaaat

#46250
1aaaae

#46500
b101010 aaaaa
0aaaae
b101010 aaaak
1aaaam
1aaaaq
b100 aaaas
b11 aaaat
b101010 aaabb
b101010 aaabh
b101010 aaabl
b101010 aaabr

#46750
1aaaae

#47000
0aaaae
0aaaam
0aaaaq
b1 aaaas
b100 aaaat

#47250
1aaaae

#47500
b101011 aaaaa
0aaaae
b101011 aaaak
1aaaal
1aaaam
1aaaaq
1aaaar
b10 aaaas
b1 aaaat
b101011 aaabb
b101011 aaabh
b101011 aaabl
b101011 aaabr

#47750
1aaaae

#48000
0aaaae
0aaaal
0aaaam
0aaaaq
0aaaar
b11 aaaas
b10 aaaat

#48250
1aaaae

#48500
b101100 aaaaa
0aaaae
b101100 aaaak
1aaaam
1aaaaq
b100 aaaas
b11 aaaat
b101100 aaabb
b101100 aaabh
b101100 aaabl
b101100 aaabr

#48750
1aaaae

#49000
0aaaae
0aaaam
0aaaaq
b1 aaaas
b100 aaaat

#49250
1aaaae

#49500
b101101 aaaaa
0aaaae
b101101 aaaak
1aaaal
1aaaam
1aaaaq
1aaaar
b10 aaaas
b1 aaaat
b101101 aaabb
b101101 aaabh
b101101 aaabl
b101101 aaabr

#49750
1aaaae

#50000
0aaaae
0aaaal
0aaaam
0aaaaq
0aaaar
b11 aaaas
b10 aaaat

#50250
1aaaae

#50500
b101110 aaaaa
0aaaae
b101110 aaaak
1aaaam
1aaaaq
b100 aaaas
b11 aaaat
b101110 aaabb
b101110 aaabh
b101110 aaabl
b101110 aaabr

#50750
1aaaae

#51000
0aaaae
0aaaam
0aaaaq
b1 aaaas
b100 aaaat

#51250
1aaaae

#51500
b101111 aaaaa
0aaaae
b101111 aaaak
1aaaal
1aaaam
1aaaaq
1aaaar
b10 aaaas
b1 aaaat
b101111 aaabb
b101111 aaabh
b101111 aaabl
b101111 aaabr

#51750
1aaaae

#52000
0aaaae
0aaaal
0aaaam
0aaaaq
0aaaar
b11 aaaas
b10 aaaat

#52250
1aaaae

#52500
b110000 aaaaa
0aaaae
b110000 aaaak
1aaaam
1aaaaq
b100 aaaas
b11 aaaat
b110000 aaabb
b110000 aaabh
b110000 aaabl
b110000 aaabr

#52750
1aaaae

#53000
0aaaae
0aaaam
0aaaaq
b1 aaaas
b100 aaaat

#53250
1aaaae

#53500
b110001 aaaaa
0aaaae
b110001 aaaak
1aaaal
1aaaam
1aaaaq
1aaaar
b10 aaaas
b1 aaaat
b110001 aaabb
b110001 aaabh
b110001 aaabl
b110001 aaabr

#53750
1aaaae

#54000
0aaaae
0aaaal
0aaaam
0aaaaq
0aaaar
b11 aaaas
b10 aaaat

#54250
1aaaae

#54500
b110010 aaaaa
0aaaae
b110010 aaaak
1aaaam
1aaaaq
b100 aaaas
b11 aaaat
b110010 aaabb
b110010 aaabh
b110010 aaabl
b110010 aaabr

#54750
1aaaae

#55000
0aaaae
0aaaam
0aaaaq
b1 aaaas
b100 aaaat

#55250
1aaaae

#55500
b110011 aaaaa
0aaaae
b110011 aaaak
1aaaal
1aaaam
1aaaaq
1aaaar
b10 aaaas
b1 aaaat
b110011 aaabb
b110011 aaabh
b110011 aaabl
b110011 aaabr

#55750
1aaaae

#56000
0aaaae
0aaaal
0aaaam
0aaaaq
0aaaar
b11 aaaas
b10 aaaat

#56250
1aaaae

#56500
b110100 aaaaa
0aaaae
b110100 aaaak
1aaaam
1aaaaq
b100 aaaas
b11 aaaat
b110100 aaabb
b110100 aaabh
b110100 aaabl
b110100 aaabr

#56750
1aaaae

#57000
0aaaae
0aaaam
0aaaaq
b1 aaaas
b100 aaaat

#57250
1aaaae

#57500
b110101 aaaaa
0aaaae
b110101 aaaak
1aaaal
1aaaam
1aaaaq
1aaaar
b10 aaaas
b1 aaaat
b110101 aaabb
b110101 aaabh
b110101 aaabl
b110101 aaabr

#57750
1aaaae

#58000
0aaaae
0aaaal
0aaaam
0aaaaq
0aaaar
b11 aaaas
b10 aaaat

#58250
1aaaae

#58500
b110110 aaaaa
0aaaae
b110110 aaaak
1aaaam
1aaaaq
b100 aaaas
b11 aaaat
b110110 aaabb
b110110 aaabh
b110110 aaabl
b110110 aaabr

#58750
1aaaae

#59000
0aaaae
0aaaam
0aaaaq
b1 aaaas
b100 aaaat

#59250
1aaaae

#59500
b110111 aaaaa
0aaaae
b110111 aaaak
1aaaal
1aaaam
1aaaaq
1aaaar
b10 aaaas
b1 aaaat
b110111 aaabb
b110111 aaabh
b110111 aaabl
b110111 aaabr

#59750
1aaaae

#60000
0aaaae
0aaaal
0aaaam
0aaaaq
0aaaar
b11 aaaas
b10 aaaat

#60250
1aaaae

#60500
b111000 aaaaa
0aaaae
b111000 aaaak
1aaaam
1aaaaq
b100 aaaas
b11 aaaat
b111000 aaabb
b111000 aaabh
b111000 aaabl
b111000 aaabr

#60750
1aaaae

#61000
0aaaae
0aaaam
0aaaaq
b1 aaaas
b100 aaaat

#61250
1aaaae

#61500
b111001 aaaaa
0aaaae
b111001 aaaak
1aaaal
1aaaam
1aaaaq
1aaaar
b10 aaaas
b1 aaaat
b111001 aaabb
b111001 aaabh
b111001 aaabl
b111001 aaabr

#61750
1aaaae

#62000
0aaaae
0aaaal
0aaaam
0aaaaq
0aaaar
b11 aaaas
b10 aaaat

#62250
1aaaae

#62500
b111010 aaaaa
0aaaae
b111010 aaaak
1aaaam
1aaaaq
b100 aaaas
b11 aaaat
b111010 aaabb
b111010 aaabh
b111010 aaabl
b111010 aaabr

#62750
1aaaae

#63000
0aaaae
0aaaam
0aaaaq
b1 aaaas
b100 aaaat

#63250
1aaaae

#63500
b111011 aaaaa
0aaaae
b111011 aaaak
1aaaal
1aaaam
1aaaaq
1aaaar
b10 aaaas
b1 aaaat
b111011 aaabb
b111011 aaabh
b111011 aaabl
b111011 aaabr

#63750
1aaaae

#64000
0aaaae
0aaaal
0aaaam
0aaaaq
0aaaar
b11 aaaas
b10 aaaat

#64250
1aaaae

#64500
b111100 aaaaa
0aaaae
b111100 aaaak
1aaaam
1aaaaq
b100 aaaas
b11 aaaat
b111100 aaabb
b111100 aaabh
b111100 aaabl
b111100 aaabr

#64750
1aaaae

#65000
0aaaae
0aaaam
0aaaaq
b1 aaaas
b100 aaaat

#65250
1aaaae

#65500
b111101 aaaaa
0aaaae
b111101 aaaak
1aaaal
1aaaam
1aaaaq
1aaaar
b10 aaaas
b1 aaaat
b111101 aaabb
b111101 aaabh
b111101 aaabl
b111101 aaabr

#65750
1aaaae

#66000
0aaaae
0aaaal
0aaaam
0aaaaq
0aaaar
b11 aaaas
b10 aaaat

#66250
1aaaae

#66500
b111110 aaaaa
0aaaae
b111110 aaaak
1aaaam
1aaaaq
b100 aaaas
b11 aaaat
b111110 aaabb
b111110 aaabh
b111110 aaabl
b111110 aaabr

#66750
1aaaae

#67000
0aaaae
0aaaam
0aaaaq
b1 aaaas
b100 aaaat

#67250
1aaaae

#67500
b111111 aaaaa
0aaaae
b111111 aaaak
1aaaal
1aaaam
1aaaaq
1aaaar
b10 aaaas
b1 aaaat
b111111 aaabb
b111111 aaabh
b111111 aaabl
b111111 aaabr

#67750
1aaaae

#68000
0aaaae
0aaaal
0aaaam
0aaaaq
0aaaar
b11 aaaas
b10 aaaat

#68250
1aaaae

#68500
b1000000 aaaaa
0aaaae
b1000000 aaaak
1aaaam
1aaaaq
b100 aaaas
b11 aaaat
b1000000 aaabb
b1000000 aaabh
b1000000 aaabl
b1000000 aaabr

#68750
1aaaae

#69000
0aaaae
0aaaam
0aaaaq
b1 aaaas
b100 aaaat

#69250
1aaaae

#69500
b1000001 aaaaa
0aaaae
b1000001 aaaak
1aaaal
1aaaam
1aaaaq
1aaaar
b10 aaaas
b1 aaaat
b1000001 aaabb
b1000001 aaabh
b1000001 aaabl
b1000001 aaabr

#69750
1aaaae

#70000
0aaaae
0aaaal
0aaaam
0aaaaq
0aaaar
b11 aaaas
b10 aaaat

#70250
1aaaae

#70500
b1000010 aaaaa
0aaaae
b1000010 aaaak
1aaaam
1aaaaq
b100 aaaas
b11 aaaat
b1000010 aaabb
b1000010 aaabh
b1000010 aaabl
b1000010 aaabr

#70750
1aaaae

#71000
0aaaae
0aaaam
0aaaaq
b1 aaaas
b100 aaaat

#71250
1aaaae

#71500
b1000011 aaaaa
0aaaae
b1000011 aaaak
1aaaal
1aaaam
1aaaaq
1aaaar
b10 aaaas
b1 aaaat
b1000011 aaabb
b1000011 aaabh
b1000011 aaabl
b1000011 aaabr

#71750
1aaaae

#72000
0aaaae
0aaaal
0aaaam
0aaaaq
0aaaar
b11 aaaas
b10 aaaat

#72250
1aaaae

#72500
b1000100 aaaaa
0aaaae
b1000100 aaaak
1aaaam
1aaaaq
b100 aaaas
b11 aaaat
b1000100 aaabb
b1000100 aaabh
b1000100 aaabl
b1000100 aaabr

#72750
1aaaae

#73000
0aaaae
0aaaam
0aaaaq
b1 aaaas
b100 aaaat

#73250
1aaaae

#73500
b1000101 aaaaa
0aaaae
b1000101 aaaak
1aaaal
1aaaam
1aaaaq
1aaaar
b10 aaaas
b1 aaaat
b1000101 aaabb
b1000101 aaabh
b1000101 aaabl
b1000101 aaabr

#73750
1aaaae

#74000
0aaaae
0aaaal
0aaaam
0aaaaq
0aaaar
b11 aaaas
b10 aaaat

#74250
1aaaae

#74500
b1000110 aaaaa
0aaaae
b1000110 aaaak
1aaaam
1aaaaq
b100 aaaas
b11 aaaat
b1000110 aaabb
b1000110 aaabh
b1000110 aaabl
b1000110 aaabr

#74750
1aaaae

#75000
0aaaae
0aaaam
0aaaaq
b1 aaaas
b100 aaaat

#75250
1aaaae

#75500
b1000111 aaaaa
0aaaae
b1000111 aaaak
1aaaal
1aaaam
1aaaaq
1aaaar
b10 aaaas
b1 aaaat
b1000111 aaabb
b1000111 aaabh
b1000111 aaabl
b1000111 aaabr

#75750
1aaaae

#76000
0aaaae
0aaaal
0aaaam
0aaaaq
0aaaar
b11 aaaas
b10 aaaat

#76250
1aaaae

#76500
b1001000 aaaaa
0aaaae
b1001000 aaaak
1aaaam
1aaaaq
b100 aaaas
b11 aaaat
b1001000 aaabb
b1001000 aaabh
b1001000 aaabl
b1001000 aaabr

#76750
1aaaae

#77000
0aaaae
0aaaam
0aaaaq
b1 aaaas
b100 aaaat

#77250
1aaaae

#77500
b1001001 aaaaa
0aaaae
b1001001 aaaak
1aaaal
1aaaam
1aaaaq
1aaaar
b10 aaaas
b1 aaaat
b1001001 aaabb
b1001001 aaabh
b1001001 aaabl
b1001001 aaabr

#77750
1aaaae

#78000
0aaaae
0aaaal
0aaaam
0aaaaq
0aaaar
b11 aaaas
b10 aaaat

#78250
1aaaae

#78500
b1001010 aaaaa
0aaaae
b1001010 aaaak
1aaaam
1aaaaq
b100 aaaas
b11 aaaat
b1001010 aaabb
b1001010 aaabh
b1001010 aaabl
b1001010 aaabr

#78750
1aaaae

