clion/cpucr.vcd
$date
     Nov 28, 2015       23:29:02
$end

$version
 SystemC 2.3.1-Accellera --- Aug 26 2015 20:42:51
$end

$timescale
     1 ns
$end

$scope module SystemC $end
$var wire   12  aaaaa  address [11:0]  $end
$var wire    6  aaaab  data [5:0]  $end
$var wire    1  aaaac  enable       $end
$var wire    1  aaaad  rw       $end
$var wire    1  aaaae  clk       $end
$var wire    6  aaaaf  acum [5:0]  $end
$var wire    6  aaaag  s [5:0]  $end
$var wire    6  aaaah  ports_i [5:0]  $end
$var wire    6  aaaai  ports_o [5:0]  $end
$var wire    1  aaaaj  enable_ports       $end
$var wire    6  aaaak  address_ports [5:0]  $end
$var wire    1  aaaal  rw_ports       $end
$var wire    1  aaaam  rps       $end
$var wire   12  aaaan  pc [11:0]  $end
$var wire    1  aaaao  CB       $end
$var wire    1  aaaap  CM       $end
$var wire    1  aaaaq  LE       $end
$var wire    1  aaaar  rps_stim_o       $end
$var wire    1  aaaas  s_LE       $end
$var wire    1  aaaat  s_CM       $end
$var wire    1  aaaau  s_CB       $end
$var wire   32  aaaav  s_est_prox [31:0]  $end
$var wire   32  aaaaw  s_est_pres [31:0]  $end
$var wire    1  aaaax  init_t_o       $end
$var wire   12  aaaay  pc_t_o [11:0]  $end
$var wire    6  aaaaz  ports_t_o [5:0]  $end
$var wire    6  aaaba  ports_t_i [5:0]  $end
$var wire    6  aaabb  s_t_o [5:0]  $end
$var wire    6  aaabc  acum_t_o [5:0]  $end
$var wire    1  aaabd  en_t_i       $end
$var wire    1  aaabe  rw_t_i       $end
$var wire   12  aaabf  addr_t_o [11:0]  $end
$var wire    6  aaabg  dat_t_o [5:0]  $end
$var wire    6  aaabh  dat_t_i [5:0]  $end
$var wire    1  aaabi  rps_t_i       $end
$var wire    1  aaabj  en_m_i       $end
$var wire    1  aaabk  rw_m_i       $end
$var wire   12  aaabl  addr_m_i [11:0]  $end
$var wire    6  aaabm  dat_m_o [5:0]  $end
$var wire    6  aaabn  dat_m_i [5:0]  $end
$var wire    1  aaabo  init_c_o       $end
$var wire   12  aaabp  pc_c_o [11:0]  $end
$var wire    1  aaabq  rps_c_i       $end
$var wire    6  aaabr  RI [5:0]  $end
$var wire    6  aaabs  s_c_o [5:0]  $end
$var wire    1  aaabt  en_c_o       $end
$var wire    1  aaabu  rw_c_o       $end
$var wire   12  aaabv  addr_c_o [11:0]  $end
$var wire    6  aaabw  dat_c_o [5:0]  $end
$upscope $end
$enddefinitions  $end

$comment
All initial values are dumped below at time 0 sec = 0 timescale units.
$end

$dumpvars
bXXXXXXXXXXXX aaaaa
bXXXXXX aaaab
0aaaac
1aaaad
0aaaae
b111111 aaaaf
bXXXXXX aaaag
bXXXXXX aaaah
bXXXXXX aaaai
Xaaaaj
bXXXXXX aaaak
Xaaaal
0aaaam
bXXXXXXXXXXXX aaaan
0aaaao
0aaaap
1aaaaq
0aaaar
1aaaas
0aaaat
0aaaau
b1 aaaav
b0 aaaaw
0aaaax
bXXXXXXXXXXXX aaaay
bXXXXXX aaaaz
bXXXXXX aaaba
bXXXXXX aaabb
b111111 aaabc
0aaabd
1aaabe
bXXXXXXXXXXXX aaabf
bXXXXXX aaabg
bZZZZZZ aaabh
0aaabi
0aaabj
1aaabk
bXXXXXXXXXXXX aaabl
bZZZZZZ aaabm
bXXXXXX aaabn
0aaabo
bXXXXXXXXXXXX aaabp
0aaabq
b0 aaabr
bXXXXXX aaabs
0aaabt
1aaabu
bXXXXXXXXXXXX aaabv
bXXXXXX aaabw
$end

#250
1aaaae

#500
b0 aaaaa
1aaaac
0aaaae
1aaaam
b0 aaaan
1aaaao
1aaaap
1aaaar
1aaaat
1aaaau
b10 aaaav
b1 aaaaw
b0 aaaay
1aaabd
b0 aaabf
b0 aaabh
1aaabi
1aaabj
b0 aaabl
b0 aaabm
b0 aaabp
1aaabq
1aaabt
b0 aaabv

#750
1aaaae

#1000
0aaaae
0aaaao
0aaaap
0aaaat
0aaaau
b11 aaaav
b10 aaaaw

#1250
1aaaae

#1500
b1 aaaaa
0aaaae
b1 aaaan
1aaaap
1aaaat
b100 aaaav
b11 aaaaw
b1 aaaay
b1 aaabf
b1 aaabh
b1 aaabl
b1 aaabm
b1 aaabp
b1 aaabv

#1750
1aaaae

#2000
0aaaae
b1 aaaaf
b10000 aaaag
0aaaap
0aaaat
b1 aaaav
b100 aaaaw
b10000 aaabb
b1 aaabc
b10000 aaabs

#2250
1aaaae

#2500
b10 aaaaa
0aaaae
b10 aaaan
1aaaao
1aaaap
1aaaat
1aaaau
b10 aaaav
b1 aaaaw
b10 aaaay
b10 aaabf
b10000 aaabh
b10 aaabl
b10000 aaabm
b10 aaabp
b10 aaabv

#2750
1aaaae

#3000
0aaaae
0aaaao
0aaaap
0aaaat
0aaaau
b11 aaaav
b10 aaaaw
b10000 aaabr

#3250
1aaaae

#3500
b11 aaaaa
0aaaae
b11 aaaan
1aaaap
1aaaat
b100 aaaav
b11 aaaaw
b11 aaaay
b11 aaabf
b1 aaabh
b11 aaabl
b1 aaabm
b11 aaabp
b11 aaabv

#3750
1aaaae

#4000
0aaaae
b10 aaaaf
0aaaap
0aaaat
b1 aaaav
b100 aaaaw
b10 aaabc

#4250
1aaaae

#4500
b100 aaaaa
0aaaae
b100 aaaan
1aaaao
1aaaap
1aaaat
1aaaau
b10 aaaav
b1 aaaaw
b100 aaaay
b100 aaabf
b111010 aaabh
b100 aaabl
b111010 aaabm
b100 aaabp
b100 aaabv

#4750
1aaaae

#5000
0aaaae
0aaaao
0aaaap
0aaaat
0aaaau
b11 aaaav
b10 aaaaw
b111010 aaabr

#5250
1aaaae

#5500
b101 aaaaa
0aaaae
b101 aaaan
1aaaap
1aaaat
b100 aaaav
b11 aaaaw
b101 aaaay
b101 aaabf
b101 aaabl
b101 aaabp
b101 aaabv

#5750
1aaaae

#6000
0aaaae
b110 aaaan
0aaaap
0aaaat
b1 aaaav
b100 aaaaw
b110 aaaay
b110 aaabp

#6250
1aaaae

#6500
b0 aaaaa
0aaaae
b0 aaaan
1aaaao
1aaaap
1aaaat
1aaaau
b10 aaaav
b1 aaaaw
b0 aaaay
b0 aaabf
b0 aaabh
b0 aaabl
b0 aaabm
b0 aaabp
b0 aaabv

#6750
1aaaae

#7000
0aaaae
0aaaao
0aaaap
0aaaat
0aaaau
b11 aaaav
b10 aaaaw
b0 aaabr

#7250
1aaaae

#7500
b1 aaaaa
0aaaae
b1 aaaan
1aaaap
1aaaat
b100 aaaav
b11 aaaaw
b1 aaaay
b1 aaabf
b1 aaabh
b1 aaabl
b1 aaabm
b1 aaabp
b1 aaabv

#7750
1aaaae

#8000
0aaaae
b1 aaaaf
0aaaap
0aaaat
b1 aaaav
b100 aaaaw
b1 aaabc

#8250
1aaaae

#8500
b10 aaaaa
0aaaae
b10 aaaan
1aaaao
1aaaap
1aaaat
1aaaau
b10 aaaav
b1 aaaaw
b10 aaaay
b10 aaabf
b10000 aaabh
b10 aaabl
b10000 aaabm
b10 aaabp
b10 aaabv

#8750
1aaaae

#9000
0aaaae
0aaaao
0aaaap
0aaaat
0aaaau
b11 aaaav
b10 aaaaw
b10000 aaabr

#9250
1aaaae

#9500
b11 aaaaa
0aaaae
b11 aaaan
1aaaap
1aaaat
b100 aaaav
b11 aaaaw
b11 aaaay
b11 aaabf
b1 aaabh
b11 aaabl
b1 aaabm
b11 aaabp
b11 aaabv

#9750
1aaaae

#10000
0aaaae
b10 aaaaf
0aaaap
0aaaat
b1 aaaav
b100 aaaaw
b10 aaabc

#10250
1aaaae

#10500
b100 aaaaa
0aaaae
b100 aaaan
1aaaao
1aaaap
1aaaat
1aaaau
b10 aaaav
b1 aaaaw
b100 aaaay
b100 aaabf
b111010 aaabh
b100 aaabl
b111010 aaabm
b100 aaabp
b100 aaabv

#10750
1aaaae

#11000
0aaaae
0aaaao
0aaaap
0aaaat
0aaaau
b11 aaaav
b10 aaaaw
b111010 aaabr

#11250
1aaaae

#11500
b101 aaaaa
0aaaae
b101 aaaan
1aaaap
1aaaat
b100 aaaav
b11 aaaaw
b101 aaaay
b101 aaabf
b101 aaabl
b101 aaabp
b101 aaabv

#11750
1aaaae

#12000
0aaaae
b110 aaaan
0aaaap
0aaaat
b1 aaaav
b100 aaaaw
b110 aaaay
b110 aaabp

#12250
1aaaae

#12500
b0 aaaaa
0aaaae
b0 aaaan
1aaaao
1aaaap
1aaaat
1aaaau
b10 aaaav
b1 aaaaw
b0 aaaay
b0 aaabf
b0 aaabh
b0 aaabl
b0 aaabm
b0 aaabp
b0 aaabv

#12750
1aaaae

#13000
0aaaae
0aaaao
0aaaap
0aaaat
0aaaau
b11 aaaav
b10 aaaaw
b0 aaabr

#13250
1aaaae

#13500
b1 aaaaa
0aaaae
b1 aaaan
1aaaap
1aaaat
b100 aaaav
b11 aaaaw
b1 aaaay
b1 aaabf
b1 aaabh
b1 aaabl
b1 aaabm
b1 aaabp
b1 aaabv

#13750
1aaaae

#14000
0aaaae
b1 aaaaf
0aaaap
0aaaat
b1 aaaav
b100 aaaaw
b1 aaabc

#14250
1aaaae

#14500
b10 aaaaa
0aaaae
b10 aaaan
1aaaao
1aaaap
1aaaat
1aaaau
b10 aaaav
b1 aaaaw
b10 aaaay
b10 aaabf
b10000 aaabh
b10 aaabl
b10000 aaabm
b10 aaabp
b10 aaabv

#14750
1aaaae

#15000
0aaaae
0aaaao
0aaaap
0aaaat
0aaaau
b11 aaaav
b10 aaaaw
b10000 aaabr

#15250
1aaaae

#15500
b11 aaaaa
0aaaae
b11 aaaan
1aaaap
1aaaat
b100 aaaav
b11 aaaaw
b11 aaaay
b11 aaabf
b1 aaabh
b11 aaabl
b1 aaabm
b11 aaabp
b11 aaabv

#15750
1aaaae

#16000
0aaaae
b10 aaaaf
0aaaap
0aaaat
b1 aaaav
b100 aaaaw
b10 aaabc

#16250
1aaaae

#16500
b100 aaaaa
0aaaae
b100 aaaan
1aaaao
1aaaap
1aaaat
1aaaau
b10 aaaav
b1 aaaaw
b100 aaaay
b100 aaabf
b111010 aaabh
b100 aaabl
b111010 aaabm
b100 aaabp
b100 aaabv

#16750
1aaaae

#17000
0aaaae
0aaaao
0aaaap
0aaaat
0aaaau
b11 aaaav
b10 aaaaw
b111010 aaabr

#17250
1aaaae

#17500
b101 aaaaa
0aaaae
b101 aaaan
1aaaap
1aaaat
b100 aaaav
b11 aaaaw
b101 aaaay
b101 aaabf
b101 aaabl
b101 aaabp
b101 aaabv

#17750
1aaaae

#18000
0aaaae
b110 aaaan
0aaaap
0aaaat
b1 aaaav
b100 aaaaw
b110 aaaay
b110 aaabp

#18250
1aaaae

#18500
b0 aaaaa
0aaaae
b0 aaaan
1aaaao
1aaaap
1aaaat
1aaaau
b10 aaaav
b1 aaaaw
b0 aaaay
b0 aaabf
b0 aaabh
b0 aaabl
b0 aaabm
b0 aaabp
b0 aaabv

#18750
1aaaae

#19000
0aaaae
0aaaao
0aaaap
0aaaat
0aaaau
b11 aaaav
b10 aaaaw
b0 aaabr

#19250
1aaaae

#19500
b1 aaaaa
0aaaae
b1 aaaan
1aaaap
1aaaat
b100 aaaav
b11 aaaaw
b1 aaaay
b1 aaabf
b1 aaabh
b1 aaabl
b1 aaabm
b1 aaabp
b1 aaabv

#19750
1aaaae

#20000
0aaaae
b1 aaaaf
0aaaap
0aaaat
b1 aaaav
b100 aaaaw
b1 aaabc

#20250
1aaaae

#20500
b10 aaaaa
0aaaae
b10 aaaan
1aaaao
1aaaap
1aaaat
1aaaau
b10 aaaav
b1 aaaaw
b10 aaaay
b10 aaabf
b10000 aaabh
b10 aaabl
b10000 aaabm
b10 aaabp
b10 aaabv

#20750
1aaaae

#21000
0aaaae
0aaaao
0aaaap
0aaaat
0aaaau
b11 aaaav
b10 aaaaw
b10000 aaabr

#21250
1aaaae

#21500
b11 aaaaa
0aaaae
b11 aaaan
1aaaap
1aaaat
b100 aaaav
b11 aaaaw
b11 aaaay
b11 aaabf
b1 aaabh
b11 aaabl
b1 aaabm
b11 aaabp
b11 aaabv

#21750
1aaaae

#22000
0aaaae
b10 aaaaf
0aaaap
0aaaat
b1 aaaav
b100 aaaaw
b10 aaabc

#22250
1aaaae

#22500
b100 aaaaa
0aaaae
b100 aaaan
1aaaao
1aaaap
1aaaat
1aaaau
b10 aaaav
b1 aaaaw
b100 aaaay
b100 aaabf
b111010 aaabh
b100 aaabl
b111010 aaabm
b100 aaabp
b100 aaabv

#22750
1aaaae

#23000
0aaaae
0aaaao
0aaaap
0aaaat
0aaaau
b11 aaaav
b10 aaaaw
b111010 aaabr

#23250
1aaaae

#23500
b101 aaaaa
0aaaae
b101 aaaan
1aaaap
1aaaat
b100 aaaav
b11 aaaaw
b101 aaaay
b101 aaabf
b101 aaabl
b101 aaabp
b101 aaabv

#23750
1aaaae

#24000
0aaaae
b110 aaaan
0aaaap
0aaaat
b1 aaaav
b100 aaaaw
b110 aaaay
b110 aaabp

#24250
1aaaae

#24500
b0 aaaaa
0aaaae
b0 aaaan
1aaaao
1aaaap
1aaaat
1aaaau
b10 aaaav
b1 aaaaw
b0 aaaay
b0 aaabf
b0 aaabh
b0 aaabl
b0 aaabm
b0 aaabp
b0 aaabv

#24750
1aaaae

#25000
0aaaae
0aaaao
0aaaap
0aaaat
0aaaau
b11 aaaav
b10 aaaaw
b0 aaabr

#25250
1aaaae

#25500
b1 aaaaa
0aaaae
b1 aaaan
1aaaap
1aaaat
b100 aaaav
b11 aaaaw
b1 aaaay
b1 aaabf
b1 aaabh
b1 aaabl
b1 aaabm
b1 aaabp
b1 aaabv

#25750
1aaaae

#26000
0aaaae
b1 aaaaf
0aaaap
0aaaat
b1 aaaav
b100 aaaaw
b1 aaabc

#26250
1aaaae

#26500
b10 aaaaa
0aaaae
b10 aaaan
1aaaao
1aaaap
1aaaat
1aaaau
b10 aaaav
b1 aaaaw
b10 aaaay
b10 aaabf
b10000 aaabh
b10 aaabl
b10000 aaabm
b10 aaabp
b10 aaabv

#26750
1aaaae

#27000
0aaaae
0aaaao
0aaaap
0aaaat
0aaaau
b11 aaaav
b10 aaaaw
b10000 aaabr

#27250
1aaaae

#27500
b11 aaaaa
0aaaae
b11 aaaan
1aaaap
1aaaat
b100 aaaav
b11 aaaaw
b11 aaaay
b11 aaabf
b1 aaabh
b11 aaabl
b1 aaabm
b11 aaabp
b11 aaabv

#27750
1aaaae

#28000
0aaaae
b10 aaaaf
0aaaap
0aaaat
b1 aaaav
b100 aaaaw
b10 aaabc

#28250
1aaaae

#28500
b100 aaaaa
0aaaae
b100 aaaan
1aaaao
1aaaap
1aaaat
1aaaau
b10 aaaav
b1 aaaaw
b100 aaaay
b100 aaabf
b111010 aaabh
b100 aaabl
b111010 aaabm
b100 aaabp
b100 aaabv

#28750
1aaaae

#29000
0aaaae
0aaaao
0aaaap
0aaaat
0aaaau
b11 aaaav
b10 aaaaw
b111010 aaabr

#29250
1aaaae

#29500
b101 aaaaa
0aaaae
b101 aaaan
1aaaap
1aaaat
b100 aaaav
b11 aaaaw
b101 aaaay
b101 aaabf
b101 aaabl
b101 aaabp
b101 aaabv

#29750
1aaaae

#30000
0aaaae
b110 aaaan
0aaaap
0aaaat
b1 aaaav
b100 aaaaw
b110 aaaay
b110 aaabp

#30250
1aaaae

#30500
b0 aaaaa
0aaaae
b0 aaaan
1aaaao
1aaaap
1aaaat
1aaaau
b10 aaaav
b1 aaaaw
b0 aaaay
b0 aaabf
b0 aaabh
b0 aaabl
b0 aaabm
b0 aaabp
b0 aaabv

#30750
1aaaae

#31000
0aaaae
0aaaao
0aaaap
0aaaat
0aaaau
b11 aaaav
b10 aaaaw
b0 aaabr

#31250
1aaaae

#31500
b1 aaaaa
0aaaae
b1 aaaan
1aaaap
1aaaat
b100 aaaav
b11 aaaaw
b1 aaaay
b1 aaabf
b1 aaabh
b1 aaabl
b1 aaabm
b1 aaabp
b1 aaabv

#31750
1aaaae

#32000
0aaaae
b1 aaaaf
0aaaap
0aaaat
b1 aaaav
b100 aaaaw
b1 aaabc

#32250
1aaaae

#32500
b10 aaaaa
0aaaae
b10 aaaan
1aaaao
1aaaap
1aaaat
1aaaau
b10 aaaav
b1 aaaaw
b10 aaaay
b10 aaabf
b10000 aaabh
b10 aaabl
b10000 aaabm
b10 aaabp
b10 aaabv

#32750
1aaaae

#33000
0aaaae
0aaaao
0aaaap
0aaaat
0aaaau
b11 aaaav
b10 aaaaw
b10000 aaabr

#33250
1aaaae

#33500
b11 aaaaa
0aaaae
b11 aaaan
1aaaap
1aaaat
b100 aaaav
b11 aaaaw
b11 aaaay
b11 aaabf
b1 aaabh
b11 aaabl
b1 aaabm
b11 aaabp
b11 aaabv

#33750
1aaaae

#34000
0aaaae
b10 aaaaf
0aaaap
0aaaat
b1 aaaav
b100 aaaaw
b10 aaabc

#34250
1aaaae

#34500
b100 aaaaa
0aaaae
b100 aaaan
1aaaao
1aaaap
1aaaat
1aaaau
b10 aaaav
b1 aaaaw
b100 aaaay
b100 aaabf
b111010 aaabh
b100 aaabl
b111010 aaabm
b100 aaabp
b100 aaabv

#34750
1aaaae

#35000
0aaaae
0aaaao
0aaaap
0aaaat
0aaaau
b11 aaaav
b10 aaaaw
b111010 aaabr

#35250
1aaaae

#35500
b101 aaaaa
0aaaae
b101 aaaan
1aaaap
1aaaat
b100 aaaav
b11 aaaaw
b101 aaaay
b101 aaabf
b101 aaabl
b101 aaabp
b101 aaabv

#35750
1aaaae

#36000
0aaaae
b110 aaaan
0aaaap
0aaaat
b1 aaaav
b100 aaaaw
b110 aaaay
b110 aaabp

#36250
1aaaae

#36500
b0 aaaaa
0aaaae
b0 aaaan
1aaaao
1aaaap
1aaaat
1aaaau
b10 aaaav
b1 aaaaw
b0 aaaay
b0 aaabf
b0 aaabh
b0 aaabl
b0 aaabm
b0 aaabp
b0 aaabv

#36750
1aaaae

#37000
0aaaae
0aaaao
0aaaap
0aaaat
0aaaau
b11 aaaav
b10 aaaaw
b0 aaabr

#37250
1aaaae

#37500
b1 aaaaa
0aaaae
b1 aaaan
1aaaap
1aaaat
b100 aaaav
b11 aaaaw
b1 aaaay
b1 aaabf
b1 aaabh
b1 aaabl
b1 aaabm
b1 aaabp
b1 aaabv

#37750
1aaaae

#38000
0aaaae
b1 aaaaf
0aaaap
0aaaat
b1 aaaav
b100 aaaaw
b1 aaabc

#38250
1aaaae

#38500
b10 aaaaa
0aaaae
b10 aaaan
1aaaao
1aaaap
1aaaat
1aaaau
b10 aaaav
b1 aaaaw
b10 aaaay
b10 aaabf
b10000 aaabh
b10 aaabl
b10000 aaabm
b10 aaabp
b10 aaabv

#38750
1aaaae

#39000
0aaaae
0aaaao
0aaaap
0aaaat
0aaaau
b11 aaaav
b10 aaaaw
b10000 aaabr

#39250
1aaaae

#39500
b11 aaaaa
0aaaae
b11 aaaan
1aaaap
1aaaat
b100 aaaav
b11 aaaaw
b11 aaaay
b11 aaabf
b1 aaabh
b11 aaabl
b1 aaabm
b11 aaabp
b11 aaabv

#39750
1aaaae

#40000
0aaaae
b10 aaaaf
0aaaap
0aaaat
b1 aaaav
b100 aaaaw
b10 aaabc

#40250
1aaaae

#40500
b100 aaaaa
0aaaae
b100 aaaan
1aaaao
1aaaap
1aaaat
1aaaau
b10 aaaav
b1 aaaaw
b100 aaaay
b100 aaabf
b111010 aaabh
b100 aaabl
b111010 aaabm
b100 aaabp
b100 aaabv

#40750
1aaaae

#41000
0aaaae
0aaaao
0aaaap
0aaaat
0aaaau
b11 aaaav
b10 aaaaw
b111010 aaabr

#41250
1aaaae

#41500
b101 aaaaa
0aaaae
b101 aaaan
1aaaap
1aaaat
b100 aaaav
b11 aaaaw
b101 aaaay
b101 aaabf
b101 aaabl
b101 aaabp
b101 aaabv

#41750
1aaaae

#42000
0aaaae
b110 aaaan
0aaaap
0aaaat
b1 aaaav
b100 aaaaw
b110 aaaay
b110 aaabp

#42250
1aaaae

#42500
b0 aaaaa
0aaaae
b0 aaaan
1aaaao
1aaaap
1aaaat
1aaaau
b10 aaaav
b1 aaaaw
b0 aaaay
b0 aaabf
b0 aaabh
b0 aaabl
b0 aaabm
b0 aaabp
b0 aaabv

#42750
1aaaae

#43000
0aaaae
0aaaao
0aaaap
0aaaat
0aaaau
b11 aaaav
b10 aaaaw
b0 aaabr

#43250
1aaaae

#43500
b1 aaaaa
0aaaae
b1 aaaan
1aaaap
1aaaat
b100 aaaav
b11 aaaaw
b1 aaaay
b1 aaabf
b1 aaabh
b1 aaabl
b1 aaabm
b1 aaabp
b1 aaabv

#43750
1aaaae

#44000
0aaaae
b1 aaaaf
0aaaap
0aaaat
b1 aaaav
b100 aaaaw
b1 aaabc

#44250
1aaaae

#44500
b10 aaaaa
0aaaae
b10 aaaan
1aaaao
1aaaap
1aaaat
1aaaau
b10 aaaav
b1 aaaaw
b10 aaaay
b10 aaabf
b10000 aaabh
b10 aaabl
b10000 aaabm
b10 aaabp
b10 aaabv

#44750
1aaaae

#45000
0aaaae
0aaaao
0aaaap
0aaaat
0aaaau
b11 aaaav
b10 aaaaw
b10000 aaabr

#45250
1aaaae

#45500
b11 aaaaa
0aaaae
b11 aaaan
1aaaap
1aaaat
b100 aaaav
b11 aaaaw
b11 aaaay
b11 aaabf
b1 aaabh
b11 aaabl
b1 aaabm
b11 aaabp
b11 aaabv

#45750
1aaaae

#46000
0aaaae
b10 aaaaf
0aaaap
0aaaat
b1 aaaav
b100 aaaaw
b10 aaabc

#46250
1aaaae

#46500
b100 aaaaa
0aaaae
b100 aaaan
1aaaao
1aaaap
1aaaat
1aaaau
b10 aaaav
b1 aaaaw
b100 aaaay
b100 aaabf
b111010 aaabh
b100 aaabl
b111010 aaabm
b100 aaabp
b100 aaabv

#46750
1aaaae

#47000
0aaaae
0aaaao
0aaaap
0aaaat
0aaaau
b11 aaaav
b10 aaaaw
b111010 aaabr

#47250
1aaaae

#47500
b101 aaaaa
0aaaae
b101 aaaan
1aaaap
1aaaat
b100 aaaav
b11 aaaaw
b101 aaaay
b101 aaabf
b101 aaabl
b101 aaabp
b101 aaabv

#47750
1aaaae

#48000
0aaaae
b110 aaaan
0aaaap
0aaaat
b1 aaaav
b100 aaaaw
b110 aaaay
b110 aaabp

#48250
1aaaae

#48500
b0 aaaaa
0aaaae
b0 aaaan
1aaaao
1aaaap
1aaaat
1aaaau
b10 aaaav
b1 aaaaw
b0 aaaay
b0 aaabf
b0 aaabh
b0 aaabl
b0 aaabm
b0 aaabp
b0 aaabv

#48750
1aaaae

#49000
0aaaae
0aaaao
0aaaap
0aaaat
0aaaau
b11 aaaav
b10 aaaaw
b0 aaabr

#49250
1aaaae

#49500
b1 aaaaa
0aaaae
b1 aaaan
1aaaap
1aaaat
b100 aaaav
b11 aaaaw
b1 aaaay
b1 aaabf
b1 aaabh
b1 aaabl
b1 aaabm
b1 aaabp
b1 aaabv

#49750
1aaaae

#50000
0aaaae
b1 aaaaf
0aaaap
0aaaat
b1 aaaav
b100 aaaaw
b1 aaabc

#50250
1aaaae

#50500
b10 aaaaa
0aaaae
b10 aaaan
1aaaao
1aaaap
1aaaat
1aaaau
b10 aaaav
b1 aaaaw
b10 aaaay
b10 aaabf
b10000 aaabh
b10 aaabl
b10000 aaabm
b10 aaabp
b10 aaabv

#50750
1aaaae

#51000
0aaaae
0aaaao
0aaaap
0aaaat
0aaaau
b11 aaaav
b10 aaaaw
b10000 aaabr

#51250
1aaaae

#51500
b11 aaaaa
0aaaae
b11 aaaan
1aaaap
1aaaat
b100 aaaav
b11 aaaaw
b11 aaaay
b11 aaabf
b1 aaabh
b11 aaabl
b1 aaabm
b11 aaabp
b11 aaabv

#51750
1aaaae

#52000
0aaaae
b10 aaaaf
0aaaap
0aaaat
b1 aaaav
b100 aaaaw
b10 aaabc

#52250
1aaaae

#52500
b100 aaaaa
0aaaae
b100 aaaan
1aaaao
1aaaap
1aaaat
1aaaau
b10 aaaav
b1 aaaaw
b100 aaaay
b100 aaabf
b111010 aaabh
b100 aaabl
b111010 aaabm
b100 aaabp
b100 aaabv

#52750
1aaaae

#53000
0aaaae
0aaaao
0aaaap
0aaaat
0aaaau
b11 aaaav
b10 aaaaw
b111010 aaabr

#53250
1aaaae

#53500
b101 aaaaa
0aaaae
b101 aaaan
1aaaap
1aaaat
b100 aaaav
b11 aaaaw
b101 aaaay
b101 aaabf
b101 aaabl
b101 aaabp
b101 aaabv

#53750
1aaaae

#54000
0aaaae
b110 aaaan
0aaaap
0aaaat
b1 aaaav
b100 aaaaw
b110 aaaay
b110 aaabp

#54250
1aaaae

#54500
b0 aaaaa
0aaaae
b0 aaaan
1aaaao
1aaaap
1aaaat
1aaaau
b10 aaaav
b1 aaaaw
b0 aaaay
b0 aaabf
b0 aaabh
b0 aaabl
b0 aaabm
b0 aaabp
b0 aaabv

#54750
1aaaae

#55000
0aaaae
0aaaao
0aaaap
0aaaat
0aaaau
b11 aaaav
b10 aaaaw
b0 aaabr

#55250
1aaaae

#55500
b1 aaaaa
0aaaae
b1 aaaan
1aaaap
1aaaat
b100 aaaav
b11 aaaaw
b1 aaaay
b1 aaabf
b1 aaabh
b1 aaabl
b1 aaabm
b1 aaabp
b1 aaabv

#55750
1aaaae

#56000
0aaaae
b1 aaaaf
0aaaap
0aaaat
b1 aaaav
b100 aaaaw
b1 aaabc

#56250
1aaaae

#56500
b10 aaaaa
0aaaae
b10 aaaan
1aaaao
1aaaap
1aaaat
1aaaau
b10 aaaav
b1 aaaaw
b10 aaaay
b10 aaabf
b10000 aaabh
b10 aaabl
b10000 aaabm
b10 aaabp
b10 aaabv

#56750
1aaaae

#57000
0aaaae
0aaaao
0aaaap
0aaaat
0aaaau
b11 aaaav
b10 aaaaw
b10000 aaabr

#57250
1aaaae

#57500
b11 aaaaa
0aaaae
b11 aaaan
1aaaap
1aaaat
b100 aaaav
b11 aaaaw
b11 aaaay
b11 aaabf
b1 aaabh
b11 aaabl
b1 aaabm
b11 aaabp
b11 aaabv

#57750
1aaaae

#58000
0aaaae
b10 aaaaf
0aaaap
0aaaat
b1 aaaav
b100 aaaaw
b10 aaabc

#58250
1aaaae

#58500
b100 aaaaa
0aaaae
b100 aaaan
1aaaao
1aaaap
1aaaat
1aaaau
b10 aaaav
b1 aaaaw
b100 aaaay
b100 aaabf
b111010 aaabh
b100 aaabl
b111010 aaabm
b100 aaabp
b100 aaabv

#58750
1aaaae

#59000
0aaaae
0aaaao
0aaaap
0aaaat
0aaaau
b11 aaaav
b10 aaaaw
b111010 aaabr

#59250
1aaaae

#59500
b101 aaaaa
0aaaae
b101 aaaan
1aaaap
1aaaat
b100 aaaav
b11 aaaaw
b101 aaaay
b101 aaabf
b101 aaabl
b101 aaabp
b101 aaabv

#59750
1aaaae

#60000
0aaaae
b110 aaaan
0aaaap
0aaaat
b1 aaaav
b100 aaaaw
b110 aaaay
b110 aaabp

#60250
1aaaae

#60500
b0 aaaaa
0aaaae
b0 aaaan
1aaaao
1aaaap
1aaaat
1aaaau
b10 aaaav
b1 aaaaw
b0 aaaay
b0 aaabf
b0 aaabh
b0 aaabl
b0 aaabm
b0 aaabp
b0 aaabv

#60750
1aaaae

#61000
0aaaae
0aaaao
0aaaap
0aaaat
0aaaau
b11 aaaav
b10 aaaaw
b0 aaabr

#61250
1aaaae

#61500
b1 aaaaa
0aaaae
b1 aaaan
1aaaap
1aaaat
b100 aaaav
b11 aaaaw
b1 aaaay
b1 aaabf
b1 aaabh
b1 aaabl
b1 aaabm
b1 aaabp
b1 aaabv

#61750
1aaaae

#62000
0aaaae
b1 aaaaf
0aaaap
0aaaat
b1 aaaav
b100 aaaaw
b1 aaabc

#62250
1aaaae

#62500
b10 aaaaa
0aaaae
b10 aaaan
1aaaao
1aaaap
1aaaat
1aaaau
b10 aaaav
b1 aaaaw
b10 aaaay
b10 aaabf
b10000 aaabh
b10 aaabl
b10000 aaabm
b10 aaabp
b10 aaabv

#62750
1aaaae

#63000
0aaaae
0aaaao
0aaaap
0aaaat
0aaaau
b11 aaaav
b10 aaaaw
b10000 aaabr

#63250
1aaaae

#63500
b11 aaaaa
0aaaae
b11 aaaan
1aaaap
1aaaat
b100 aaaav
b11 aaaaw
b11 aaaay
b11 aaabf
b1 aaabh
b11 aaabl
b1 aaabm
b11 aaabp
b11 aaabv

#63750
1aaaae

#64000
0aaaae
b10 aaaaf
0aaaap
0aaaat
b1 aaaav
b100 aaaaw
b10 aaabc

#64250
1aaaae

#64500
b100 aaaaa
0aaaae
b100 aaaan
1aaaao
1aaaap
1aaaat
1aaaau
b10 aaaav
b1 aaaaw
b100 aaaay
b100 aaabf
b111010 aaabh
b100 aaabl
b111010 aaabm
b100 aaabp
b100 aaabv

#64750
1aaaae

#65000
0aaaae
0aaaao
0aaaap
0aaaat
0aaaau
b11 aaaav
b10 aaaaw
b111010 aaabr

#65250
1aaaae

#65500
b101 aaaaa
0aaaae
b101 aaaan
1aaaap
1aaaat
b100 aaaav
b11 aaaaw
b101 aaaay
b101 aaabf
b101 aaabl
b101 aaabp
b101 aaabv

#65750
1aaaae

#66000
0aaaae
b110 aaaan
0aaaap
0aaaat
b1 aaaav
b100 aaaaw
b110 aaaay
b110 aaabp

#66250
1aaaae

#66500
b0 aaaaa
0aaaae
b0 aaaan
1aaaao
1aaaap
1aaaat
1aaaau
b10 aaaav
b1 aaaaw
b0 aaaay
b0 aaabf
b0 aaabh
b0 aaabl
b0 aaabm
b0 aaabp
b0 aaabv

#66750
1aaaae

#67000
0aaaae
0aaaao
0aaaap
0aaaat
0aaaau
b11 aaaav
b10 aaaaw
b0 aaabr

#67250
1aaaae

