clion/cpucr.vcd
$date
     Nov 10, 2015       09:49:44
$end

$version
 SystemC 2.3.1-Accellera --- Aug 26 2015 20:42:51
$end

$timescale
     1 ns
$end

$scope module SystemC $end
$var wire   12  aaaaa  address [11:0]  $end
$var wire    6  aaaab  data [5:0]  $end
$var wire    1  aaaac  enable       $end
$var wire    1  aaaad  rw       $end
$var wire    1  aaaae  clk       $end
$var wire    6  aaaaf  acum [5:0]  $end
$var wire    6  aaaag  s [5:0]  $end
$var wire    6  aaaah  ports_i [5:0]  $end
$var wire    6  aaaai  ports_o [5:0]  $end
$var wire    1  aaaaj  rps       $end
$var wire   12  aaaak  pc [11:0]  $end
$var wire    1  aaaal  CB       $end
$var wire    1  aaaam  CM       $end
$var wire    1  aaaan  LE       $end
$var wire    1  aaaao  rps_stim_o       $end
$var wire    1  aaaap  s_LE       $end
$var wire    1  aaaaq  s_CM       $end
$var wire    1  aaaar  s_CB       $end
$var wire   32  aaaas  s_est_prox [31:0]  $end
$var wire   32  aaaat  s_est_pres [31:0]  $end
$var wire    1  aaaau  init_t_o       $end
$var wire    6  aaaav  ports_t_o [5:0]  $end
$var wire    6  aaaaw  ports_t_i [5:0]  $end
$var wire    6  aaaax  s_t_o [5:0]  $end
$var wire    6  aaaay  acum_t_o [5:0]  $end
$var wire    1  aaaaz  en_t_i       $end
$var wire    1  aaaba  rw_t_i       $end
$var wire   12  aaabb  addr_t_o [11:0]  $end
$var wire    6  aaabc  dat_t_o [5:0]  $end
$var wire    6  aaabd  dat_t_i [5:0]  $end
$var wire    1  aaabe  rps_t_i       $end
$var wire    1  aaabf  en_m_i       $end
$var wire    1  aaabg  rw_m_i       $end
$var wire   12  aaabh  addr_m_i [11:0]  $end
$var wire    6  aaabi  dat_m_o [5:0]  $end
$var wire    6  aaabj  dat_m_i [5:0]  $end
$var wire    1  aaabk  init_c_o       $end
$var wire   12  aaabl  pc_c_o [11:0]  $end
$var wire    1  aaabm  rps_c_i       $end
$var wire    6  aaabn  RI [5:0]  $end
$var wire    6  aaabo  s_c_o [5:0]  $end
$var wire    1  aaabp  en_c_o       $end
$var wire    1  aaabq  rw_c_o       $end
$var wire   12  aaabr  addr_c_o [11:0]  $end
$var wire    6  aaabs  dat_c_o [5:0]  $end
$upscope $end
$enddefinitions  $end

$comment
All initial values are dumped below at time 0 sec = 0 timescale units.
$end

$dumpvars
bXXXXXXXXXXXX aaaaa
bZZZZZZ aaaab
0aaaac
1aaaad
0aaaae
b0 aaaaf
b10010 aaaag
bXXXXXX aaaah
bXXXXXX aaaai
0aaaaj
bXXXXXXXXXXXX aaaak
0aaaal
0aaaam
1aaaan
0aaaao
1aaaap
0aaaaq
0aaaar
b1 aaaas
b0 aaaat
0aaaau
bXXXXXX aaaav
bXXXXXX aaaaw
b10010 aaaax
b0 aaaay
0aaaaz
1aaaba
bXXXXXXXXXXXX aaabb
bZZZZZZ aaabc
bZZZZZZ aaabd
0aaabe
0aaabf
1aaabg
bXXXXXXXXXXXX aaabh
bZZZZZZ aaabi
bZZZZZZ aaabj
0aaabk
bXXXXXXXXXXXX aaabl
0aaabm
b0 aaabn
b10010 aaabo
0aaabp
1aaabq
bXXXXXXXXXXXX aaabr
bZZZZZZ aaabs
$end

#250
1aaaae

#500
b0 aaaaa
b10101 aaaab
1aaaac
0aaaae
1aaaaj
b0 aaaak
1aaaal
1aaaam
1aaaao
1aaaaq
1aaaar
b10 aaaas
b1 aaaat
1aaaaz
b0 aaabb
b10101 aaabc
b10101 aaabd
1aaabe
1aaabf
b0 aaabh
b10101 aaabi
b10101 aaabj
b0 aaabl
1aaabm
1aaabp
b0 aaabr
b10101 aaabs

#750
1aaaae

#1000
0aaaae
0aaaal
0aaaam
0aaaaq
0aaaar
b1 aaaas
b10 aaaat
b10101 aaabn

#1250
1aaaae

#1500
b1 aaaaa
b0 aaaab
0aaaae
b1 aaaaf
b10000 aaaag
b1 aaaak
1aaaal
1aaaam
1aaaaq
1aaaar
b10 aaaas
b1 aaaat
b10000 aaaax
b1 aaaay
b1 aaabb
b0 aaabc
b0 aaabd
b1 aaabh
b0 aaabi
b0 aaabj
b1 aaabl
b10000 aaabo
b1 aaabr
b0 aaabs

#1750
1aaaae

#2000
0aaaae
b10 aaaaf
0aaaal
0aaaam
0aaaaq
0aaaar
b10 aaaat
b10 aaaay
b0 aaabn

#2250
1aaaae

#2500
0aaaae
1aaaam
1aaaaq

#2750
1aaaae

#3000
0aaaae
0aaaam
0aaaaq

#3250
1aaaae

#3500
0aaaae
1aaaam
1aaaaq

#3750
1aaaae

#4000
0aaaae
0aaaam
0aaaaq

#4250
1aaaae

#4500
0aaaae
1aaaam
1aaaaq

#4750
1aaaae

#5000
0aaaae
0aaaam
0aaaaq

#5250
1aaaae

#5500
0aaaae
1aaaam
1aaaaq

#5750
1aaaae

#6000
0aaaae
0aaaam
0aaaaq

#6250
1aaaae

#6500
0aaaae
1aaaam
1aaaaq

#6750
1aaaae

#7000
0aaaae
0aaaam
0aaaaq

#7250
1aaaae

#7500
0aaaae
1aaaam
1aaaaq

#7750
1aaaae

#8000
0aaaae
0aaaam
0aaaaq

#8250
1aaaae

#8500
0aaaae
1aaaam
1aaaaq

#8750
1aaaae

#9000
0aaaae
0aaaam
0aaaaq

#9250
1aaaae

#9500
0aaaae
1aaaam
1aaaaq

