clion/cpucr.vcd
$date
     Nov 15, 2015       19:31:17
$end

$version
 SystemC 2.3.1-Accellera --- Aug 26 2015 20:42:51
$end

$timescale
     1 ns
$end

$scope module SystemC $end
$var wire   12  aaaaa  address [11:0]  $end
$var wire    6  aaaab  data [5:0]  $end
$var wire    1  aaaac  enable       $end
$var wire    1  aaaad  rw       $end
$var wire    1  aaaae  clk       $end
$var wire    6  aaaaf  acum [5:0]  $end
$var wire    6  aaaag  s [5:0]  $end
$var wire    6  aaaah  ports_i [5:0]  $end
$var wire    6  aaaai  ports_o [5:0]  $end
$var wire    1  aaaaj  rps       $end
$var wire   12  aaaak  pc [11:0]  $end
$var wire    1  aaaal  CB       $end
$var wire    1  aaaam  CM       $end
$var wire    1  aaaan  LE       $end
$var wire    1  aaaao  rps_stim_o       $end
$var wire    1  aaaap  s_LE       $end
$var wire    1  aaaaq  s_CM       $end
$var wire    1  aaaar  s_CB       $end
$var wire   32  aaaas  s_est_prox [31:0]  $end
$var wire   32  aaaat  s_est_pres [31:0]  $end
$var wire    1  aaaau  init_t_o       $end
$var wire    6  aaaav  ports_t_o [5:0]  $end
$var wire    6  aaaaw  ports_t_i [5:0]  $end
$var wire    6  aaaax  s_t_o [5:0]  $end
$var wire    6  aaaay  acum_t_o [5:0]  $end
$var wire    1  aaaaz  en_t_i       $end
$var wire    1  aaaba  rw_t_i       $end
$var wire   12  aaabb  addr_t_o [11:0]  $end
$var wire    6  aaabc  dat_t_o [5:0]  $end
$var wire    6  aaabd  dat_t_i [5:0]  $end
$var wire    1  aaabe  rps_t_i       $end
$var wire    1  aaabf  en_m_i       $end
$var wire    1  aaabg  rw_m_i       $end
$var wire   12  aaabh  addr_m_i [11:0]  $end
$var wire    6  aaabi  dat_m_o [5:0]  $end
$var wire    6  aaabj  dat_m_i [5:0]  $end
$var wire    1  aaabk  init_c_o       $end
$var wire   12  aaabl  pc_c_o [11:0]  $end
$var wire    1  aaabm  rps_c_i       $end
$var wire    6  aaabn  RI [5:0]  $end
$var wire    6  aaabo  s_c_o [5:0]  $end
$var wire    1  aaabp  en_c_o       $end
$var wire    1  aaabq  rw_c_o       $end
$var wire   12  aaabr  addr_c_o [11:0]  $end
$var wire    6  aaabs  dat_c_o [5:0]  $end
$upscope $end
$enddefinitions  $end

$comment
All initial values are dumped below at time 0 sec = 0 timescale units.
$end

$dumpvars
bXXXXXXXXXXXX aaaaa
bXXXXXX aaaab
0aaaac
1aaaad
0aaaae
b111111 aaaaf
bXXXXXX aaaag
bXXXXXX aaaah
bXXXXXX aaaai
0aaaaj
bXXXXXXXXXXXX aaaak
0aaaal
0aaaam
1aaaan
0aaaao
1aaaap
0aaaaq
0aaaar
b1 aaaas
b0 aaaat
0aaaau
bXXXXXX aaaav
bXXXXXX aaaaw
bXXXXXX aaaax
b111111 aaaay
0aaaaz
1aaaba
bXXXXXXXXXXXX aaabb
bXXXXXX aaabc
bZZZZZZ aaabd
0aaabe
0aaabf
1aaabg
bXXXXXXXXXXXX aaabh
bZZZZZZ aaabi
bXXXXXX aaabj
0aaabk
bXXXXXXXXXXXX aaabl
0aaabm
b0 aaabn
bXXXXXX aaabo
0aaabp
1aaabq
bXXXXXXXXXXXX aaabr
bXXXXXX aaabs
$end

#250
1aaaae

#500
b0 aaaaa
1aaaac
0aaaae
1aaaaj
b0 aaaak
1aaaal
1aaaam
1aaaao
1aaaaq
1aaaar
b10 aaaas
b1 aaaat
1aaaaz
b0 aaabb
b0 aaabd
1aaabe
1aaabf
b0 aaabh
b0 aaabi
b0 aaabl
1aaabm
1aaabp
b0 aaabr

#750
1aaaae

#1000
0aaaae
0aaaal
0aaaam
0aaaaq
0aaaar
b11 aaaas
b10 aaaat

#1250
1aaaae

#1500
b1 aaaaa
0aaaae
b1 aaaak
1aaaam
1aaaaq
b100 aaaas
b11 aaaat
b1 aaabb
b1 aaabd
b1 aaabh
b1 aaabi
b1 aaabl
b1 aaabr

#1750
1aaaae

#2000
0aaaae
b1 aaaaf
b10000 aaaag
0aaaam
0aaaaq
b1 aaaas
b100 aaaat
b10000 aaaax
b1 aaaay
b10000 aaabo

#2250
1aaaae

#2500
b10 aaaaa
0aaaae
b10 aaaak
1aaaal
1aaaam
1aaaaq
1aaaar
b10 aaaas
b1 aaaat
b10 aaabb
b1001 aaabd
b10 aaabh
b1001 aaabi
b10 aaabl
b10 aaabr

#2750
1aaaae

#3000
0aaaae
0aaaal
0aaaam
0aaaaq
0aaaar
b11 aaaas
b10 aaaat
b1001 aaabn

#3250
1aaaae

#3500
b11 aaaaa
0aaaae
b11 aaaak
1aaaam
1aaaaq
b100 aaaas
b11 aaaat
b11 aaabb
b0 aaabd
b11 aaabh
b0 aaabi
b11 aaabl
b11 aaabr

#3750
1aaaae

#4000
0aaaae
0aaaam
0aaaaq
b101 aaaas
b100 aaaat

#4250
1aaaae

#4500
b100 aaaaa
0aaaae
b100 aaaak
1aaaam
1aaaaq
b110 aaaas
b101 aaaat
b100 aaabb
b11 aaabd
b100 aaabh
b11 aaabi
b100 aaabl
b100 aaabr

#4750
1aaaae

#5000
0aaaae
0aaaam
0aaaaq
b111 aaaas
b110 aaaat

#5250
1aaaae

#5500
b11000000 aaaaa
0aaaae
b101 aaaak
1aaaam
1aaaaq
b1000 aaaas
b111 aaaat
b11000000 aaabb
b0 aaabd
b11000000 aaabh
b0 aaabi
b101 aaabl
b11000000 aaabr

#5750
1aaaae

#6000
b1 aaaab
0aaaad
0aaaae
0aaaam
0aaaan
0aaaap
0aaaaq
b1 aaaas
b1000 aaaat
0aaaba
b1 aaabc
0aaabg
b1 aaabj
0aaabq
b1 aaabs

#6250
1aaaae

#6500
b101 aaaaa
1aaaad
0aaaae
1aaaal
1aaaam
1aaaan
1aaaap
1aaaaq
1aaaar
b10 aaaas
b1 aaaat
1aaaba
b101 aaabb
1aaabg
b101 aaabh
1aaabq
b101 aaabr

#6750
1aaaae

#7000
0aaaae
0aaaal
0aaaam
0aaaaq
0aaaar
b11 aaaas
b10 aaaat
b0 aaabn

#7250
1aaaae

#7500
b110 aaaaa
0aaaae
b110 aaaak
1aaaam
1aaaaq
b100 aaaas
b11 aaaat
b110 aaabb
b1 aaabd
b110 aaabh
b1 aaabi
b110 aaabl
b110 aaabr

#7750
1aaaae

#8000
0aaaae
0aaaam
0aaaaq
b1 aaaas
b100 aaaat

#8250
1aaaae

#8500
b111 aaaaa
0aaaae
b111 aaaak
1aaaal
1aaaam
1aaaaq
1aaaar
b10 aaaas
b1 aaaat
b111 aaabb
b1001 aaabd
b111 aaabh
b1001 aaabi
b111 aaabl
b111 aaabr

#8750
1aaaae

#9000
0aaaae
0aaaal
0aaaam
0aaaaq
0aaaar
b11 aaaas
b10 aaaat
b1001 aaabn

#9250
1aaaae

#9500
b1000 aaaaa
0aaaae
b1000 aaaak
1aaaam
1aaaaq
b100 aaaas
b11 aaaat
b1000 aaabb
b1 aaabd
b1000 aaabh
b1 aaabi
b1000 aaabl
b1000 aaabr

#9750
1aaaae

#10000
0aaaae
0aaaam
0aaaaq
b101 aaaas
b100 aaaat

#10250
1aaaae

#10500
b1001 aaaaa
0aaaae
b1001 aaaak
1aaaam
1aaaaq
b110 aaaas
b101 aaaat
b1001 aaabb
b11 aaabd
b1001 aaabh
b11 aaabi
b1001 aaabl
b1001 aaabr

#10750
1aaaae

#11000
0aaaae
0aaaam
0aaaaq
b111 aaaas
b110 aaaat

#11250
1aaaae

#11500
b11000001 aaaaa
0aaaae
b1010 aaaak
1aaaam
1aaaaq
b1000 aaaas
b111 aaaat
b11000001 aaabb
b0 aaabd
b11000001 aaabh
b0 aaabi
b1010 aaabl
b11000001 aaabr

#11750
1aaaae

#12000
0aaaad
0aaaae
0aaaam
0aaaan
0aaaap
0aaaaq
b1 aaaas
b1000 aaaat
0aaaba
0aaabg
0aaabq

#12250
1aaaae

#12500
b1010 aaaaa
1aaaad
0aaaae
1aaaal
1aaaam
1aaaan
1aaaap
1aaaaq
1aaaar
b10 aaaas
b1 aaaat
1aaaba
b1010 aaabb
1aaabg
b1010 aaabh
1aaabq
b1010 aaabr

#12750
1aaaae

#13000
0aaaae
0aaaal
0aaaam
0aaaaq
0aaaar
b11 aaaas
b10 aaaat
b0 aaabn

#13250
1aaaae

#13500
b1011 aaaaa
0aaaae
b1011 aaaak
1aaaam
1aaaaq
b100 aaaas
b11 aaaat
b1011 aaabb
b111 aaabd
b1011 aaabh
b111 aaabi
b1011 aaabl
b1011 aaabr

#13750
1aaaae

#14000
0aaaae
b111 aaaaf
0aaaam
0aaaaq
b1 aaaas
b100 aaaat
b111 aaaay

#14250
1aaaae

#14500
b1100 aaaaa
0aaaae
b1100 aaaak
1aaaal
1aaaam
1aaaaq
1aaaar
b10 aaaas
b1 aaaat
b1100 aaabb
b1011 aaabd
b1100 aaabh
b1011 aaabi
b1100 aaabl
b1100 aaabr

#14750
1aaaae

#15000
0aaaae
0aaaal
0aaaam
0aaaaq
0aaaar
b11 aaaas
b10 aaaat
b1011 aaabn

#15250
1aaaae

#15500
b1101 aaaaa
0aaaae
b1101 aaaak
1aaaam
1aaaaq
b100 aaaas
b11 aaaat
b1101 aaabb
b0 aaabd
b1101 aaabh
b0 aaabi
b1101 aaabl
b1101 aaabr

#15750
1aaaae

#16000
0aaaae
0aaaam
0aaaaq
b101 aaaas
b100 aaaat

#16250
1aaaae

#16500
b1110 aaaaa
0aaaae
b1110 aaaak
1aaaam
1aaaaq
b110 aaaas
b101 aaaat
b1110 aaabb
b11 aaabd
b1110 aaabh
b11 aaabi
b1110 aaabl
b1110 aaabr

#16750
1aaaae

#17000
0aaaae
0aaaam
0aaaaq
b111 aaaas
b110 aaaat

#17250
1aaaae

#17500
b11000000 aaaaa
0aaaae
b1111 aaaak
1aaaam
1aaaaq
b1000 aaaas
b111 aaaat
b11000000 aaabb
b1 aaabd
b11000000 aaabh
b1 aaabi
b1111 aaabl
b11000000 aaabr

#17750
1aaaae

#18000
0aaaae
0aaaam
0aaaaq
b1001 aaaas
b1000 aaaat

#18250
1aaaae

#18500
b11000001 aaaaa
0aaaae
1aaaam
1aaaaq
b1010 aaaas
b1001 aaaat
b11000001 aaabb
b11000001 aaabh
b11000001 aaabr

#18750
1aaaae

#19000
0aaaae
0aaaam
0aaaaq
b1011 aaaas
b1010 aaaat

#19250
1aaaae

#19500
b1000001 aaaaa
0aaaae
1aaaam
1aaaaq
b1100 aaaas
b1011 aaaat
b1000001 aaabb
b0 aaabd
b1000001 aaabh
b0 aaabi
b1000001 aaabr

#19750
1aaaae

#20000
b111 aaaab
0aaaad
0aaaae
0aaaam
0aaaan
0aaaap
0aaaaq
b1 aaaas
b1100 aaaat
0aaaba
b111 aaabc
0aaabg
b111 aaabj
0aaabq
b111 aaabs

#20250
1aaaae

#20500
b1111 aaaaa
1aaaad
0aaaae
1aaaal
1aaaam
1aaaan
1aaaap
1aaaaq
1aaaar
b10 aaaas
b1 aaaat
1aaaba
b1111 aaabb
b10101 aaabd
1aaabg
b1111 aaabh
b10101 aaabi
1aaabq
b1111 aaabr

#20750
1aaaae

#21000
0aaaae
b1000 aaaaf
0aaaal
0aaaam
0aaaaq
0aaaar
b1 aaaas
b10 aaaat
b1000 aaaay
b10101 aaabn

#21250
1aaaae

#21500
b10000 aaaaa
0aaaae
b10000 aaaak
1aaaal
1aaaam
1aaaaq
1aaaar
b10 aaaas
b1 aaaat
b10000 aaabb
b1 aaabd
b10000 aaabh
b1 aaabi
b10000 aaabl
b10000 aaabr

#21750
1aaaae

#22000
0aaaae
0aaaal
0aaaam
0aaaaq
0aaaar
b11 aaaas
b10 aaaat
b1 aaabn

#22250
1aaaae

#22500
b10001 aaaaa
0aaaae
b10001 aaaak
1aaaam
1aaaaq
b100 aaaas
b11 aaaat
b10001 aaabb
b10001 aaabh
b10001 aaabl
b10001 aaabr

#22750
1aaaae

#23000
0aaaae
0aaaam
0aaaaq
b101 aaaas
b100 aaaat

#23250
1aaaae

#23500
b10010 aaaaa
0aaaae
b10010 aaaak
1aaaam
1aaaaq
b110 aaaas
b101 aaaat
b10010 aaabb
b10010 aaabh
b10010 aaabl
b10010 aaabr

#23750
1aaaae

#24000
0aaaae
0aaaam
0aaaaq
b111 aaaas
b110 aaaat

#24250
1aaaae

#24500
b1000001 aaaaa
0aaaae
b10011 aaaak
1aaaam
1aaaaq
b1000 aaaas
b111 aaaat
b1000001 aaabb
b111 aaabd
b1000001 aaabh
b111 aaabi
b10011 aaabl
b1000001 aaabr

#24750
1aaaae

#25000
0aaaae
b111 aaaaf
0aaaam
0aaaaq
b1 aaaas
b1000 aaaat
b111 aaaay

#25250
1aaaae

#25500
b10011 aaaaa
0aaaae
1aaaal
1aaaam
1aaaaq
1aaaar
b10 aaaas
b1 aaaat
b10011 aaabb
b100110 aaabd
b10011 aaabh
b100110 aaabi
b10011 aaabr

#25750
1aaaae

#26000
0aaaae
0aaaal
0aaaam
0aaaaq
0aaaar
b10 aaaat
b100110 aaabn

