clion/cpucr.vcd
$date
     Dec 05, 2015       16:35:54
$end

$version
 SystemC 2.3.1-Accellera --- Aug 26 2015 20:42:51
$end

$timescale
     1 ns
$end

$scope module SystemC $end
$var wire   12  aaaaa  address [11:0]  $end
$var wire    6  aaaab  data [5:0]  $end
$var wire    1  aaaac  enable       $end
$var wire    1  aaaad  rw       $end
$var wire    1  aaaae  clk       $end
$var wire    6  aaaaf  acum [5:0]  $end
$var wire    6  aaaag  s [5:0]  $end
$var wire    1  aaaah  rps       $end
$var wire   12  aaaai  pc [11:0]  $end
$var wire    1  aaaaj  CB       $end
$var wire    1  aaaak  CM       $end
$var wire    1  aaaal  LE       $end
$var wire    6  aaaam  port_address [5:0]  $end
$var wire    6  aaaan  port_data_write [5:0]  $end
$var wire    6  aaaao  port_data_read [5:0]  $end
$var wire    1  aaaap  rps_stim_o       $end
$var wire    1  aaaaq  s_LE       $end
$var wire    1  aaaar  s_CM       $end
$var wire    1  aaaas  s_CB       $end
$var wire   32  aaaat  s_est_prox [31:0]  $end
$var wire   32  aaaau  s_est_pres [31:0]  $end
$var wire    1  aaaav  init_t_o       $end
$var wire   12  aaaaw  pc_t_o [11:0]  $end
$var wire    6  aaaax  s_t_o [5:0]  $end
$var wire    6  aaaay  acum_t_o [5:0]  $end
$var wire    1  aaaaz  en_t_i       $end
$var wire    1  aaaba  rw_t_i       $end
$var wire   12  aaabb  addr_t_o [11:0]  $end
$var wire    6  aaabc  dat_t_o [5:0]  $end
$var wire    6  aaabd  dat_t_i [5:0]  $end
$var wire    1  aaabe  rps_t_i       $end
$var wire    1  aaabf  en_m_i       $end
$var wire    1  aaabg  rw_m_i       $end
$var wire   12  aaabh  addr_m_i [11:0]  $end
$var wire    6  aaabi  dat_m_o [5:0]  $end
$var wire    6  aaabj  dat_m_i [5:0]  $end
$var wire    1  aaabk  init_c_o       $end
$var wire   12  aaabl  pc_c_o [11:0]  $end
$var wire    1  aaabm  rps_c_i       $end
$var wire    6  aaabn  RI [5:0]  $end
$var wire    6  aaabo  s_c_o [5:0]  $end
$var wire    1  aaabp  en_c_o       $end
$var wire    1  aaabq  rw_c_o       $end
$var wire   12  aaabr  addr_c_o [11:0]  $end
$var wire    6  aaabs  dat_c_o [5:0]  $end
$upscope $end
$enddefinitions  $end

$comment
All initial values are dumped below at time 0 sec = 0 timescale units.
$end

$dumpvars
b0 aaaaa
b0 aaaab
0aaaac
1aaaad
0aaaae
b0 aaaaf
b0 aaaag
0aaaah
b0 aaaai
0aaaaj
0aaaak
1aaaal
b0 aaaam
b0 aaaan
b0 aaaao
0aaaap
1aaaaq
0aaaar
0aaaas
b1 aaaat
b0 aaaau
0aaaav
b0 aaaaw
b0 aaaax
b0 aaaay
0aaaaz
1aaaba
b0 aaabb
b0 aaabc
bZZZZZZ aaabd
0aaabe
0aaabf
1aaabg
b0 aaabh
bZZZZZZ aaabi
b0 aaabj
0aaabk
b0 aaabl
0aaabm
b0 aaabn
b0 aaabo
0aaabp
1aaabq
b0 aaabr
b0 aaabs
$end

#250
1aaaae

#500
1aaaac
0aaaae
1aaaah
1aaaaj
1aaaak
1aaaap
1aaaar
1aaaas
b10 aaaat
b1 aaaau
1aaaaz
b111 aaabd
1aaabe
1aaabf
b111 aaabi
1aaabm
1aaabp

#750
1aaaae

#1000
0aaaae
0aaaaj
0aaaak
b1 aaaam
b1 aaaan
0aaaar
0aaaas
b11 aaaat
b10 aaaau
b111 aaabn

#1250
1aaaae

#1500
b1 aaaaa
0aaaae
b1 aaaai
1aaaak
b10 aaaam
b10 aaaan
1aaaar
b100 aaaat
b11 aaaau
b1 aaaaw
b1 aaabb
b0 aaabd
b1 aaabh
b0 aaabi
b1 aaabl
b1 aaabr

#1750
1aaaae

#2000
0aaaae
b10010 aaaag
0aaaak
b11 aaaam
b11 aaaan
0aaaar
b1 aaaat
b100 aaaau
b10010 aaaax
b10010 aaabo

#2250
1aaaae

#2500
b10 aaaaa
0aaaae
b10 aaaai
1aaaaj
1aaaak
1aaaar
1aaaas
b10 aaaat
b1 aaaau
b10 aaaaw
b10 aaabb
b111 aaabd
b10 aaabh
b111 aaabi
b10 aaabl
b10 aaabr

#2750
1aaaae

#3000
0aaaae
0aaaaj
0aaaak
b1 aaaam
b1 aaaao
0aaaar
0aaaas
b11 aaaat
b10 aaaau

#3250
1aaaae

#3500
b11 aaaaa
0aaaae
b11 aaaai
1aaaak
1aaaar
b100 aaaat
b11 aaaau
b11 aaaaw
b11 aaabb
b1 aaabd
b11 aaabh
b1 aaabi
b11 aaabl
b11 aaabr

#3750
1aaaae

#4000
0aaaae
b1 aaaaf
b10000 aaaag
0aaaak
0aaaar
b1 aaaat
b100 aaaau
b10000 aaaax
b1 aaaay
b10000 aaabo

#4250
1aaaae

#4500
b100 aaaaa
0aaaae
b100 aaaai
1aaaaj
1aaaak
1aaaar
1aaaas
b10 aaaat
b1 aaaau
b100 aaaaw
b100 aaabb
b111 aaabd
b100 aaabh
b111 aaabi
b100 aaabl
b100 aaabr

#4750
1aaaae

#5000
0aaaae
0aaaaj
0aaaak
0aaaar
0aaaas
b11 aaaat
b10 aaaau

#5250
1aaaae

#5500
b101 aaaaa
0aaaae
b101 aaaai
1aaaak
1aaaar
b100 aaaat
b11 aaaau
b101 aaaaw
b101 aaabb
b10 aaabd
b101 aaabh
b10 aaabi
b101 aaabl
b101 aaabr

#5750
1aaaae

#6000
0aaaae
b10 aaaaf
0aaaak
0aaaar
b1 aaaat
b100 aaaau
b10 aaaay

#6250
1aaaae

#6500
b110 aaaaa
0aaaae
b110 aaaai
1aaaaj
1aaaak
1aaaar
1aaaas
b10 aaaat
b1 aaaau
b110 aaaaw
b110 aaabb
b111 aaabd
b110 aaabh
b111 aaabi
b110 aaabl
b110 aaabr

#6750
1aaaae

#7000
0aaaae
0aaaaj
0aaaak
0aaaar
0aaaas
b11 aaaat
b10 aaaau

#7250
1aaaae

#7500
b111 aaaaa
0aaaae
b111 aaaai
1aaaak
1aaaar
b100 aaaat
b11 aaaau
b111 aaaaw
b111 aaabb
b11 aaabd
b111 aaabh
b11 aaabi
b111 aaabl
b111 aaabr

#7750
1aaaae

#8000
0aaaae
b11 aaaaf
0aaaak
0aaaar
b1 aaaat
b100 aaaau
b11 aaaay

#8250
1aaaae

#8500
b1000 aaaaa
0aaaae
b1000 aaaai
1aaaaj
1aaaak
1aaaar
1aaaas
b10 aaaat
b1 aaaau
b1000 aaaaw
b1000 aaabb
b1111 aaabd
b1000 aaabh
b1111 aaabi
b1000 aaabl
b1000 aaabr

#8750
1aaaae

#9000
0aaaae
0aaaaj
0aaaak
0aaaar
0aaaas
b11 aaaat
b10 aaaau
b1111 aaabn

#9250
1aaaae

#9500
b1001 aaaaa
0aaaae
b1001 aaaai
1aaaak
1aaaar
b100 aaaat
b11 aaaau
b1001 aaaaw
b1001 aaabb
b1 aaabd
b1001 aaabh
b1 aaabi
b1001 aaabl
b1001 aaabr

#9750
1aaaae

#10000
0aaaae
0aaaak
0aaaar
b1 aaaat
b100 aaaau

#10250
1aaaae

#10500
b1010 aaaaa
0aaaae
b1010 aaaai
1aaaaj
1aaaak
1aaaar
1aaaas
b10 aaaat
b1 aaaau
b1010 aaaaw
b1010 aaabb
b1001 aaabd
b1010 aaabh
b1001 aaabi
b1010 aaabl
b1010 aaabr

#10750
1aaaae

#11000
0aaaae
0aaaaj
0aaaak
0aaaar
0aaaas
b11 aaaat
b10 aaaau
b1001 aaabn

#11250
1aaaae

#11500
b1011 aaaaa
0aaaae
b1011 aaaai
1aaaak
1aaaar
b100 aaaat
b11 aaaau
b1011 aaaaw
b1011 aaabb
b0 aaabd
b1011 aaabh
b0 aaabi
b1011 aaabl
b1011 aaabr

#11750
1aaaae

#12000
0aaaae
0aaaak
0aaaar
b101 aaaat
b100 aaaau

#12250
1aaaae

#12500
b1100 aaaaa
0aaaae
b1100 aaaai
1aaaak
1aaaar
b110 aaaat
b101 aaaau
b1100 aaaaw
b1100 aaabb
b1000 aaabd
b1100 aaabh
b1000 aaabi
b1100 aaabl
b1100 aaabr

#12750
1aaaae

#13000
0aaaae
0aaaak
0aaaar
b111 aaaat
b110 aaaau

#13250
1aaaae

#13500
b1000000000 aaaaa
0aaaae
b1101 aaaai
1aaaak
1aaaar
b1000 aaaat
b111 aaaau
b1101 aaaaw
b1000000000 aaabb
b0 aaabd
b1000000000 aaabh
b0 aaabi
b1101 aaabl
b1000000000 aaabr

#13750
1aaaae

#14000
b11 aaaab
0aaaad
0aaaae
0aaaak
0aaaal
0aaaaq
0aaaar
b1 aaaat
b1000 aaaau
0aaaba
b11 aaabc
0aaabg
b11 aaabj
0aaabq
b11 aaabs

#14250
1aaaae

#14500
b1101 aaaaa
1aaaad
0aaaae
1aaaaj
1aaaak
1aaaal
1aaaaq
1aaaar
1aaaas
b10 aaaat
b1 aaaau
1aaaba
b1101 aaabb
b100110 aaabd
1aaabg
b1101 aaabh
b100110 aaabi
1aaabq
b1101 aaabr

#14750
1aaaae

#15000
0aaaae
0aaaaj
0aaaak
0aaaar
0aaaas
b11110 aaaat
b10 aaaau
b100110 aaabn

#15250
1aaaae

#15500
0aaaae
1aaaak
1aaaar
b11110 aaaau

#15750
1aaaae

#16000
0aaaae
0aaaak
0aaaar

#16250
1aaaae

#16500
0aaaae
1aaaak
1aaaar

#16750
1aaaae

#17000
0aaaae
0aaaak
0aaaar

#17250
1aaaae

#17500
0aaaae
1aaaak
1aaaar

#17750
1aaaae

#18000
0aaaae
0aaaak
0aaaar

#18250
1aaaae

#18500
0aaaae
1aaaak
1aaaar

#18750
1aaaae

#19000
0aaaae
0aaaak
0aaaar

#19250
1aaaae

#19500
0aaaae
1aaaak
1aaaar

#19750
1aaaae

#20000
0aaaae
0aaaak
0aaaar

#20250
1aaaae

#20500
0aaaae
1aaaak
1aaaar

#20750
1aaaae

#21000
0aaaae
0aaaak
0aaaar

#21250
1aaaae

#21500
0aaaae
1aaaak
1aaaar

#21750
1aaaae

#22000
0aaaae
0aaaak
0aaaar

#22250
1aaaae

#22500
0aaaae
1aaaak
1aaaar

#22750
1aaaae

#23000
0aaaae
0aaaak
0aaaar

#23250
1aaaae

#23500
0aaaae
1aaaak
1aaaar

#23750
1aaaae

#24000
0aaaae
0aaaak
0aaaar

#24250
1aaaae

#24500
0aaaae
1aaaak
1aaaar

#24750
1aaaae

#25000
0aaaae
0aaaak
0aaaar

#25250
1aaaae

#25500
0aaaae
1aaaak
1aaaar

#25750
1aaaae

#26000
0aaaae
0aaaak
0aaaar

#26250
1aaaae

#26500
0aaaae
1aaaak
1aaaar

#26750
1aaaae

#27000
0aaaae
0aaaak
0aaaar

#27250
1aaaae

#27500
0aaaae
1aaaak
1aaaar

#27750
1aaaae

#28000
0aaaae
0aaaak
0aaaar

#28250
1aaaae

#28500
0aaaae
1aaaak
1aaaar

#28750
1aaaae

#29000
0aaaae
0aaaak
0aaaar

#29250
1aaaae

#29500
0aaaae
1aaaak
1aaaar

#29750
1aaaae

#30000
0aaaae
0aaaak
0aaaar

#30250
1aaaae

#30500
0aaaae
1aaaak
1aaaar

#30750
1aaaae

#31000
0aaaae
0aaaak
0aaaar

#31250
1aaaae

#31500
0aaaae
1aaaak
1aaaar

#31750
1aaaae

#32000
0aaaae
0aaaak
0aaaar

#32250
1aaaae

#32500
0aaaae
1aaaak
1aaaar

#32750
1aaaae

#33000
0aaaae
0aaaak
0aaaar

#33250
1aaaae

#33500
0aaaae
1aaaak
1aaaar

#33750
1aaaae

#34000
0aaaae
0aaaak
0aaaar

#34250
1aaaae

#34500
0aaaae
1aaaak
1aaaar

#34750
1aaaae

#35000
0aaaae
0aaaak
0aaaar

#35250
1aaaae

#35500
0aaaae
1aaaak
1aaaar

#35750
1aaaae

#36000
0aaaae
0aaaak
0aaaar

#36250
1aaaae

#36500
0aaaae
1aaaak
1aaaar

#36750
1aaaae

#37000
0aaaae
0aaaak
0aaaar

#37250
1aaaae

#37500
0aaaae
1aaaak
1aaaar

#37750
1aaaae

#38000
0aaaae
0aaaak
0aaaar

#38250
1aaaae

#38500
0aaaae
1aaaak
1aaaar

#38750
1aaaae

#39000
0aaaae
0aaaak
0aaaar

#39250
1aaaae

#39500
0aaaae
1aaaak
1aaaar

#39750
1aaaae

#40000
0aaaae
0aaaak
0aaaar

#40250
1aaaae

#40500
0aaaae
1aaaak
1aaaar

#40750
1aaaae

#41000
0aaaae
0aaaak
0aaaar

#41250
1aaaae

#41500
0aaaae
1aaaak
1aaaar

#41750
1aaaae

#42000
0aaaae
0aaaak
0aaaar

#42250
1aaaae

#42500
0aaaae
1aaaak
1aaaar

#42750
1aaaae

#43000
0aaaae
0aaaak
0aaaar

#43250
1aaaae

#43500
0aaaae
1aaaak
1aaaar

#43750
1aaaae

#44000
0aaaae
0aaaak
0aaaar

#44250
1aaaae

#44500
0aaaae
1aaaak
1aaaar

#44750
1aaaae

#45000
0aaaae
0aaaak
0aaaar

#45250
1aaaae

#45500
0aaaae
1aaaak
1aaaar

#45750
1aaaae

#46000
0aaaae
0aaaak
0aaaar

#46250
1aaaae

#46500
0aaaae
1aaaak
1aaaar

#46750
1aaaae

#47000
0aaaae
0aaaak
0aaaar

#47250
1aaaae

#47500
0aaaae
1aaaak
1aaaar

#47750
1aaaae

#48000
0aaaae
0aaaak
0aaaar

#48250
1aaaae

#48500
0aaaae
1aaaak
1aaaar

#48750
1aaaae

#49000
0aaaae
0aaaak
0aaaar

#49250
1aaaae

#49500
0aaaae
1aaaak
1aaaar

#49750
1aaaae

#50000
0aaaae
0aaaak
0aaaar

#50250
1aaaae

#50500
0aaaae
1aaaak
1aaaar

#50750
1aaaae

#51000
0aaaae
0aaaak
0aaaar

#51250
1aaaae

#51500
0aaaae
1aaaak
1aaaar

#51750
1aaaae

#52000
0aaaae
0aaaak
0aaaar

#52250
1aaaae

#52500
0aaaae
1aaaak
1aaaar

#52750
1aaaae

#53000
0aaaae
0aaaak
0aaaar

#53250
1aaaae

#53500
0aaaae
1aaaak
1aaaar

#53750
1aaaae

#54000
0aaaae
0aaaak
0aaaar

#54250
1aaaae

#54500
0aaaae
1aaaak
1aaaar

#54750
1aaaae

#55000
0aaaae
0aaaak
0aaaar

#55250
1aaaae

#55500
0aaaae
1aaaak
1aaaar

#55750
1aaaae

#56000
0aaaae
0aaaak
0aaaar

#56250
1aaaae

#56500
0aaaae
1aaaak
1aaaar

#56750
1aaaae

#57000
0aaaae
0aaaak
0aaaar

#57250
1aaaae

#57500
0aaaae
1aaaak
1aaaar

#57750
1aaaae

#58000
0aaaae
0aaaak
0aaaar

#58250
1aaaae

#58500
0aaaae
1aaaak
1aaaar

#58750
1aaaae

#59000
0aaaae
0aaaak
0aaaar

#59250
1aaaae

#59500
0aaaae
1aaaak
1aaaar

#59750
1aaaae

#60000
0aaaae
0aaaak
0aaaar

#60250
1aaaae

#60500
0aaaae
1aaaak
1aaaar

#60750
1aaaae

#61000
0aaaae
0aaaak
0aaaar

#61250
1aaaae

#61500
0aaaae
1aaaak
1aaaar

#61750
1aaaae

#62000
0aaaae
0aaaak
0aaaar

#62250
1aaaae

#62500
0aaaae
1aaaak
1aaaar

#62750
1aaaae

#63000
0aaaae
0aaaak
0aaaar

#63250
1aaaae

#63500
0aaaae
1aaaak
1aaaar

#63750
1aaaae

#64000
0aaaae
0aaaak
0aaaar

#64250
1aaaae

#64500
0aaaae
1aaaak
1aaaar

#64750
1aaaae

#65000
0aaaae
0aaaak
0aaaar

#65250
1aaaae

#65500
0aaaae
1aaaak
1aaaar

#65750
1aaaae

#66000
0aaaae
0aaaak
0aaaar

#66250
1aaaae

#66500
0aaaae
1aaaak
1aaaar

#66750
1aaaae

#67000
0aaaae
0aaaak
0aaaar

#67250
1aaaae

#67500
0aaaae
1aaaak
1aaaar

#67750
1aaaae

#68000
0aaaae
0aaaak
0aaaar

#68250
1aaaae

#68500
0aaaae
1aaaak
1aaaar

#68750
1aaaae

#69000
0aaaae
0aaaak
0aaaar

#69250
1aaaae

#69500
0aaaae
1aaaak
1aaaar

#69750
1aaaae

#70000
0aaaae
0aaaak
0aaaar

#70250
1aaaae

#70500
0aaaae
1aaaak
1aaaar

#70750
1aaaae

#71000
0aaaae
0aaaak
0aaaar

#71250
1aaaae

#71500
0aaaae
1aaaak
1aaaar

#71750
1aaaae

#72000
0aaaae
0aaaak
0aaaar

#72250
1aaaae

#72500
0aaaae
1aaaak
1aaaar

#72750
1aaaae

#73000
0aaaae
0aaaak
0aaaar

#73250
1aaaae

#73500
0aaaae
1aaaak
1aaaar

#73750
1aaaae

#74000
0aaaae
0aaaak
0aaaar

#74250
1aaaae

#74500
0aaaae
1aaaak
1aaaar

#74750
1aaaae

#75000
0aaaae
0aaaak
0aaaar

#75250
1aaaae

#75500
0aaaae
1aaaak
1aaaar

#75750
1aaaae

#76000
0aaaae
0aaaak
0aaaar

#76250
1aaaae

#76500
0aaaae
1aaaak
1aaaar

#76750
1aaaae

#77000
0aaaae
0aaaak
0aaaar

#77250
1aaaae

#77500
0aaaae
1aaaak
1aaaar

#77750
1aaaae

#78000
0aaaae
0aaaak
0aaaar

#78250
1aaaae

#78500
0aaaae
1aaaak
1aaaar

#78750
1aaaae

#79000
0aaaae
0aaaak
0aaaar

#79250
1aaaae

#79500
0aaaae
1aaaak
1aaaar

#79750
1aaaae

#80000
0aaaae
0aaaak
0aaaar

#80250
1aaaae

#80500
0aaaae
1aaaak
1aaaar

#80750
1aaaae

#81000
0aaaae
0aaaak
0aaaar

#81250
1aaaae

#81500
0aaaae
1aaaak
1aaaar

#81750
1aaaae

#82000
0aaaae
0aaaak
0aaaar

#82250
1aaaae

#82500
0aaaae
1aaaak
1aaaar

#82750
1aaaae

#83000
0aaaae
0aaaak
0aaaar

#83250
1aaaae

#83500
0aaaae
1aaaak
1aaaar

#83750
1aaaae

#84000
0aaaae
0aaaak
0aaaar

#84250
1aaaae

#84500
0aaaae
1aaaak
1aaaar

#84750
1aaaae

#85000
0aaaae
0aaaak
0aaaar

#85250
1aaaae

#85500
0aaaae
1aaaak
1aaaar

#85750
1aaaae

#86000
0aaaae
0aaaak
0aaaar

#86250
1aaaae

#86500
0aaaae
1aaaak
1aaaar

#86750
1aaaae

#87000
0aaaae
0aaaak
0aaaar

#87250
1aaaae

#87500
0aaaae
1aaaak
1aaaar

#87750
1aaaae

#88000
0aaaae
0aaaak
0aaaar

#88250
1aaaae

#88500
0aaaae
1aaaak
1aaaar

#88750
1aaaae

#89000
0aaaae
0aaaak
0aaaar

#89250
1aaaae

#89500
0aaaae
1aaaak
1aaaar

#89750
1aaaae

#90000
0aaaae
0aaaak
0aaaar

#90250
1aaaae

#90500
0aaaae
1aaaak
1aaaar

#90750
1aaaae

#91000
0aaaae
0aaaak
0aaaar

#91250
1aaaae

#91500
0aaaae
1aaaak
1aaaar

#91750
1aaaae

#92000
0aaaae
0aaaak
0aaaar

#92250
1aaaae

#92500
0aaaae
1aaaak
1aaaar

#92750
1aaaae

#93000
0aaaae
0aaaak
0aaaar

#93250
1aaaae

#93500
0aaaae
1aaaak
1aaaar

#93750
1aaaae

#94000
0aaaae
0aaaak
0aaaar

#94250
1aaaae

#94500
0aaaae
1aaaak
1aaaar

#94750
1aaaae

#95000
0aaaae
0aaaak
0aaaar

#95250
1aaaae

#95500
0aaaae
1aaaak
1aaaar

#95750
1aaaae

#96000
0aaaae
0aaaak
0aaaar

#96250
1aaaae

#96500
0aaaae
1aaaak
1aaaar

#96750
1aaaae

#97000
0aaaae
0aaaak
0aaaar

#97250
1aaaae

#97500
0aaaae
1aaaak
1aaaar

#97750
1aaaae

#98000
0aaaae
0aaaak
0aaaar

#98250
1aaaae

#98500
0aaaae
1aaaak
1aaaar

#98750
1aaaae

#99000
0aaaae
0aaaak
0aaaar

#99250
1aaaae

#99500
0aaaae
1aaaak
1aaaar

#99750
1aaaae

#100000
0aaaae
0aaaak
0aaaar

#100250
1aaaae

#100500
0aaaae
1aaaak
1aaaar

#100750
1aaaae

#101000
0aaaae
0aaaak
0aaaar

#101250
1aaaae

#101500
0aaaae
1aaaak
1aaaar

#101750
1aaaae

#102000
0aaaae
0aaaak
0aaaar

#102250
1aaaae

#102500
0aaaae
1aaaak
1aaaar

#102750
1aaaae

#103000
0aaaae
0aaaak
0aaaar

#103250
1aaaae

#103500
0aaaae
1aaaak
1aaaar

#103750
1aaaae

#104000
0aaaae
0aaaak
0aaaar

#104250
1aaaae

#104500
0aaaae
1aaaak
1aaaar

#104750
1aaaae

#105000
0aaaae
0aaaak
0aaaar

#105250
1aaaae

#105500
0aaaae
1aaaak
1aaaar

#105750
1aaaae

#106000
0aaaae
0aaaak
0aaaar

#106250
1aaaae

#106500
0aaaae
1aaaak
1aaaar

#106750
1aaaae

#107000
0aaaae
0aaaak
0aaaar

#107250
1aaaae

#107500
0aaaae
1aaaak
1aaaar

#107750
1aaaae

#108000
0aaaae
0aaaak
0aaaar

#108250
1aaaae

#108500
0aaaae
1aaaak
1aaaar

#108750
1aaaae

#109000
0aaaae
0aaaak
0aaaar

#109250
1aaaae

#109500
0aaaae
1aaaak
1aaaar

#109750
1aaaae

#110000
0aaaae
0aaaak
0aaaar

#110250
1aaaae

#110500
0aaaae
1aaaak
1aaaar

#110750
1aaaae

#111000
0aaaae
0aaaak
0aaaar

#111250
1aaaae

#111500
0aaaae
1aaaak
1aaaar

#111750
1aaaae

#112000
0aaaae
0aaaak
0aaaar

#112250
1aaaae

#112500
0aaaae
1aaaak
1aaaar

#112750
1aaaae

#113000
0aaaae
0aaaak
0aaaar

#113250
1aaaae

#113500
0aaaae
1aaaak
1aaaar

#113750
1aaaae

#114000
0aaaae
0aaaak
0aaaar

#114250
1aaaae

#114500
0aaaae
1aaaak
1aaaar

#114750
1aaaae

#115000
0aaaae
0aaaak
0aaaar

#115250
1aaaae

#115500
0aaaae
1aaaak
1aaaar

#115750
1aaaae

#116000
0aaaae
0aaaak
0aaaar

#116250
1aaaae

#116500
0aaaae
1aaaak
1aaaar

#116750
1aaaae

#117000
0aaaae
0aaaak
0aaaar

#117250
1aaaae

#117500
0aaaae
1aaaak
1aaaar

#117750
1aaaae

#118000
0aaaae
0aaaak
0aaaar

#118250
1aaaae

#118500
0aaaae
1aaaak
1aaaar

#118750
1aaaae

#119000
0aaaae
0aaaak
0aaaar

#119250
1aaaae

#119500
0aaaae
1aaaak
1aaaar

#119750
1aaaae

#120000
0aaaae
0aaaak
0aaaar

#120250
1aaaae

#120500
0aaaae
1aaaak
1aaaar

#120750
1aaaae

#121000
0aaaae
0aaaak
0aaaar

#121250
1aaaae

#121500
0aaaae
1aaaak
1aaaar

#121750
1aaaae

#122000
0aaaae
0aaaak
0aaaar

#122250
1aaaae

#122500
0aaaae
1aaaak
1aaaar

#122750
1aaaae

#123000
0aaaae
0aaaak
0aaaar

#123250
1aaaae

#123500
0aaaae
1aaaak
1aaaar

#123750
1aaaae

#124000
0aaaae
0aaaak
0aaaar

#124250
1aaaae

#124500
0aaaae
1aaaak
1aaaar

#124750
1aaaae

#125000
0aaaae
0aaaak
0aaaar

#125250
1aaaae

#125500
0aaaae
1aaaak
1aaaar

#125750
1aaaae

#126000
0aaaae
0aaaak
0aaaar

#126250
1aaaae

#126500
0aaaae
1aaaak
1aaaar

#126750
1aaaae

#127000
0aaaae
0aaaak
0aaaar

#127250
1aaaae

#127500
0aaaae
1aaaak
1aaaar

#127750
1aaaae

#128000
0aaaae
0aaaak
0aaaar

#128250
1aaaae

#128500
0aaaae
1aaaak
1aaaar

#128750
1aaaae

#129000
0aaaae
0aaaak
0aaaar

#129250
1aaaae

#129500
0aaaae
1aaaak
1aaaar

#129750
1aaaae

#130000
0aaaae
0aaaak
0aaaar

#130250
1aaaae

#130500
0aaaae
1aaaak
1aaaar

#130750
1aaaae

#131000
0aaaae
0aaaak
0aaaar

#131250
1aaaae

#131500
0aaaae
1aaaak
1aaaar

#131750
1aaaae

#132000
0aaaae
0aaaak
0aaaar

#132250
1aaaae

#132500
0aaaae
1aaaak
1aaaar

#132750
1aaaae

#133000
0aaaae
0aaaak
0aaaar

#133250
1aaaae

#133500
0aaaae
1aaaak
1aaaar

#133750
1aaaae

#134000
0aaaae
0aaaak
0aaaar

#134250
1aaaae

#134500
0aaaae
1aaaak
1aaaar

#134750
1aaaae

#135000
0aaaae
0aaaak
0aaaar

#135250
1aaaae

#135500
0aaaae
1aaaak
1aaaar

#135750
1aaaae

#136000
0aaaae
0aaaak
0aaaar

#136250
1aaaae

#136500
0aaaae
1aaaak
1aaaar

#136750
1aaaae

#137000
0aaaae
0aaaak
0aaaar

#137250
1aaaae

#137500
0aaaae
1aaaak
1aaaar

#137750
1aaaae

#138000
0aaaae
0aaaak
0aaaar

#138250
1aaaae

#138500
0aaaae
1aaaak
1aaaar

#138750
1aaaae

#139000
0aaaae
0aaaak
0aaaar

#139250
1aaaae

#139500
0aaaae
1aaaak
1aaaar

#139750
1aaaae

#140000
0aaaae
0aaaak
0aaaar

#140250
1aaaae

#140500
0aaaae
1aaaak
1aaaar

#140750
1aaaae

#141000
0aaaae
0aaaak
0aaaar

#141250
1aaaae

#141500
0aaaae
1aaaak
1aaaar

#141750
1aaaae

#142000
0aaaae
0aaaak
0aaaar

#142250
1aaaae

#142500
0aaaae
1aaaak
1aaaar

#142750
1aaaae

#143000
0aaaae
0aaaak
0aaaar

#143250
1aaaae

#143500
0aaaae
1aaaak
1aaaar

#143750
1aaaae

#144000
0aaaae
0aaaak
0aaaar

#144250
1aaaae

#144500
0aaaae
1aaaak
1aaaar

#144750
1aaaae

#145000
0aaaae
0aaaak
0aaaar

#145250
1aaaae

#145500
0aaaae
1aaaak
1aaaar

#145750
1aaaae

#146000
0aaaae
0aaaak
0aaaar

#146250
1aaaae

#146500
0aaaae
1aaaak
1aaaar

#146750
1aaaae

#147000
0aaaae
0aaaak
0aaaar

#147250
1aaaae

#147500
0aaaae
1aaaak
1aaaar

#147750
1aaaae

#148000
0aaaae
0aaaak
0aaaar

#148250
1aaaae

#148500
0aaaae
1aaaak
1aaaar

#148750
1aaaae

#149000
0aaaae
0aaaak
0aaaar

#149250
1aaaae

#149500
0aaaae
1aaaak
1aaaar

#149750
1aaaae

#150000
0aaaae
0aaaak
0aaaar

#150250
1aaaae

#150500
0aaaae
1aaaak
1aaaar

#150750
1aaaae

#151000
0aaaae
0aaaak
0aaaar

#151250
1aaaae

#151500
0aaaae
1aaaak
1aaaar

#151750
1aaaae

#152000
0aaaae
0aaaak
0aaaar

#152250
1aaaae

#152500
0aaaae
1aaaak
1aaaar

#152750
1aaaae

#153000
0aaaae
0aaaak
0aaaar

#153250
1aaaae

#153500
0aaaae
1aaaak
1aaaar

#153750
1aaaae

#154000
0aaaae
0aaaak
0aaaar

#154250
1aaaae

#154500
0aaaae
1aaaak
1aaaar

#154750
1aaaae

#155000
0aaaae
0aaaak
0aaaar

#155250
1aaaae

#155500
0aaaae
1aaaak
1aaaar

#155750
1aaaae

#156000
0aaaae
0aaaak
0aaaar

#156250
1aaaae

#156500
0aaaae
1aaaak
1aaaar

#156750
1aaaae

#157000
0aaaae
0aaaak
0aaaar

#157250
1aaaae

#157500
0aaaae
1aaaak
1aaaar

#157750
1aaaae

#158000
0aaaae
0aaaak
0aaaar

#158250
1aaaae

#158500
0aaaae
1aaaak
1aaaar

#158750
1aaaae

#159000
0aaaae
0aaaak
0aaaar

#159250
1aaaae

#159500
0aaaae
1aaaak
1aaaar

#159750
1aaaae

#160000
0aaaae
0aaaak
0aaaar

#160250
1aaaae

#160500
0aaaae
1aaaak
1aaaar

#160750
1aaaae

#161000
0aaaae
0aaaak
0aaaar

#161250
1aaaae

#161500
0aaaae
1aaaak
1aaaar

#161750
1aaaae

#162000
0aaaae
0aaaak
0aaaar

#162250
1aaaae

#162500
0aaaae
1aaaak
1aaaar

#162750
1aaaae

#163000
0aaaae
0aaaak
0aaaar

#163250
1aaaae

#163500
0aaaae
1aaaak
1aaaar

#163750
1aaaae

#164000
0aaaae
0aaaak
0aaaar

#164250
1aaaae

#164500
0aaaae
1aaaak
1aaaar

#164750
1aaaae

#165000
0aaaae
0aaaak
0aaaar

#165250
1aaaae

#165500
0aaaae
1aaaak
1aaaar

#165750
1aaaae

#166000
0aaaae
0aaaak
0aaaar

#166250
1aaaae

#166500
0aaaae
1aaaak
1aaaar

#166750
1aaaae

#167000
0aaaae
0aaaak
0aaaar

#167250
1aaaae

#167500
0aaaae
1aaaak
1aaaar

#167750
1aaaae

#168000
0aaaae
0aaaak
0aaaar

#168250
1aaaae

#168500
0aaaae
1aaaak
1aaaar

#168750
1aaaae

#169000
0aaaae
0aaaak
0aaaar

#169250
1aaaae

#169500
0aaaae
1aaaak
1aaaar

#169750
1aaaae

#170000
0aaaae
0aaaak
0aaaar

#170250
1aaaae

#170500
0aaaae
1aaaak
1aaaar

#170750
1aaaae

#171000
0aaaae
0aaaak
0aaaar

#171250
1aaaae

#171500
0aaaae
1aaaak
1aaaar

#171750
1aaaae

#172000
0aaaae
0aaaak
0aaaar

#172250
1aaaae

#172500
0aaaae
1aaaak
1aaaar

#172750
1aaaae

#173000
0aaaae
0aaaak
0aaaar

#173250
1aaaae

#173500
0aaaae
1aaaak
1aaaar

#173750
1aaaae

#174000
0aaaae
0aaaak
0aaaar

#174250
1aaaae

#174500
0aaaae
1aaaak
1aaaar

#174750
1aaaae

#175000
0aaaae
0aaaak
0aaaar

#175250
1aaaae

#175500
0aaaae
1aaaak
1aaaar

#175750
1aaaae

#176000
0aaaae
0aaaak
0aaaar

#176250
1aaaae

#176500
0aaaae
1aaaak
1aaaar

#176750
1aaaae

#177000
0aaaae
0aaaak
0aaaar

#177250
1aaaae

