clion/cpucr.vcd
$date
     Nov 15, 2015       10:39:30
$end

$version
 SystemC 2.3.1-Accellera --- Aug 26 2015 20:42:51
$end

$timescale
     1 ns
$end

$scope module SystemC $end
$var wire   12  aaaaa  address [11:0]  $end
$var wire    6  aaaab  data [5:0]  $end
$var wire    1  aaaac  enable       $end
$var wire    1  aaaad  rw       $end
$var wire    1  aaaae  clk       $end
$var wire    6  aaaaf  acum [5:0]  $end
$var wire    6  aaaag  s [5:0]  $end
$var wire    6  aaaah  ports_i [5:0]  $end
$var wire    6  aaaai  ports_o [5:0]  $end
$var wire    1  aaaaj  rps       $end
$var wire   12  aaaak  pc [11:0]  $end
$var wire    1  aaaal  CB       $end
$var wire    1  aaaam  CM       $end
$var wire    1  aaaan  LE       $end
$var wire    1  aaaao  rps_stim_o       $end
$var wire    1  aaaap  s_LE       $end
$var wire    1  aaaaq  s_CM       $end
$var wire    1  aaaar  s_CB       $end
$var wire   32  aaaas  s_est_prox [31:0]  $end
$var wire   32  aaaat  s_est_pres [31:0]  $end
$var wire    1  aaaau  init_t_o       $end
$var wire    6  aaaav  ports_t_o [5:0]  $end
$var wire    6  aaaaw  ports_t_i [5:0]  $end
$var wire    6  aaaax  s_t_o [5:0]  $end
$var wire    6  aaaay  acum_t_o [5:0]  $end
$var wire    1  aaaaz  en_t_i       $end
$var wire    1  aaaba  rw_t_i       $end
$var wire   12  aaabb  addr_t_o [11:0]  $end
$var wire    6  aaabc  dat_t_o [5:0]  $end
$var wire    6  aaabd  dat_t_i [5:0]  $end
$var wire    1  aaabe  rps_t_i       $end
$var wire    1  aaabf  en_m_i       $end
$var wire    1  aaabg  rw_m_i       $end
$var wire   12  aaabh  addr_m_i [11:0]  $end
$var wire    6  aaabi  dat_m_o [5:0]  $end
$var wire    6  aaabj  dat_m_i [5:0]  $end
$var wire    1  aaabk  init_c_o       $end
$var wire   12  aaabl  pc_c_o [11:0]  $end
$var wire    1  aaabm  rps_c_i       $end
$var wire    6  aaabn  RI [5:0]  $end
$var wire    6  aaabo  s_c_o [5:0]  $end
$var wire    1  aaabp  en_c_o       $end
$var wire    1  aaabq  rw_c_o       $end
$var wire   12  aaabr  addr_c_o [11:0]  $end
$var wire    6  aaabs  dat_c_o [5:0]  $end
$upscope $end
$enddefinitions  $end

$comment
All initial values are dumped below at time 0 sec = 0 timescale units.
$end

$dumpvars
bXXXXXXXXXXXX aaaaa
bZZZZZZ aaaab
0aaaac
1aaaad
0aaaae
b111111 aaaaf
bXXXXXX aaaag
bXXXXXX aaaah
bXXXXXX aaaai
0aaaaj
bXXXXXXXXXXXX aaaak
0aaaal
0aaaam
1aaaan
0aaaao
1aaaap
0aaaaq
0aaaar
b1 aaaas
b0 aaaat
0aaaau
bXXXXXX aaaav
bXXXXXX aaaaw
bXXXXXX aaaax
b111111 aaaay
0aaaaz
1aaaba
bXXXXXXXXXXXX aaabb
bZZZZZZ aaabc
bZZZZZZ aaabd
0aaabe
0aaabf
1aaabg
bXXXXXXXXXXXX aaabh
bZZZZZZ aaabi
bZZZZZZ aaabj
0aaabk
bXXXXXXXXXXXX aaabl
0aaabm
b0 aaabn
bXXXXXX aaabo
0aaabp
1aaabq
bXXXXXXXXXXXX aaabr
bZZZZZZ aaabs
$end

#250
1aaaae

#500
b0 aaaaa
b10100 aaaab
1aaaac
0aaaae
1aaaaj
b0 aaaak
1aaaal
1aaaam
1aaaao
1aaaaq
1aaaar
b10 aaaas
b1 aaaat
1aaaaz
b0 aaabb
b10100 aaabc
b10100 aaabd
1aaabe
1aaabf
b0 aaabh
b10100 aaabi
b10100 aaabj
b0 aaabl
1aaabm
1aaabp
b0 aaabr
b10100 aaabs

#750
1aaaae

#1000
0aaaae
b10001 aaaag
0aaaal
0aaaam
0aaaaq
0aaaar
b1 aaaas
b10 aaaat
b10001 aaaax
b10100 aaabn
b10001 aaabo

#1250
1aaaae

#1500
b1 aaaaa
b11100 aaaab
0aaaae
b1 aaaak
1aaaal
1aaaam
1aaaaq
1aaaar
b10 aaaas
b1 aaaat
b1 aaabb
b11100 aaabc
b11100 aaabd
b1 aaabh
b11100 aaabi
b11100 aaabj
b1 aaabl
b1 aaabr
b11100 aaabs

#1750
1aaaae

#2000
0aaaae
b10000 aaaag
0aaaal
0aaaam
0aaaaq
0aaaar
b1 aaaas
b10 aaaat
b10000 aaaax
b11100 aaabn
b10000 aaabo

#2250
1aaaae

#2500
b10 aaaaa
b0 aaaab
0aaaae
b10 aaaak
1aaaal
1aaaam
1aaaaq
1aaaar
b10 aaaas
b1 aaaat
b10 aaabb
b0 aaabc
b0 aaabd
b10 aaabh
b0 aaabi
b0 aaabj
b10 aaabl
b10 aaabr
b0 aaabs

#2750
1aaaae

#3000
0aaaae
0aaaal
0aaaam
0aaaaq
0aaaar
b11 aaaas
b10 aaaat
b0 aaabn

#3250
1aaaae

#3500
b11 aaaaa
0aaaae
b11 aaaak
1aaaam
1aaaaq
b100 aaaas
b11 aaaat
b11 aaabb
b11 aaabh
b11 aaabl
b11 aaabr

#3750
1aaaae

#4000
0aaaae
b0 aaaaf
b10010 aaaag
0aaaam
0aaaaq
b1 aaaas
b100 aaaat
b10010 aaaax
b0 aaaay
b10010 aaabo

#4250
1aaaae

#4500
b100 aaaaa
b10 aaaab
0aaaae
b100 aaaak
1aaaal
1aaaam
1aaaaq
1aaaar
b10 aaaas
b1 aaaat
b100 aaabb
b10 aaabc
b10 aaabd
b100 aaabh
b10 aaabi
b10 aaabj
b100 aaabl
b100 aaabr
b10 aaabs

#4750
1aaaae

#5000
0aaaae
0aaaal
0aaaam
0aaaaq
0aaaar
b11 aaaas
b10 aaaat
b10 aaabn

#5250
1aaaae

#5500
b101 aaaaa
b111100 aaaab
0aaaae
b101 aaaak
1aaaam
1aaaaq
b100 aaaas
b11 aaaat
b101 aaabb
b111100 aaabc
b111100 aaabd
b101 aaabh
b111100 aaabi
b111100 aaabj
b101 aaabl
b101 aaabr
b111100 aaabs

#5750
1aaaae

#6000
0aaaae
b110 aaaak
0aaaam
0aaaaq
b1 aaaas
b100 aaaat
b110 aaabl

#6250
1aaaae

#6500
b10 aaaaa
b0 aaaab
0aaaae
b10 aaaak
1aaaal
1aaaam
1aaaaq
1aaaar
b10 aaaas
b1 aaaat
b10 aaabb
b0 aaabc
b0 aaabd
b10 aaabh
b0 aaabi
b0 aaabj
b10 aaabl
b10 aaabr
b0 aaabs

#6750
1aaaae

#7000
0aaaae
0aaaal
0aaaam
0aaaaq
0aaaar
b11 aaaas
b10 aaaat
b0 aaabn

#7250
1aaaae

#7500
b11 aaaaa
0aaaae
b11 aaaak
1aaaam
1aaaaq
b100 aaaas
b11 aaaat
b11 aaabb
b11 aaabh
b11 aaabl
b11 aaabr

#7750
1aaaae

#8000
0aaaae
0aaaam
0aaaaq
b1 aaaas
b100 aaaat

#8250
1aaaae

#8500
b100 aaaaa
b10 aaaab
0aaaae
b100 aaaak
1aaaal
1aaaam
1aaaaq
1aaaar
b10 aaaas
b1 aaaat
b100 aaabb
b10 aaabc
b10 aaabd
b100 aaabh
b10 aaabi
b10 aaabj
b100 aaabl
b100 aaabr
b10 aaabs

#8750
1aaaae

#9000
0aaaae
0aaaal
0aaaam
0aaaaq
0aaaar
b11 aaaas
b10 aaaat
b10 aaabn

#9250
1aaaae

#9500
b101 aaaaa
b111100 aaaab
0aaaae
b101 aaaak
1aaaam
1aaaaq
b100 aaaas
b11 aaaat
b101 aaabb
b111100 aaabc
b111100 aaabd
b101 aaabh
b111100 aaabi
b111100 aaabj
b101 aaabl
b101 aaabr
b111100 aaabs

#9750
1aaaae

#10000
0aaaae
b110 aaaak
0aaaam
0aaaaq
b1 aaaas
b100 aaaat
b110 aaabl

#10250
1aaaae

#10500
b10 aaaaa
b0 aaaab
0aaaae
b10 aaaak
1aaaal
1aaaam
1aaaaq
1aaaar
b10 aaaas
b1 aaaat
b10 aaabb
b0 aaabc
b0 aaabd
b10 aaabh
b0 aaabi
b0 aaabj
b10 aaabl
b10 aaabr
b0 aaabs

#10750
1aaaae

#11000
0aaaae
0aaaal
0aaaam
0aaaaq
0aaaar
b11 aaaas
b10 aaaat
b0 aaabn

#11250
1aaaae

#11500
b11 aaaaa
0aaaae
b11 aaaak
1aaaam
1aaaaq
b100 aaaas
b11 aaaat
b11 aaabb
b11 aaabh
b11 aaabl
b11 aaabr

#11750
1aaaae

#12000
0aaaae
0aaaam
0aaaaq
b1 aaaas
b100 aaaat

#12250
1aaaae

#12500
b100 aaaaa
b10 aaaab
0aaaae
b100 aaaak
1aaaal
1aaaam
1aaaaq
1aaaar
b10 aaaas
b1 aaaat
b100 aaabb
b10 aaabc
b10 aaabd
b100 aaabh
b10 aaabi
b10 aaabj
b100 aaabl
b100 aaabr
b10 aaabs

#12750
1aaaae

#13000
0aaaae
0aaaal
0aaaam
0aaaaq
0aaaar
b11 aaaas
b10 aaaat
b10 aaabn

#13250
1aaaae

#13500
b101 aaaaa
b111100 aaaab
0aaaae
b101 aaaak
1aaaam
1aaaaq
b100 aaaas
b11 aaaat
b101 aaabb
b111100 aaabc
b111100 aaabd
b101 aaabh
b111100 aaabi
b111100 aaabj
b101 aaabl
b101 aaabr
b111100 aaabs

#13750
1aaaae

#14000
0aaaae
b110 aaaak
0aaaam
0aaaaq
b1 aaaas
b100 aaaat
b110 aaabl

#14250
1aaaae

#14500
b10 aaaaa
b0 aaaab
0aaaae
b10 aaaak
1aaaal
1aaaam
1aaaaq
1aaaar
b10 aaaas
b1 aaaat
b10 aaabb
b0 aaabc
b0 aaabd
b10 aaabh
b0 aaabi
b0 aaabj
b10 aaabl
b10 aaabr
b0 aaabs

#14750
1aaaae

#15000
0aaaae
0aaaal
0aaaam
0aaaaq
0aaaar
b11 aaaas
b10 aaaat
b0 aaabn

#15250
1aaaae

#15500
b11 aaaaa
0aaaae
b11 aaaak
1aaaam
1aaaaq
b100 aaaas
b11 aaaat
b11 aaabb
b11 aaabh
b11 aaabl
b11 aaabr

#15750
1aaaae

#16000
0aaaae
0aaaam
0aaaaq
b1 aaaas
b100 aaaat

#16250
1aaaae

#16500
b100 aaaaa
b10 aaaab
0aaaae
b100 aaaak
1aaaal
1aaaam
1aaaaq
1aaaar
b10 aaaas
b1 aaaat
b100 aaabb
b10 aaabc
b10 aaabd
b100 aaabh
b10 aaabi
b10 aaabj
b100 aaabl
b100 aaabr
b10 aaabs

#16750
1aaaae

#17000
0aaaae
0aaaal
0aaaam
0aaaaq
0aaaar
b11 aaaas
b10 aaaat
b10 aaabn

#17250
1aaaae

#17500
b101 aaaaa
b111100 aaaab
0aaaae
b101 aaaak
1aaaam
1aaaaq
b100 aaaas
b11 aaaat
b101 aaabb
b111100 aaabc
b111100 aaabd
b101 aaabh
b111100 aaabi
b111100 aaabj
b101 aaabl
b101 aaabr
b111100 aaabs

#17750
1aaaae

#18000
0aaaae
b110 aaaak
0aaaam
0aaaaq
b1 aaaas
b100 aaaat
b110 aaabl

#18250
1aaaae

#18500
b10 aaaaa
b0 aaaab
0aaaae
b10 aaaak
1aaaal
1aaaam
1aaaaq
1aaaar
b10 aaaas
b1 aaaat
b10 aaabb
b0 aaabc
b0 aaabd
b10 aaabh
b0 aaabi
b0 aaabj
b10 aaabl
b10 aaabr
b0 aaabs

#18750
1aaaae

#19000
0aaaae
0aaaal
0aaaam
0aaaaq
0aaaar
b11 aaaas
b10 aaaat
b0 aaabn

#19250
1aaaae

#19500
b11 aaaaa
0aaaae
b11 aaaak
1aaaam
1aaaaq
b100 aaaas
b11 aaaat
b11 aaabb
b11 aaabh
b11 aaabl
b11 aaabr

#19750
1aaaae

#20000
0aaaae
0aaaam
0aaaaq
b1 aaaas
b100 aaaat

#20250
1aaaae

#20500
b100 aaaaa
b10 aaaab
0aaaae
b100 aaaak
1aaaal
1aaaam
1aaaaq
1aaaar
b10 aaaas
b1 aaaat
b100 aaabb
b10 aaabc
b10 aaabd
b100 aaabh
b10 aaabi
b10 aaabj
b100 aaabl
b100 aaabr
b10 aaabs

#20750
1aaaae

#21000
0aaaae
0aaaal
0aaaam
0aaaaq
0aaaar
b11 aaaas
b10 aaaat
b10 aaabn

#21250
1aaaae

#21500
b101 aaaaa
b111100 aaaab
0aaaae
b101 aaaak
1aaaam
1aaaaq
b100 aaaas
b11 aaaat
b101 aaabb
b111100 aaabc
b111100 aaabd
b101 aaabh
b111100 aaabi
b111100 aaabj
b101 aaabl
b101 aaabr
b111100 aaabs

#21750
1aaaae

#22000
0aaaae
b110 aaaak
0aaaam
0aaaaq
b1 aaaas
b100 aaaat
b110 aaabl

#22250
1aaaae

#22500
b10 aaaaa
b0 aaaab
0aaaae
b10 aaaak
1aaaal
1aaaam
1aaaaq
1aaaar
b10 aaaas
b1 aaaat
b10 aaabb
b0 aaabc
b0 aaabd
b10 aaabh
b0 aaabi
b0 aaabj
b10 aaabl
b10 aaabr
b0 aaabs

#22750
1aaaae

#23000
0aaaae
0aaaal
0aaaam
0aaaaq
0aaaar
b11 aaaas
b10 aaaat
b0 aaabn

#23250
1aaaae

#23500
b11 aaaaa
0aaaae
b11 aaaak
1aaaam
1aaaaq
b100 aaaas
b11 aaaat
b11 aaabb
b11 aaabh
b11 aaabl
b11 aaabr

#23750
1aaaae

#24000
0aaaae
0aaaam
0aaaaq
b1 aaaas
b100 aaaat

#24250
1aaaae

#24500
b100 aaaaa
b10 aaaab
0aaaae
b100 aaaak
1aaaal
1aaaam
1aaaaq
1aaaar
b10 aaaas
b1 aaaat
b100 aaabb
b10 aaabc
b10 aaabd
b100 aaabh
b10 aaabi
b10 aaabj
b100 aaabl
b100 aaabr
b10 aaabs

#24750
1aaaae

#25000
0aaaae
0aaaal
0aaaam
0aaaaq
0aaaar
b11 aaaas
b10 aaaat
b10 aaabn

#25250
1aaaae

#25500
b101 aaaaa
b111100 aaaab
0aaaae
b101 aaaak
1aaaam
1aaaaq
b100 aaaas
b11 aaaat
b101 aaabb
b111100 aaabc
b111100 aaabd
b101 aaabh
b111100 aaabi
b111100 aaabj
b101 aaabl
b101 aaabr
b111100 aaabs

#25750
1aaaae

#26000
0aaaae
b110 aaaak
0aaaam
0aaaaq
b1 aaaas
b100 aaaat
b110 aaabl

#26250
1aaaae

#26500
b10 aaaaa
b0 aaaab
0aaaae
b10 aaaak
1aaaal
1aaaam
1aaaaq
1aaaar
b10 aaaas
b1 aaaat
b10 aaabb
b0 aaabc
b0 aaabd
b10 aaabh
b0 aaabi
b0 aaabj
b10 aaabl
b10 aaabr
b0 aaabs

#26750
1aaaae

#27000
0aaaae
0aaaal
0aaaam
0aaaaq
0aaaar
b11 aaaas
b10 aaaat
b0 aaabn

#27250
1aaaae

#27500
b11 aaaaa
0aaaae
b11 aaaak
1aaaam
1aaaaq
b100 aaaas
b11 aaaat
b11 aaabb
b11 aaabh
b11 aaabl
b11 aaabr

#27750
1aaaae

#28000
0aaaae
0aaaam
0aaaaq
b1 aaaas
b100 aaaat

#28250
1aaaae

#28500
b100 aaaaa
b10 aaaab
0aaaae
b100 aaaak
1aaaal
1aaaam
1aaaaq
1aaaar
b10 aaaas
b1 aaaat
b100 aaabb
b10 aaabc
b10 aaabd
b100 aaabh
b10 aaabi
b10 aaabj
b100 aaabl
b100 aaabr
b10 aaabs

#28750
1aaaae

#29000
0aaaae
0aaaal
0aaaam
0aaaaq
0aaaar
b11 aaaas
b10 aaaat
b10 aaabn

#29250
1aaaae

#29500
b101 aaaaa
b111100 aaaab
0aaaae
b101 aaaak
1aaaam
1aaaaq
b100 aaaas
b11 aaaat
b101 aaabb
b111100 aaabc
b111100 aaabd
b101 aaabh
b111100 aaabi
b111100 aaabj
b101 aaabl
b101 aaabr
b111100 aaabs

#29750
1aaaae

#30000
0aaaae
b110 aaaak
0aaaam
0aaaaq
b1 aaaas
b100 aaaat
b110 aaabl

#30250
1aaaae

#30500
b10 aaaaa
b0 aaaab
0aaaae
b10 aaaak
1aaaal
1aaaam
1aaaaq
1aaaar
b10 aaaas
b1 aaaat
b10 aaabb
b0 aaabc
b0 aaabd
b10 aaabh
b0 aaabi
b0 aaabj
b10 aaabl
b10 aaabr
b0 aaabs

#30750
1aaaae

#31000
0aaaae
0aaaal
0aaaam
0aaaaq
0aaaar
b11 aaaas
b10 aaaat
b0 aaabn

#31250
1aaaae

#31500
b11 aaaaa
0aaaae
b11 aaaak
1aaaam
1aaaaq
b100 aaaas
b11 aaaat
b11 aaabb
b11 aaabh
b11 aaabl
b11 aaabr

#31750
1aaaae

#32000
0aaaae
0aaaam
0aaaaq
b1 aaaas
b100 aaaat

#32250
1aaaae

#32500
b100 aaaaa
b10 aaaab
0aaaae
b100 aaaak
1aaaal
1aaaam
1aaaaq
1aaaar
b10 aaaas
b1 aaaat
b100 aaabb
b10 aaabc
b10 aaabd
b100 aaabh
b10 aaabi
b10 aaabj
b100 aaabl
b100 aaabr
b10 aaabs

#32750
1aaaae

#33000
0aaaae
0aaaal
0aaaam
0aaaaq
0aaaar
b11 aaaas
b10 aaaat
b10 aaabn

#33250
1aaaae

#33500
b101 aaaaa
b111100 aaaab
0aaaae
b101 aaaak
1aaaam
1aaaaq
b100 aaaas
b11 aaaat
b101 aaabb
b111100 aaabc
b111100 aaabd
b101 aaabh
b111100 aaabi
b111100 aaabj
b101 aaabl
b101 aaabr
b111100 aaabs

#33750
1aaaae

#34000
0aaaae
b110 aaaak
0aaaam
0aaaaq
b1 aaaas
b100 aaaat
b110 aaabl

#34250
1aaaae

#34500
b10 aaaaa
b0 aaaab
0aaaae
b10 aaaak
1aaaal
1aaaam
1aaaaq
1aaaar
b10 aaaas
b1 aaaat
b10 aaabb
b0 aaabc
b0 aaabd
b10 aaabh
b0 aaabi
b0 aaabj
b10 aaabl
b10 aaabr
b0 aaabs

#34750
1aaaae

#35000
0aaaae
0aaaal
0aaaam
0aaaaq
0aaaar
b11 aaaas
b10 aaaat
b0 aaabn

#35250
1aaaae

#35500
b11 aaaaa
0aaaae
b11 aaaak
1aaaam
1aaaaq
b100 aaaas
b11 aaaat
b11 aaabb
b11 aaabh
b11 aaabl
b11 aaabr

#35750
1aaaae

#36000
0aaaae
0aaaam
0aaaaq
b1 aaaas
b100 aaaat

#36250
1aaaae

#36500
b100 aaaaa
b10 aaaab
0aaaae
b100 aaaak
1aaaal
1aaaam
1aaaaq
1aaaar
b10 aaaas
b1 aaaat
b100 aaabb
b10 aaabc
b10 aaabd
b100 aaabh
b10 aaabi
b10 aaabj
b100 aaabl
b100 aaabr
b10 aaabs

#36750
1aaaae

#37000
0aaaae
0aaaal
0aaaam
0aaaaq
0aaaar
b11 aaaas
b10 aaaat
b10 aaabn

#37250
1aaaae

#37500
b101 aaaaa
b111100 aaaab
0aaaae
b101 aaaak
1aaaam
1aaaaq
b100 aaaas
b11 aaaat
b101 aaabb
b111100 aaabc
b111100 aaabd
b101 aaabh
b111100 aaabi
b111100 aaabj
b101 aaabl
b101 aaabr
b111100 aaabs

#37750
1aaaae

#38000
0aaaae
b110 aaaak
0aaaam
0aaaaq
b1 aaaas
b100 aaaat
b110 aaabl

#38250
1aaaae

#38500
b10 aaaaa
b0 aaaab
0aaaae
b10 aaaak
1aaaal
1aaaam
1aaaaq
1aaaar
b10 aaaas
b1 aaaat
b10 aaabb
b0 aaabc
b0 aaabd
b10 aaabh
b0 aaabi
b0 aaabj
b10 aaabl
b10 aaabr
b0 aaabs

#38750
1aaaae

#39000
0aaaae
0aaaal
0aaaam
0aaaaq
0aaaar
b11 aaaas
b10 aaaat
b0 aaabn

#39250
1aaaae

#39500
b11 aaaaa
0aaaae
b11 aaaak
1aaaam
1aaaaq
b100 aaaas
b11 aaaat
b11 aaabb
b11 aaabh
b11 aaabl
b11 aaabr

#39750
1aaaae

#40000
0aaaae
0aaaam
0aaaaq
b1 aaaas
b100 aaaat

#40250
1aaaae

#40500
b100 aaaaa
b10 aaaab
0aaaae
b100 aaaak
1aaaal
1aaaam
1aaaaq
1aaaar
b10 aaaas
b1 aaaat
b100 aaabb
b10 aaabc
b10 aaabd
b100 aaabh
b10 aaabi
b10 aaabj
b100 aaabl
b100 aaabr
b10 aaabs

#40750
1aaaae

#41000
0aaaae
0aaaal
0aaaam
0aaaaq
0aaaar
b11 aaaas
b10 aaaat
b10 aaabn

#41250
1aaaae

#41500
b101 aaaaa
b111100 aaaab
0aaaae
b101 aaaak
1aaaam
1aaaaq
b100 aaaas
b11 aaaat
b101 aaabb
b111100 aaabc
b111100 aaabd
b101 aaabh
b111100 aaabi
b111100 aaabj
b101 aaabl
b101 aaabr
b111100 aaabs

#41750
1aaaae

#42000
0aaaae
b110 aaaak
0aaaam
0aaaaq
b1 aaaas
b100 aaaat
b110 aaabl

#42250
1aaaae

#42500
b10 aaaaa
b0 aaaab
0aaaae
b10 aaaak
1aaaal
1aaaam
1aaaaq
1aaaar
b10 aaaas
b1 aaaat
b10 aaabb
b0 aaabc
b0 aaabd
b10 aaabh
b0 aaabi
b0 aaabj
b10 aaabl
b10 aaabr
b0 aaabs

#42750
1aaaae

#43000
0aaaae
0aaaal
0aaaam
0aaaaq
0aaaar
b11 aaaas
b10 aaaat
b0 aaabn

#43250
1aaaae

#43500
b11 aaaaa
0aaaae
b11 aaaak
1aaaam
1aaaaq
b100 aaaas
b11 aaaat
b11 aaabb
b11 aaabh
b11 aaabl
b11 aaabr

#43750
1aaaae

#44000
0aaaae
0aaaam
0aaaaq
b1 aaaas
b100 aaaat

#44250
1aaaae

#44500
b100 aaaaa
b10 aaaab
0aaaae
b100 aaaak
1aaaal
1aaaam
1aaaaq
1aaaar
b10 aaaas
b1 aaaat
b100 aaabb
b10 aaabc
b10 aaabd
b100 aaabh
b10 aaabi
b10 aaabj
b100 aaabl
b100 aaabr
b10 aaabs

#44750
1aaaae

#45000
0aaaae
0aaaal
0aaaam
0aaaaq
0aaaar
b11 aaaas
b10 aaaat
b10 aaabn

#45250
1aaaae

#45500
b101 aaaaa
b111100 aaaab
0aaaae
b101 aaaak
1aaaam
1aaaaq
b100 aaaas
b11 aaaat
b101 aaabb
b111100 aaabc
b111100 aaabd
b101 aaabh
b111100 aaabi
b111100 aaabj
b101 aaabl
b101 aaabr
b111100 aaabs

#45750
1aaaae

#46000
0aaaae
b110 aaaak
0aaaam
0aaaaq
b1 aaaas
b100 aaaat
b110 aaabl

#46250
1aaaae

#46500
b10 aaaaa
b0 aaaab
0aaaae
b10 aaaak
1aaaal
1aaaam
1aaaaq
1aaaar
b10 aaaas
b1 aaaat
b10 aaabb
b0 aaabc
b0 aaabd
b10 aaabh
b0 aaabi
b0 aaabj
b10 aaabl
b10 aaabr
b0 aaabs

#46750
1aaaae

#47000
0aaaae
0aaaal
0aaaam
0aaaaq
0aaaar
b11 aaaas
b10 aaaat
b0 aaabn

#47250
1aaaae

#47500
b11 aaaaa
0aaaae
b11 aaaak
1aaaam
1aaaaq
b100 aaaas
b11 aaaat
b11 aaabb
b11 aaabh
b11 aaabl
b11 aaabr

#47750
1aaaae

#48000
0aaaae
0aaaam
0aaaaq
b1 aaaas
b100 aaaat

#48250
1aaaae

#48500
b100 aaaaa
b10 aaaab
0aaaae
b100 aaaak
1aaaal
1aaaam
1aaaaq
1aaaar
b10 aaaas
b1 aaaat
b100 aaabb
b10 aaabc
b10 aaabd
b100 aaabh
b10 aaabi
b10 aaabj
b100 aaabl
b100 aaabr
b10 aaabs

#48750
1aaaae

#49000
0aaaae
0aaaal
0aaaam
0aaaaq
0aaaar
b11 aaaas
b10 aaaat
b10 aaabn

#49250
1aaaae

#49500
b101 aaaaa
b111100 aaaab
0aaaae
b101 aaaak
1aaaam
1aaaaq
b100 aaaas
b11 aaaat
b101 aaabb
b111100 aaabc
b111100 aaabd
b101 aaabh
b111100 aaabi
b111100 aaabj
b101 aaabl
b101 aaabr
b111100 aaabs

#49750
1aaaae

#50000
0aaaae
b110 aaaak
0aaaam
0aaaaq
b1 aaaas
b100 aaaat
b110 aaabl

#50250
1aaaae

#50500
b10 aaaaa
b0 aaaab
0aaaae
b10 aaaak
1aaaal
1aaaam
1aaaaq
1aaaar
b10 aaaas
b1 aaaat
b10 aaabb
b0 aaabc
b0 aaabd
b10 aaabh
b0 aaabi
b0 aaabj
b10 aaabl
b10 aaabr
b0 aaabs

#50750
1aaaae

#51000
0aaaae
0aaaal
0aaaam
0aaaaq
0aaaar
b11 aaaas
b10 aaaat
b0 aaabn

#51250
1aaaae

#51500
b11 aaaaa
0aaaae
b11 aaaak
1aaaam
1aaaaq
b100 aaaas
b11 aaaat
b11 aaabb
b11 aaabh
b11 aaabl
b11 aaabr

#51750
1aaaae

#52000
0aaaae
0aaaam
0aaaaq
b1 aaaas
b100 aaaat

#52250
1aaaae

#52500
b100 aaaaa
b10 aaaab
0aaaae
b100 aaaak
1aaaal
1aaaam
1aaaaq
1aaaar
b10 aaaas
b1 aaaat
b100 aaabb
b10 aaabc
b10 aaabd
b100 aaabh
b10 aaabi
b10 aaabj
b100 aaabl
b100 aaabr
b10 aaabs

#52750
1aaaae

#53000
0aaaae
0aaaal
0aaaam
0aaaaq
0aaaar
b11 aaaas
b10 aaaat
b10 aaabn

#53250
1aaaae

#53500
b101 aaaaa
b111100 aaaab
0aaaae
b101 aaaak
1aaaam
1aaaaq
b100 aaaas
b11 aaaat
b101 aaabb
b111100 aaabc
b111100 aaabd
b101 aaabh
b111100 aaabi
b111100 aaabj
b101 aaabl
b101 aaabr
b111100 aaabs

#53750
1aaaae

#54000
0aaaae
b110 aaaak
0aaaam
0aaaaq
b1 aaaas
b100 aaaat
b110 aaabl

#54250
1aaaae

#54500
b10 aaaaa
b0 aaaab
0aaaae
b10 aaaak
1aaaal
1aaaam
1aaaaq
1aaaar
b10 aaaas
b1 aaaat
b10 aaabb
b0 aaabc
b0 aaabd
b10 aaabh
b0 aaabi
b0 aaabj
b10 aaabl
b10 aaabr
b0 aaabs

#54750
1aaaae

#55000
0aaaae
0aaaal
0aaaam
0aaaaq
0aaaar
b11 aaaas
b10 aaaat
b0 aaabn

#55250
1aaaae

#55500
b11 aaaaa
0aaaae
b11 aaaak
1aaaam
1aaaaq
b100 aaaas
b11 aaaat
b11 aaabb
b11 aaabh
b11 aaabl
b11 aaabr

#55750
1aaaae

#56000
0aaaae
0aaaam
0aaaaq
b1 aaaas
b100 aaaat

#56250
1aaaae

#56500
b100 aaaaa
b10 aaaab
0aaaae
b100 aaaak
1aaaal
1aaaam
1aaaaq
1aaaar
b10 aaaas
b1 aaaat
b100 aaabb
b10 aaabc
b10 aaabd
b100 aaabh
b10 aaabi
b10 aaabj
b100 aaabl
b100 aaabr
b10 aaabs

#56750
1aaaae

#57000
0aaaae
0aaaal
0aaaam
0aaaaq
0aaaar
b11 aaaas
b10 aaaat
b10 aaabn

#57250
1aaaae

#57500
b101 aaaaa
b111100 aaaab
0aaaae
b101 aaaak
1aaaam
1aaaaq
b100 aaaas
b11 aaaat
b101 aaabb
b111100 aaabc
b111100 aaabd
b101 aaabh
b111100 aaabi
b111100 aaabj
b101 aaabl
b101 aaabr
b111100 aaabs

#57750
1aaaae

#58000
0aaaae
b110 aaaak
0aaaam
0aaaaq
b1 aaaas
b100 aaaat
b110 aaabl

#58250
1aaaae

#58500
b10 aaaaa
b0 aaaab
0aaaae
b10 aaaak
1aaaal
1aaaam
1aaaaq
1aaaar
b10 aaaas
b1 aaaat
b10 aaabb
b0 aaabc
b0 aaabd
b10 aaabh
b0 aaabi
b0 aaabj
b10 aaabl
b10 aaabr
b0 aaabs

#58750
1aaaae

#59000
0aaaae
0aaaal
0aaaam
0aaaaq
0aaaar
b11 aaaas
b10 aaaat
b0 aaabn

#59250
1aaaae

#59500
b11 aaaaa
0aaaae
b11 aaaak
1aaaam
1aaaaq
b100 aaaas
b11 aaaat
b11 aaabb
b11 aaabh
b11 aaabl
b11 aaabr

#59750
1aaaae

#60000
0aaaae
0aaaam
0aaaaq
b1 aaaas
b100 aaaat

#60250
1aaaae

#60500
b100 aaaaa
b10 aaaab
0aaaae
b100 aaaak
1aaaal
1aaaam
1aaaaq
1aaaar
b10 aaaas
b1 aaaat
b100 aaabb
b10 aaabc
b10 aaabd
b100 aaabh
b10 aaabi
b10 aaabj
b100 aaabl
b100 aaabr
b10 aaabs

#60750
1aaaae

#61000
0aaaae
0aaaal
0aaaam
0aaaaq
0aaaar
b11 aaaas
b10 aaaat
b10 aaabn

#61250
1aaaae

#61500
b101 aaaaa
b111100 aaaab
0aaaae
b101 aaaak
1aaaam
1aaaaq
b100 aaaas
b11 aaaat
b101 aaabb
b111100 aaabc
b111100 aaabd
b101 aaabh
b111100 aaabi
b111100 aaabj
b101 aaabl
b101 aaabr
b111100 aaabs

#61750
1aaaae

#62000
0aaaae
b110 aaaak
0aaaam
0aaaaq
b1 aaaas
b100 aaaat
b110 aaabl

#62250
1aaaae

#62500
b10 aaaaa
b0 aaaab
0aaaae
b10 aaaak
1aaaal
1aaaam
1aaaaq
1aaaar
b10 aaaas
b1 aaaat
b10 aaabb
b0 aaabc
b0 aaabd
b10 aaabh
b0 aaabi
b0 aaabj
b10 aaabl
b10 aaabr
b0 aaabs

#62750
1aaaae

#63000
0aaaae
0aaaal
0aaaam
0aaaaq
0aaaar
b11 aaaas
b10 aaaat
b0 aaabn

#63250
1aaaae

#63500
b11 aaaaa
0aaaae
b11 aaaak
1aaaam
1aaaaq
b100 aaaas
b11 aaaat
b11 aaabb
b11 aaabh
b11 aaabl
b11 aaabr

#63750
1aaaae

#64000
0aaaae
0aaaam
0aaaaq
b1 aaaas
b100 aaaat

#64250
1aaaae

