clion/cpucr.vcd
$date
     Nov 25, 2015       22:46:50
$end

$version
 SystemC 2.3.1-Accellera --- Aug 26 2015 20:42:51
$end

$timescale
     1 ns
$end

$scope module SystemC $end
$var wire   12  aaaaa  address [11:0]  $end
$var wire    6  aaaab  data [5:0]  $end
$var wire    1  aaaac  enable       $end
$var wire    1  aaaad  rw       $end
$var wire    1  aaaae  clk       $end
$var wire    6  aaaaf  acum [5:0]  $end
$var wire    6  aaaag  s [5:0]  $end
$var wire    6  aaaah  ports_i [5:0]  $end
$var wire    6  aaaai  ports_o [5:0]  $end
$var wire    1  aaaaj  enable_ports       $end
$var wire    6  aaaak  address_ports [5:0]  $end
$var wire    1  aaaal  rw_ports       $end
$var wire    1  aaaam  rps       $end
$var wire   12  aaaan  pc [11:0]  $end
$var wire    1  aaaao  CB       $end
$var wire    1  aaaap  CM       $end
$var wire    1  aaaaq  LE       $end
$var wire    1  aaaar  rps_stim_o       $end
$var wire    1  aaaas  s_LE       $end
$var wire    1  aaaat  s_CM       $end
$var wire    1  aaaau  s_CB       $end
$var wire   32  aaaav  s_est_prox [31:0]  $end
$var wire   32  aaaaw  s_est_pres [31:0]  $end
$var wire    1  aaaax  init_t_o       $end
$var wire    6  aaaay  ports_t_o [5:0]  $end
$var wire    6  aaaaz  ports_t_i [5:0]  $end
$var wire    6  aaaba  s_t_o [5:0]  $end
$var wire    6  aaabb  acum_t_o [5:0]  $end
$var wire    1  aaabc  en_t_i       $end
$var wire    1  aaabd  rw_t_i       $end
$var wire   12  aaabe  addr_t_o [11:0]  $end
$var wire    6  aaabf  dat_t_o [5:0]  $end
$var wire    6  aaabg  dat_t_i [5:0]  $end
$var wire    1  aaabh  rps_t_i       $end
$var wire    1  aaabi  en_m_i       $end
$var wire    1  aaabj  rw_m_i       $end
$var wire   12  aaabk  addr_m_i [11:0]  $end
$var wire    6  aaabl  dat_m_o [5:0]  $end
$var wire    6  aaabm  dat_m_i [5:0]  $end
$var wire    1  aaabn  init_c_o       $end
$var wire   12  aaabo  pc_c_o [11:0]  $end
$var wire    1  aaabp  rps_c_i       $end
$var wire    6  aaabq  RI [5:0]  $end
$var wire    6  aaabr  s_c_o [5:0]  $end
$var wire    1  aaabs  en_c_o       $end
$var wire    1  aaabt  rw_c_o       $end
$var wire   12  aaabu  addr_c_o [11:0]  $end
$var wire    6  aaabv  dat_c_o [5:0]  $end
$upscope $end
$enddefinitions  $end

$comment
All initial values are dumped below at time 0 sec = 0 timescale units.
$end

$dumpvars
bXXXXXXXXXXXX aaaaa
bXXXXXX aaaab
0aaaac
1aaaad
0aaaae
b111111 aaaaf
bXXXXXX aaaag
bXXXXXX aaaah
bXXXXXX aaaai
Xaaaaj
bXXXXXX aaaak
Xaaaal
0aaaam
bXXXXXXXXXXXX aaaan
0aaaao
0aaaap
1aaaaq
0aaaar
1aaaas
0aaaat
0aaaau
b1 aaaav
b0 aaaaw
0aaaax
bXXXXXX aaaay
bXXXXXX aaaaz
bXXXXXX aaaba
b111111 aaabb
0aaabc
1aaabd
bXXXXXXXXXXXX aaabe
bXXXXXX aaabf
bZZZZZZ aaabg
0aaabh
0aaabi
1aaabj
bXXXXXXXXXXXX aaabk
bZZZZZZ aaabl
bXXXXXX aaabm
0aaabn
bXXXXXXXXXXXX aaabo
0aaabp
b0 aaabq
bXXXXXX aaabr
0aaabs
1aaabt
bXXXXXXXXXXXX aaabu
bXXXXXX aaabv
$end

#250
1aaaae

#500
b0 aaaaa
1aaaac
0aaaae
1aaaam
b0 aaaan
1aaaao
1aaaap
1aaaar
1aaaat
1aaaau
b10 aaaav
b1 aaaaw
1aaabc
b0 aaabe
b0 aaabg
1aaabh
1aaabi
b0 aaabk
b0 aaabl
b0 aaabo
1aaabp
1aaabs
b0 aaabu

#750
1aaaae

#1000
0aaaae
0aaaao
0aaaap
0aaaat
0aaaau
b11 aaaav
b10 aaaaw

#1250
1aaaae

#1500
b1 aaaaa
0aaaae
b1 aaaan
1aaaap
1aaaat
b100 aaaav
b11 aaaaw
b1 aaabe
b1 aaabk
b1 aaabo
b1 aaabu

#1750
1aaaae

#2000
0aaaae
b0 aaaaf
b10010 aaaag
0aaaap
0aaaat
b1 aaaav
b100 aaaaw
b10010 aaaba
b0 aaabb
b10010 aaabr

#2250
1aaaae

#2500
b10 aaaaa
0aaaae
b10 aaaan
1aaaao
1aaaap
1aaaat
1aaaau
b10 aaaav
b1 aaaaw
b10 aaabe
b10 aaabk
b10 aaabo
b10 aaabu

#2750
1aaaae

#3000
0aaaae
0aaaao
0aaaap
0aaaat
0aaaau
b11 aaaav
b10 aaaaw

#3250
1aaaae

#3500
b11 aaaaa
0aaaae
b11 aaaan
1aaaap
1aaaat
b100 aaaav
b11 aaaaw
b11 aaabe
b11 aaabk
b11 aaabo
b11 aaabu

#3750
1aaaae

#4000
0aaaae
0aaaap
0aaaat
b1 aaaav
b100 aaaaw

#4250
1aaaae

#4500
b100 aaaaa
0aaaae
b100 aaaan
1aaaao
1aaaap
1aaaat
1aaaau
b10 aaaav
b1 aaaaw
b100 aaabe
b100 aaabk
b100 aaabo
b100 aaabu

#4750
1aaaae

#5000
0aaaae
0aaaao
0aaaap
0aaaat
0aaaau
b11 aaaav
b10 aaaaw

#5250
1aaaae

#5500
b101 aaaaa
0aaaae
b101 aaaan
1aaaap
1aaaat
b100 aaaav
b11 aaaaw
b101 aaabe
b101 aaabk
b101 aaabo
b101 aaabu

#5750
1aaaae

#6000
0aaaae
0aaaap
0aaaat
b1 aaaav
b100 aaaaw

#6250
1aaaae

#6500
b110 aaaaa
0aaaae
b110 aaaan
1aaaao
1aaaap
1aaaat
1aaaau
b10 aaaav
b1 aaaaw
b110 aaabe
b110 aaabk
b110 aaabo
b110 aaabu

#6750
1aaaae

#7000
0aaaae
0aaaao
0aaaap
0aaaat
0aaaau
b11 aaaav
b10 aaaaw

#7250
1aaaae

#7500
b111 aaaaa
0aaaae
b111 aaaan
1aaaap
1aaaat
b100 aaaav
b11 aaaaw
b111 aaabe
b111 aaabk
b111 aaabo
b111 aaabu

#7750
1aaaae

#8000
0aaaae
0aaaap
0aaaat
b1 aaaav
b100 aaaaw

#8250
1aaaae

#8500
b1000 aaaaa
0aaaae
b1000 aaaan
1aaaao
1aaaap
1aaaat
1aaaau
b10 aaaav
b1 aaaaw
b1000 aaabe
b1000 aaabk
b1000 aaabo
b1000 aaabu

#8750
1aaaae

#9000
0aaaae
0aaaao
0aaaap
0aaaat
0aaaau
b11 aaaav
b10 aaaaw

#9250
1aaaae

#9500
b1001 aaaaa
0aaaae
b1001 aaaan
1aaaap
1aaaat
b100 aaaav
b11 aaaaw
b1001 aaabe
b1 aaabg
b1001 aaabk
b1 aaabl
b1001 aaabo
b1001 aaabu

#9750
1aaaae

#10000
0aaaae
b1 aaaaf
b10000 aaaag
0aaaap
0aaaat
b1 aaaav
b100 aaaaw
b10000 aaaba
b1 aaabb
b10000 aaabr

#10250
1aaaae

#10500
b1010 aaaaa
0aaaae
b1010 aaaan
1aaaao
1aaaap
1aaaat
1aaaau
b10 aaaav
b1 aaaaw
b1010 aaabe
b10101 aaabg
b1010 aaabk
b10101 aaabl
b1010 aaabo
b1010 aaabu

#10750
1aaaae

#11000
0aaaae
b10 aaaaf
0aaaao
0aaaap
0aaaat
0aaaau
b1 aaaav
b10 aaaaw
b10 aaabb
b10101 aaabq

#11250
1aaaae

#11500
b1011 aaaaa
0aaaae
b1011 aaaan
1aaaao
1aaaap
1aaaat
1aaaau
b10 aaaav
b1 aaaaw
b1011 aaabe
b100110 aaabg
b1011 aaabk
b100110 aaabl
b1011 aaabo
b1011 aaabu

#11750
1aaaae

#12000
0aaaae
0aaaao
0aaaap
0aaaat
0aaaau
b11110 aaaav
b10 aaaaw
b100110 aaabq

#12250
1aaaae

#12500
0aaaae
1aaaap
1aaaat
b11110 aaaaw

#12750
1aaaae

#13000
0aaaae
0aaaap
0aaaat

#13250
1aaaae

#13500
0aaaae
1aaaap
1aaaat

#13750
1aaaae

#14000
0aaaae
0aaaap
0aaaat

#14250
1aaaae

#14500
0aaaae
1aaaap
1aaaat

#14750
1aaaae

#15000
0aaaae
0aaaap
0aaaat

#15250
1aaaae

#15500
0aaaae
1aaaap
1aaaat

#15750
1aaaae

#16000
0aaaae
0aaaap
0aaaat

#16250
1aaaae

#16500
0aaaae
1aaaap
1aaaat

#16750
1aaaae

#17000
0aaaae
0aaaap
0aaaat

#17250
1aaaae

#17500
0aaaae
1aaaap
1aaaat

#17750
1aaaae

#18000
0aaaae
0aaaap
0aaaat

#18250
1aaaae

#18500
0aaaae
1aaaap
1aaaat

#18750
1aaaae

#19000
0aaaae
0aaaap
0aaaat

#19250
1aaaae

#19500
0aaaae
1aaaap
1aaaat

#19750
1aaaae

#20000
0aaaae
0aaaap
0aaaat

#20250
1aaaae

#20500
0aaaae
1aaaap
1aaaat

#20750
1aaaae

#21000
0aaaae
0aaaap
0aaaat

#21250
1aaaae

#21500
0aaaae
1aaaap
1aaaat

#21750
1aaaae

#22000
0aaaae
0aaaap
0aaaat

#22250
1aaaae

#22500
0aaaae
1aaaap
1aaaat

#22750
1aaaae

#23000
0aaaae
0aaaap
0aaaat

#23250
1aaaae

#23500
0aaaae
1aaaap
1aaaat

#23750
1aaaae

#24000
0aaaae
0aaaap
0aaaat

#24250
1aaaae

#24500
0aaaae
1aaaap
1aaaat

#24750
1aaaae

#25000
0aaaae
0aaaap
0aaaat

#25250
1aaaae

#25500
0aaaae
1aaaap
1aaaat

#25750
1aaaae

#26000
0aaaae
0aaaap
0aaaat

#26250
1aaaae

#26500
0aaaae
1aaaap
1aaaat

#26750
1aaaae

#27000
0aaaae
0aaaap
0aaaat

#27250
1aaaae

#27500
0aaaae
1aaaap
1aaaat

#27750
1aaaae

#28000
0aaaae
0aaaap
0aaaat

#28250
1aaaae

#28500
0aaaae
1aaaap
1aaaat

#28750
1aaaae

#29000
0aaaae
0aaaap
0aaaat

#29250
1aaaae

#29500
0aaaae
1aaaap
1aaaat

#29750
1aaaae

#30000
0aaaae
0aaaap
0aaaat

#30250
1aaaae

#30500
0aaaae
1aaaap
1aaaat

#30750
1aaaae

#31000
0aaaae
0aaaap
0aaaat

#31250
1aaaae

#31500
0aaaae
1aaaap
1aaaat

#31750
1aaaae

#32000
0aaaae
0aaaap
0aaaat

#32250
1aaaae

#32500
0aaaae
1aaaap
1aaaat

#32750
1aaaae

#33000
0aaaae
0aaaap
0aaaat

#33250
1aaaae

#33500
0aaaae
1aaaap
1aaaat

#33750
1aaaae

#34000
0aaaae
0aaaap
0aaaat

#34250
1aaaae

#34500
0aaaae
1aaaap
1aaaat

#34750
1aaaae

#35000
0aaaae
0aaaap
0aaaat

#35250
1aaaae

#35500
0aaaae
1aaaap
1aaaat

#35750
1aaaae

#36000
0aaaae
0aaaap
0aaaat

#36250
1aaaae

#36500
0aaaae
1aaaap
1aaaat

#36750
1aaaae

#37000
0aaaae
0aaaap
0aaaat

#37250
1aaaae

#37500
0aaaae
1aaaap
1aaaat

#37750
1aaaae

#38000
0aaaae
0aaaap
0aaaat

#38250
1aaaae

#38500
0aaaae
1aaaap
1aaaat

#38750
1aaaae

#39000
0aaaae
0aaaap
0aaaat

#39250
1aaaae

#39500
0aaaae
1aaaap
1aaaat

#39750
1aaaae

#40000
0aaaae
0aaaap
0aaaat

#40250
1aaaae

#40500
0aaaae
1aaaap
1aaaat

#40750
1aaaae

#41000
0aaaae
0aaaap
0aaaat

#41250
1aaaae

#41500
0aaaae
1aaaap
1aaaat

#41750
1aaaae

#42000
0aaaae
0aaaap
0aaaat

#42250
1aaaae

#42500
0aaaae
1aaaap
1aaaat

#42750
1aaaae

#43000
0aaaae
0aaaap
0aaaat

#43250
1aaaae

#43500
0aaaae
1aaaap
1aaaat

#43750
1aaaae

#44000
0aaaae
0aaaap
0aaaat

#44250
1aaaae

#44500
0aaaae
1aaaap
1aaaat

#44750
1aaaae

#45000
0aaaae
0aaaap
0aaaat

#45250
1aaaae

#45500
0aaaae
1aaaap
1aaaat

#45750
1aaaae

#46000
0aaaae
0aaaap
0aaaat

#46250
1aaaae

#46500
0aaaae
1aaaap
1aaaat

#46750
1aaaae

#47000
0aaaae
0aaaap
0aaaat

#47250
1aaaae

#47500
0aaaae
1aaaap
1aaaat

#47750
1aaaae

#48000
0aaaae
0aaaap
0aaaat

#48250
1aaaae

#48500
0aaaae
1aaaap
1aaaat

#48750
1aaaae

#49000
0aaaae
0aaaap
0aaaat

#49250
1aaaae

#49500
0aaaae
1aaaap
1aaaat

#49750
1aaaae

#50000
0aaaae
0aaaap
0aaaat

#50250
1aaaae

#50500
0aaaae
1aaaap
1aaaat

#50750
1aaaae

#51000
0aaaae
0aaaap
0aaaat

#51250
1aaaae

#51500
0aaaae
1aaaap
1aaaat

#51750
1aaaae

#52000
0aaaae
0aaaap
0aaaat

#52250
1aaaae

#52500
0aaaae
1aaaap
1aaaat

#52750
1aaaae

#53000
0aaaae
0aaaap
0aaaat

#53250
1aaaae

#53500
0aaaae
1aaaap
1aaaat

#53750
1aaaae

#54000
0aaaae
0aaaap
0aaaat

#54250
1aaaae

#54500
0aaaae
1aaaap
1aaaat

#54750
1aaaae

#55000
0aaaae
0aaaap
0aaaat

#55250
1aaaae

#55500
0aaaae
1aaaap
1aaaat

#55750
1aaaae

#56000
0aaaae
0aaaap
0aaaat

#56250
1aaaae

#56500
0aaaae
1aaaap
1aaaat

#56750
1aaaae

#57000
0aaaae
0aaaap
0aaaat

#57250
1aaaae

#57500
0aaaae
1aaaap
1aaaat

#57750
1aaaae

#58000
0aaaae
0aaaap
0aaaat

#58250
1aaaae

#58500
0aaaae
1aaaap
1aaaat

#58750
1aaaae

#59000
0aaaae
0aaaap
0aaaat

#59250
1aaaae

#59500
0aaaae
1aaaap
1aaaat

#59750
1aaaae

#60000
0aaaae
0aaaap
0aaaat

#60250
1aaaae

#60500
0aaaae
1aaaap
1aaaat

#60750
1aaaae

#61000
0aaaae
0aaaap
0aaaat

#61250
1aaaae

#61500
0aaaae
1aaaap
1aaaat

#61750
1aaaae

#62000
0aaaae
0aaaap
0aaaat

#62250
1aaaae

#62500
0aaaae
1aaaap
1aaaat

#62750
1aaaae

#63000
0aaaae
0aaaap
0aaaat

#63250
1aaaae

#63500
0aaaae
1aaaap
1aaaat

#63750
1aaaae

#64000
0aaaae
0aaaap
0aaaat

#64250
1aaaae

#64500
0aaaae
1aaaap
1aaaat

#64750
1aaaae

#65000
0aaaae
0aaaap
0aaaat

#65250
1aaaae

#65500
0aaaae
1aaaap
1aaaat

#65750
1aaaae

#66000
0aaaae
0aaaap
0aaaat

#66250
1aaaae

#66500
0aaaae
1aaaap
1aaaat

#66750
1aaaae

#67000
0aaaae
0aaaap
0aaaat

#67250
1aaaae

#67500
0aaaae
1aaaap
1aaaat

#67750
1aaaae

#68000
0aaaae
0aaaap
0aaaat

#68250
1aaaae

#68500
0aaaae
1aaaap
1aaaat

#68750
1aaaae

#69000
0aaaae
0aaaap
0aaaat

#69250
1aaaae

#69500
0aaaae
1aaaap
1aaaat

#69750
1aaaae

#70000
0aaaae
0aaaap
0aaaat

#70250
1aaaae

#70500
0aaaae
1aaaap
1aaaat

#70750
1aaaae

#71000
0aaaae
0aaaap
0aaaat

#71250
1aaaae

#71500
0aaaae
1aaaap
1aaaat

#71750
1aaaae

#72000
0aaaae
0aaaap
0aaaat

#72250
1aaaae

#72500
0aaaae
1aaaap
1aaaat

#72750
1aaaae

#73000
0aaaae
0aaaap
0aaaat

#73250
1aaaae

#73500
0aaaae
1aaaap
1aaaat

#73750
1aaaae

#74000
0aaaae
0aaaap
0aaaat

#74250
1aaaae

#74500
0aaaae
1aaaap
1aaaat

#74750
1aaaae

#75000
0aaaae
0aaaap
0aaaat

#75250
1aaaae

#75500
0aaaae
1aaaap
1aaaat

#75750
1aaaae

#76000
0aaaae
0aaaap
0aaaat

#76250
1aaaae

#76500
0aaaae
1aaaap
1aaaat

#76750
1aaaae

#77000
0aaaae
0aaaap
0aaaat

#77250
1aaaae

#77500
0aaaae
1aaaap
1aaaat

#77750
1aaaae

#78000
0aaaae
0aaaap
0aaaat

#78250
1aaaae

#78500
0aaaae
1aaaap
1aaaat

#78750
1aaaae

#79000
0aaaae
0aaaap
0aaaat

#79250
1aaaae

#79500
0aaaae
1aaaap
1aaaat

#79750
1aaaae

#80000
0aaaae
0aaaap
0aaaat

#80250
1aaaae

#80500
0aaaae
1aaaap
1aaaat

#80750
1aaaae

#81000
0aaaae
0aaaap
0aaaat

#81250
1aaaae

#81500
0aaaae
1aaaap
1aaaat

#81750
1aaaae

#82000
0aaaae
0aaaap
0aaaat

#82250
1aaaae

#82500
0aaaae
1aaaap
1aaaat

#82750
1aaaae

#83000
0aaaae
0aaaap
0aaaat

#83250
1aaaae

#83500
0aaaae
1aaaap
1aaaat

#83750
1aaaae

#84000
0aaaae
0aaaap
0aaaat

#84250
1aaaae

#84500
0aaaae
1aaaap
1aaaat

#84750
1aaaae

#85000
0aaaae
0aaaap
0aaaat

#85250
1aaaae

#85500
0aaaae
1aaaap
1aaaat

#85750
1aaaae

#86000
0aaaae
0aaaap
0aaaat

#86250
1aaaae

#86500
0aaaae
1aaaap
1aaaat

#86750
1aaaae

#87000
0aaaae
0aaaap
0aaaat

#87250
1aaaae

#87500
0aaaae
1aaaap
1aaaat

#87750
1aaaae

#88000
0aaaae
0aaaap
0aaaat

#88250
1aaaae

#88500
0aaaae
1aaaap
1aaaat

#88750
1aaaae

#89000
0aaaae
0aaaap
0aaaat

#89250
1aaaae

#89500
0aaaae
1aaaap
1aaaat

#89750
1aaaae

#90000
0aaaae
0aaaap
0aaaat

#90250
1aaaae

#90500
0aaaae
1aaaap
1aaaat

#90750
1aaaae

#91000
0aaaae
0aaaap
0aaaat

#91250
1aaaae

#91500
0aaaae
1aaaap
1aaaat

#91750
1aaaae

#92000
0aaaae
0aaaap
0aaaat

#92250
1aaaae

#92500
0aaaae
1aaaap
1aaaat

#92750
1aaaae

#93000
0aaaae
0aaaap
0aaaat

#93250
1aaaae

#93500
0aaaae
1aaaap
1aaaat

#93750
1aaaae

#94000
0aaaae
0aaaap
0aaaat

#94250
1aaaae

#94500
0aaaae
1aaaap
1aaaat

#94750
1aaaae

#95000
0aaaae
0aaaap
0aaaat

#95250
1aaaae

#95500
0aaaae
1aaaap
1aaaat

#95750
1aaaae

#96000
0aaaae
0aaaap
0aaaat

#96250
1aaaae

#96500
0aaaae
1aaaap
1aaaat

#96750
1aaaae

#97000
0aaaae
0aaaap
0aaaat

#97250
1aaaae

#97500
0aaaae
1aaaap
1aaaat

#97750
1aaaae

#98000
0aaaae
0aaaap
0aaaat

#98250
1aaaae

#98500
0aaaae
1aaaap
1aaaat

#98750
1aaaae

#99000
0aaaae
0aaaap
0aaaat

#99250
1aaaae

#99500
0aaaae
1aaaap
1aaaat

#99750
1aaaae

#100000
0aaaae
0aaaap
0aaaat

#100250
1aaaae

#100500
0aaaae
1aaaap
1aaaat

#100750
1aaaae

#101000
0aaaae
0aaaap
0aaaat

#101250
1aaaae

#101500
0aaaae
1aaaap
1aaaat

#101750
1aaaae

#102000
0aaaae
0aaaap
0aaaat

#102250
1aaaae

#102500
0aaaae
1aaaap
1aaaat

#102750
1aaaae

#103000
0aaaae
0aaaap
0aaaat

#103250
1aaaae

#103500
0aaaae
1aaaap
1aaaat

#103750
1aaaae

#104000
0aaaae
0aaaap
0aaaat

#104250
1aaaae

#104500
0aaaae
1aaaap
1aaaat

#104750
1aaaae

#105000
0aaaae
0aaaap
0aaaat

#105250
1aaaae

#105500
0aaaae
1aaaap
1aaaat

#105750
1aaaae

#106000
0aaaae
0aaaap
0aaaat

#106250
1aaaae

#106500
0aaaae
1aaaap
1aaaat

#106750
1aaaae

#107000
0aaaae
0aaaap
0aaaat

#107250
1aaaae

#107500
0aaaae
1aaaap
1aaaat

#107750
1aaaae

#108000
0aaaae
0aaaap
0aaaat

#108250
1aaaae

#108500
0aaaae
1aaaap
1aaaat

#108750
1aaaae

#109000
0aaaae
0aaaap
0aaaat

#109250
1aaaae

#109500
0aaaae
1aaaap
1aaaat

#109750
1aaaae

#110000
0aaaae
0aaaap
0aaaat

#110250
1aaaae

#110500
0aaaae
1aaaap
1aaaat

#110750
1aaaae

#111000
0aaaae
0aaaap
0aaaat

#111250
1aaaae

#111500
0aaaae
1aaaap
1aaaat

#111750
1aaaae

#112000
0aaaae
0aaaap
0aaaat

#112250
1aaaae

#112500
0aaaae
1aaaap
1aaaat

#112750
1aaaae

#113000
0aaaae
0aaaap
0aaaat

#113250
1aaaae

#113500
0aaaae
1aaaap
1aaaat

#113750
1aaaae

#114000
0aaaae
0aaaap
0aaaat

#114250
1aaaae

#114500
0aaaae
1aaaap
1aaaat

#114750
1aaaae

#115000
0aaaae
0aaaap
0aaaat

#115250
1aaaae

#115500
0aaaae
1aaaap
1aaaat

#115750
1aaaae

#116000
0aaaae
0aaaap
0aaaat

#116250
1aaaae

#116500
0aaaae
1aaaap
1aaaat

#116750
1aaaae

#117000
0aaaae
0aaaap
0aaaat

#117250
1aaaae

#117500
0aaaae
1aaaap
1aaaat

#117750
1aaaae

#118000
0aaaae
0aaaap
0aaaat

#118250
1aaaae

#118500
0aaaae
1aaaap
1aaaat

#118750
1aaaae

#119000
0aaaae
0aaaap
0aaaat

#119250
1aaaae

#119500
0aaaae
1aaaap
1aaaat

#119750
1aaaae

#120000
0aaaae
0aaaap
0aaaat

#120250
1aaaae

#120500
0aaaae
1aaaap
1aaaat

#120750
1aaaae

#121000
0aaaae
0aaaap
0aaaat

#121250
1aaaae

#121500
0aaaae
1aaaap
1aaaat

#121750
1aaaae

#122000
0aaaae
0aaaap
0aaaat

#122250
1aaaae

#122500
0aaaae
1aaaap
1aaaat

#122750
1aaaae

#123000
0aaaae
0aaaap
0aaaat

#123250
1aaaae

#123500
0aaaae
1aaaap
1aaaat

#123750
1aaaae

#124000
0aaaae
0aaaap
0aaaat

#124250
1aaaae

#124500
0aaaae
1aaaap
1aaaat

#124750
1aaaae

#125000
0aaaae
0aaaap
0aaaat

#125250
1aaaae

#125500
0aaaae
1aaaap
1aaaat

#125750
1aaaae

#126000
0aaaae
0aaaap
0aaaat

#126250
1aaaae

#126500
0aaaae
1aaaap
1aaaat

#126750
1aaaae

#127000
0aaaae
0aaaap
0aaaat

#127250
1aaaae

#127500
0aaaae
1aaaap
1aaaat

#127750
1aaaae

#128000
0aaaae
0aaaap
0aaaat

#128250
1aaaae

#128500
0aaaae
1aaaap
1aaaat

#128750
1aaaae

#129000
0aaaae
0aaaap
0aaaat

#129250
1aaaae

#129500
0aaaae
1aaaap
1aaaat

#129750
1aaaae

#130000
0aaaae
0aaaap
0aaaat

#130250
1aaaae

#130500
0aaaae
1aaaap
1aaaat

#130750
1aaaae

#131000
0aaaae
0aaaap
0aaaat

#131250
1aaaae

#131500
0aaaae
1aaaap
1aaaat

#131750
1aaaae

#132000
0aaaae
0aaaap
0aaaat

#132250
1aaaae

#132500
0aaaae
1aaaap
1aaaat

#132750
1aaaae

#133000
0aaaae
0aaaap
0aaaat

#133250
1aaaae

#133500
0aaaae
1aaaap
1aaaat

#133750
1aaaae

#134000
0aaaae
0aaaap
0aaaat

#134250
1aaaae

#134500
0aaaae
1aaaap
1aaaat

#134750
1aaaae

#135000
0aaaae
0aaaap
0aaaat

#135250
1aaaae

#135500
0aaaae
1aaaap
1aaaat

#135750
1aaaae

#136000
0aaaae
0aaaap
0aaaat

#136250
1aaaae

#136500
0aaaae
1aaaap
1aaaat

#136750
1aaaae

#137000
0aaaae
0aaaap
0aaaat

#137250
1aaaae

#137500
0aaaae
1aaaap
1aaaat

#137750
1aaaae

#138000
0aaaae
0aaaap
0aaaat

#138250
1aaaae

#138500
0aaaae
1aaaap
1aaaat

#138750
1aaaae

#139000
0aaaae
0aaaap
0aaaat

#139250
1aaaae

#139500
0aaaae
1aaaap
1aaaat

#139750
1aaaae

#140000
0aaaae
0aaaap
0aaaat

#140250
1aaaae

#140500
0aaaae
1aaaap
1aaaat

#140750
1aaaae

#141000
0aaaae
0aaaap
0aaaat

#141250
1aaaae

#141500
0aaaae
1aaaap
1aaaat

#141750
1aaaae

#142000
0aaaae
0aaaap
0aaaat

#142250
1aaaae

#142500
0aaaae
1aaaap
1aaaat

#142750
1aaaae

#143000
0aaaae
0aaaap
0aaaat

#143250
1aaaae

#143500
0aaaae
1aaaap
1aaaat

#143750
1aaaae

#144000
0aaaae
0aaaap
0aaaat

#144250
1aaaae

#144500
0aaaae
1aaaap
1aaaat

#144750
1aaaae

#145000
0aaaae
0aaaap
0aaaat

#145250
1aaaae

#145500
0aaaae
1aaaap
1aaaat

#145750
1aaaae

#146000
0aaaae
0aaaap
0aaaat

#146250
1aaaae

#146500
0aaaae
1aaaap
1aaaat

#146750
1aaaae

#147000
0aaaae
0aaaap
0aaaat

#147250
1aaaae

#147500
0aaaae
1aaaap
1aaaat

#147750
1aaaae

#148000
0aaaae
0aaaap
0aaaat

#148250
1aaaae

#148500
0aaaae
1aaaap
1aaaat

#148750
1aaaae

#149000
0aaaae
0aaaap
0aaaat

#149250
1aaaae

#149500
0aaaae
1aaaap
1aaaat

#149750
1aaaae

#150000
0aaaae
0aaaap
0aaaat

#150250
1aaaae

#150500
0aaaae
1aaaap
1aaaat

#150750
1aaaae

#151000
0aaaae
0aaaap
0aaaat

#151250
1aaaae

#151500
0aaaae
1aaaap
1aaaat

#151750
1aaaae

#152000
0aaaae
0aaaap
0aaaat

#152250
1aaaae

#152500
0aaaae
1aaaap
1aaaat

#152750
1aaaae

#153000
0aaaae
0aaaap
0aaaat

#153250
1aaaae

#153500
0aaaae
1aaaap
1aaaat

#153750
1aaaae

#154000
0aaaae
0aaaap
0aaaat

#154250
1aaaae

#154500
0aaaae
1aaaap
1aaaat

#154750
1aaaae

#155000
0aaaae
0aaaap
0aaaat

#155250
1aaaae

#155500
0aaaae
1aaaap
1aaaat

#155750
1aaaae

#156000
0aaaae
0aaaap
0aaaat

#156250
1aaaae

#156500
0aaaae
1aaaap
1aaaat

#156750
1aaaae

#157000
0aaaae
0aaaap
0aaaat

#157250
1aaaae

#157500
0aaaae
1aaaap
1aaaat

#157750
1aaaae

#158000
0aaaae
0aaaap
0aaaat

#158250
1aaaae

#158500
0aaaae
1aaaap
1aaaat

#158750
1aaaae

#159000
0aaaae
0aaaap
0aaaat

#159250
1aaaae

#159500
0aaaae
1aaaap
1aaaat

#159750
1aaaae

#160000
0aaaae
0aaaap
0aaaat

#160250
1aaaae

#160500
0aaaae
1aaaap
1aaaat

#160750
1aaaae

#161000
0aaaae
0aaaap
0aaaat

#161250
1aaaae

#161500
0aaaae
1aaaap
1aaaat

#161750
1aaaae

#162000
0aaaae
0aaaap
0aaaat

#162250
1aaaae

#162500
0aaaae
1aaaap
1aaaat

#162750
1aaaae

#163000
0aaaae
0aaaap
0aaaat

#163250
1aaaae

#163500
0aaaae
1aaaap
1aaaat

#163750
1aaaae

#164000
0aaaae
0aaaap
0aaaat

#164250
1aaaae

#164500
0aaaae
1aaaap
1aaaat

#164750
1aaaae

#165000
0aaaae
0aaaap
0aaaat

#165250
1aaaae

#165500
0aaaae
1aaaap
1aaaat

#165750
1aaaae

#166000
0aaaae
0aaaap
0aaaat

#166250
1aaaae

#166500
0aaaae
1aaaap
1aaaat

#166750
1aaaae

#167000
0aaaae
0aaaap
0aaaat

#167250
1aaaae

#167500
0aaaae
1aaaap
1aaaat

#167750
1aaaae

#168000
0aaaae
0aaaap
0aaaat

#168250
1aaaae

#168500
0aaaae
1aaaap
1aaaat

#168750
1aaaae

#169000
0aaaae
0aaaap
0aaaat

#169250
1aaaae

#169500
0aaaae
1aaaap
1aaaat

#169750
1aaaae

#170000
0aaaae
0aaaap
0aaaat

#170250
1aaaae

#170500
0aaaae
1aaaap
1aaaat

#170750
1aaaae

#171000
0aaaae
0aaaap
0aaaat

#171250
1aaaae

#171500
0aaaae
1aaaap
1aaaat

#171750
1aaaae

#172000
0aaaae
0aaaap
0aaaat

#172250
1aaaae

#172500
0aaaae
1aaaap
1aaaat

#172750
1aaaae

#173000
0aaaae
0aaaap
0aaaat

#173250
1aaaae

#173500
0aaaae
1aaaap
1aaaat

#173750
1aaaae

#174000
0aaaae
0aaaap
0aaaat

#174250
1aaaae

#174500
0aaaae
1aaaap
1aaaat

#174750
1aaaae

#175000
0aaaae
0aaaap
0aaaat

#175250
1aaaae

#175500
0aaaae
1aaaap
1aaaat

#175750
1aaaae

#176000
0aaaae
0aaaap
0aaaat

#176250
1aaaae

#176500
0aaaae
1aaaap
1aaaat

#176750
1aaaae

#177000
0aaaae
0aaaap
0aaaat

#177250
1aaaae

#177500
0aaaae
1aaaap
1aaaat

#177750
1aaaae

#178000
0aaaae
0aaaap
0aaaat

#178250
1aaaae

#178500
0aaaae
1aaaap
1aaaat

#178750
1aaaae

#179000
0aaaae
0aaaap
0aaaat

#179250
1aaaae

#179500
0aaaae
1aaaap
1aaaat

#179750
1aaaae

#180000
0aaaae
0aaaap
0aaaat

#180250
1aaaae

#180500
0aaaae
1aaaap
1aaaat

#180750
1aaaae

#181000
0aaaae
0aaaap
0aaaat

#181250
1aaaae

#181500
0aaaae
1aaaap
1aaaat

#181750
1aaaae

#182000
0aaaae
0aaaap
0aaaat

#182250
1aaaae

#182500
0aaaae
1aaaap
1aaaat

#182750
1aaaae

#183000
0aaaae
0aaaap
0aaaat

#183250
1aaaae

#183500
0aaaae
1aaaap
1aaaat

#183750
1aaaae

#184000
0aaaae
0aaaap
0aaaat

#184250
1aaaae

#184500
0aaaae
1aaaap
1aaaat

#184750
1aaaae

