clion/memory.vcd
$date
     Oct 18, 2015       19:28:50
$end

$version
 SystemC 2.3.1-Accellera --- Aug 26 2015 20:42:51
$end

$timescale
     1 ps
$end

$scope module SystemC $end
$var wire    1  aaaaa  enable       $end
$var wire    1  aaaab  rw       $end
$var wire   12  aaaac  address [11:0]  $end
$var wire    6  aaaad  data [5:0]  $end
$upscope $end
$enddefinitions  $end

$comment
All initial values are dumped below at time 0 sec = 0 timescale units.
$end

$dumpvars
0aaaaa
0aaaab
b0 aaaac
bZZZZZZ aaaad
$end

#0
1aaaaa
1aaaab
b1 aaaad

#5
b1 aaaac
b1000 aaaad

#10
b10 aaaac
b1 aaaad

#15
b11 aaaac
b0 aaaad

#20
b100 aaaac
b111 aaaad

#25
b110 aaaac
b10000 aaaad

#30
b111 aaaac
b1 aaaad

#35
0aaaab

