clion/memory.vcd
$date
     Oct 21, 2015       21:19:32
$end

$version
 SystemC 2.3.1-Accellera --- Aug 26 2015 20:42:51
$end

$timescale
     1 ps
$end

$scope module SystemC $end
$var wire    1  aaaaa  enable       $end
$var wire    1  aaaab  rw       $end
$var wire   12  aaaac  address [11:0]  $end
$var wire    6  aaaad  data [5:0]  $end
$upscope $end
$enddefinitions  $end

$comment
All initial values are dumped below at time 0 sec = 0 timescale units.
$end

$dumpvars
0aaaaa
0aaaab
b0 aaaac
bZZZZZZ aaaad
$end

#0
1aaaaa
1aaaab
b0 aaaad

#5
b1 aaaac
b111 aaaad

#10
b10 aaaac
b10000 aaaad

#15
b100 aaaac
b100110 aaaad

#20
0aaaab
b0 aaaac
b0 aaaad

#25
b1 aaaac
b111 aaaad

#30
b10 aaaac
b10000 aaaad

#35
b11 aaaac
b0 aaaad

#40
b100 aaaac
b100110 aaaad

#50
0aaaaa
bZZZZZZ aaaad

